{"count":347,"next":"http://testserver/api/projects/?ordering=name&page=2&project_type=reliability","previous":null,"results":[{"id":24,"name":"Heat Exchanger Reliability 0024","operator":"Meridian Industries","sector":"mining","sector_label":"Mining & Metals","region":"europe","region_label":"Europe","project_type":"reliability","project_type_label":"Reliability & Integrity","size_band":"mega","sanction_year":2015,"capex_estimate":663.8,"capex_actual":790.9,"cost_growth":0.19147333534197053,"schedule_slip":0.008264462809917326,"fel_score":50},{"id":59,"name":"Heat Exchanger Reliability 0059","operator":"Atlas Energy","sector":"power","sector_label":"Power & Utilities","region":"north_america","region_label":"North America","project_type":"reliability","project_type_label":"Reliability & Integrity","size_band":"mega","sanction_year":2016,"capex_estimate":644.0,"capex_actual":758.8,"cost_growth":0.17826086956521733,"schedule_slip":0.09629629629629635,"fel_score":56},{"id":90,"name":"Heat Exchanger Reliability 0090","operator":"Meridian Operations","sector":"pulp_paper","sector_label":"Pulp & Paper","region":"middle_east","region_label":"Middle East & Africa","project_type":"reliability","project_type_label":"Reliability & Integrity","size_band":"large","sanction_year":2018,"capex_estimate":127.1,"capex_actual":132.8,"cost_growth":0.04484657749803318,"schedule_slip":-0.0378378378378378,"fel_score":81},{"id":94,"name":"Heat Exchanger Reliability 0094","operator":"Harbor Operations","sector":"chemicals","sector_label":"Chemicals","region":"asia_pacific","region_label":"Asia Pacific","project_type":"reliability","project_type_label":"Reliability & Integrity","size_band":"mega","sanction_year":2024,"capex_estimate":676.9,"capex_actual":802.2,"cost_growth":0.18510858324715626,"schedule_slip":0.06741573033707861,"fel_score":66},{"id":156,"name":"Heat Exchanger Reliability 0156","operator":"Atlas Materials","sector":"pulp_paper","sector_label":"Pulp & Paper","region":"north_america","region_label":"North America","project_type":"reliability","project_type_label":"Reliability & Integrity","size_band":"large","sanction_year":2018,"capex_estimate":120.8,"capex_actual":131.3,"cost_growth":0.08692052980132463,"schedule_slip":0.0,"fel_score":41},{"id":206,"name":"Heat Exchanger Reliability 0206","operator":"Meridian Materials","sector":"chemicals","sector_label":"Chemicals","region":"asia_pacific","region_label":"Asia Pacific","project_type":"reliability","project_type_label":"Reliability & Integrity","size_band":"mega","sanction_year":2022,"capex_estimate":1072.3,"capex_actual":1087.9,"cost_growth":0.014548167490441235,"schedule_slip":-0.0141643059490085,"fel_score":75},{"id":208,"name":"Heat Exchanger Reliability 0208","operator":"Sterling Operations","sector":"mining","sector_label":"Mining & Metals","region":"europe","region_label":"Europe","project_type":"reliability","project_type_label":"Reliability & Integrity","size_band":"mega","sanction_year":2020,"capex_estimate":1247.2,"capex_actual":1267.4,"cost_growth":0.01619627966645289,"schedule_slip":0.047619047619047616,"fel_score":40},{"id":232,"name":"Heat Exchanger Reliability 0232","operator":"Atlas Resources","sector":"chemicals","sector_label":"Chemicals","region":"middle_east","region_label":"Middle East & Africa","project_type":"reliability","project_type_label":"Reliability & Integrity","size_band":"mega","sanction_year":2023,"capex_estimate":943.1,"capex_actual":909.7,"cost_growth":-0.03541512034778918,"schedule_slip":-0.00657894736842103,"fel_score":75},{"id":261,"name":"Heat Exchanger Reliability 0261","operator":"Keystone Energy","sector":"chemicals","sector_label":"Chemicals","region":"middle_east","region_label":"Middle East & Africa","project_type":"reliability","project_type_label":"Reliability & Integrity","size_band":"mega","sanction_year":2019,"capex_estimate":1043.5,"capex_actual":1136.5,"cost_growth":0.08912314326784859,"schedule_slip":0.019607843137254832,"fel_score":56},{"id":402,"name":"Heat Exchanger Reliability 0402","operator":"Granite Operations","sector":"power","sector_label":"Power & Utilities","region":"middle_east","region_label":"Middle East & Africa","project_type":"reliability","project_type_label":"Reliability & Integrity","size_band":"large","sanction_year":2024,"capex_estimate":477.2,"capex_actual":478.7,"cost_growth":0.0031433361274098913,"schedule_slip":0.024590163934426288,"fel_score":69},{"id":419,"name":"Heat Exchanger Reliability 0419","operator":"Summit Resources","sector":"mining","sector_label":"Mining & Metals","region":"north_america","region_label":"North America","project_type":"reliability","project_type_label":"Reliability & Integrity","size_band":"mega","sanction_year":2021,"capex_estimate":1548.2,"capex_actual":1653.1,"cost_growth":0.06775610386254997,"schedule_slip":-0.0024213075060531314,"fel_score":65},{"id":428,"name":"Heat Exchanger Reliability 0428","operator":"Vanguard Industries","sector":"chemicals","sector_label":"Chemicals","region":"north_america","region_label":"North America","project_type":"reliability","project_type_label":"Reliability & Integrity","size_band":"mega","sanction_year":2023,"capex_estimate":521.9,"capex_actual":551.5,"cost_growth":0.056715845947499566,"schedule_slip":0.00726392251815991,"fel_score":44},{"id":476,"name":"Heat Exchanger Reliability 0476","operator":"Pioneer Materials","sector":"chemicals","sector_label":"Chemicals","region":"middle_east","region_label":"Middle East & Africa","project_type":"reliability","project_type_label":"Reliability & Integrity","size_band":"medium","sanction_year":2024,"capex_estimate":56.3,"capex_actual":56.6,"cost_growth":0.005328596802841994,"schedule_slip":-0.06397306397306393,"fel_score":69},{"id":479,"name":"Heat Exchanger Reliability 0479","operator":"Cascade Resources","sector":"power","sector_label":"Power & Utilities","region":"north_america","region_label":"North America","project_type":"reliability","project_type_label":"Reliability & Integrity","size_band":"mega","sanction_year":2014,"capex_estimate":1195.9,"capex_actual":1287.2,"cost_growth":0.07634417593444263,"schedule_slip":0.05970149253731335,"fel_score":65},{"id":489,"name":"Heat Exchanger Reliability 0489","operator":"Keystone Resources","sector":"mining","sector_label":"Mining & Metals","region":"asia_pacific","region_label":"Asia Pacific","project_type":"reliability","project_type_label":"Reliability & Integrity","size_band":"large","sanction_year":2018,"capex_estimate":248.3,"capex_actual":296.1,"cost_growth":0.1925090616190093,"schedule_slip":0.09210526315789488,"fel_score":34},{"id":494,"name":"Heat Exchanger Reliability 0494","operator":"Cascade Energy","sector":"power","sector_label":"Power & Utilities","region":"south_america","region_label":"South America","project_type":"reliability","project_type_label":"Reliability & Integrity","size_band":"large","sanction_year":2015,"capex_estimate":309.0,"capex_actual":340.7,"cost_growth":0.102588996763754,"schedule_slip":0.18885448916408676,"fel_score":10},{"id":501,"name":"Heat Exchanger Reliability 0501","operator":"Keystone Materials","sector":"power","sector_label":"Power & Utilities","region":"north_america","region_label":"North America","project_type":"reliability","project_type_label":"Reliability & Integrity","size_band":"large","sanction_year":2018,"capex_estimate":431.6,"capex_actual":442.7,"cost_growth":0.02571825764596841,"schedule_slip":0.047619047619047596,"fel_score":44},{"id":596,"name":"Heat Exchanger Reliability 0596","operator":"Pioneer Materials","sector":"oil_gas","sector_label":"Oil & Gas","region":"asia_pacific","region_label":"Asia Pacific","project_type":"reliability","project_type_label":"Reliability & Integrity","size_band":"mega","sanction_year":2021,"capex_estimate":1088.6,"capex_actual":1092.1,"cost_growth":0.003215138710270072,"schedule_slip":0.08695652173913047,"fel_score":66},{"id":618,"name":"Heat Exchanger Reliability 0618","operator":"Meridian Energy","sector":"oil_gas","sector_label":"Oil & Gas","region":"asia_pacific","region_label":"Asia Pacific","project_type":"reliability","project_type_label":"Reliability & Integrity","size_band":"large","sanction_year":2016,"capex_estimate":261.6,"capex_actual":266.9,"cost_growth":0.020259938837920315,"schedule_slip":0.003663003663003585,"fel_score":69},{"id":625,"name":"Heat Exchanger Reliability 0625","operator":"Keystone Energy","sector":"power","sector_label":"Power & Utilities","region":"europe","region_label":"Europe","project_type":"reliability","project_type_label":"Reliability & Integrity","size_band":"mega","sanction_year":2015,"capex_estimate":2143.6,"capex_actual":2224.2,"cost_growth":0.03760029856316473,"schedule_slip":0.01680672268907547,"fel_score":66},{"id":659,"name":"Heat Exchanger Reliability 0659","operator":"Meridian Energy","sector":"mining","sector_label":"Mining & Metals","region":"europe","region_label":"Europe","project_type":"reliability","project_type_label":"Reliability & Integrity","size_band":"mega","sanction_year":2014,"capex_estimate":1001.8,"capex_actual":1022.8,"cost_growth":0.020962267917748054,"schedule_slip":0.03124999999999989,"fel_score":66},{"id":680,"name":"Heat Exchanger Reliability 0680","operator":"Pioneer Operations","sector":"power","sector_label":"Power & Utilities","region":"south_america","region_label":"South America","project_type":"reliability","project_type_label":"Reliability & Integrity","size_band":"mega","sanction_year":2016,"capex_estimate":1042.9,"capex_actual":1170.7,"cost_growth":0.12254290919551246,"schedule_slip":0.05379746835443024,"fel_score":35},{"id":734,"name":"Heat Exchanger Reliability 0734","operator":"Sterling Resources","sector":"chemicals","sector_label":"Chemicals","region":"europe","region_label":"Europe","project_type":"reliability","project_type_label":"Reliability & Integrity","size_band":"medium","sanction_year":2023,"capex_estimate":71.8,"capex_actual":76.1,"cost_growth":0.05988857938718659,"schedule_slip":-0.06250000000000006,"fel_score":69},{"id":755,"name":"Heat Exchanger Reliability 0755","operator":"Summit Resources","sector":"mining","sector_label":"Mining & Metals","region":"europe","region_label":"Europe","project_type":"reliability","project_type_label":"Reliability & Integrity","size_band":"mega","sanction_year":2021,"capex_estimate":701.9,"capex_actual":720.0,"cost_growth":0.025787149166547976,"schedule_slip":0.11688311688311681,"fel_score":84},{"id":789,"name":"Heat Exchanger Reliability 0789","operator":"Vanguard Energy","sector":"mining","sector_label":"Mining & Metals","region":"north_america","region_label":"North America","project_type":"reliability","project_type_label":"Reliability & Integrity","size_band":"large","sanction_year":2020,"capex_estimate":136.4,"capex_actual":162.1,"cost_growth":0.18841642228738995,"schedule_slip":0.03603603603603607,"fel_score":19}]}