{"count":376,"next":"http://testserver/api/projects/?ordering=name&page=2&project_type=infrastructure","previous":null,"results":[{"id":14,"name":"Access Road Infrastructure 0014","operator":"Cardinal Operations","sector":"chemicals","sector_label":"Chemicals","region":"asia_pacific","region_label":"Asia Pacific","project_type":"infrastructure","project_type_label":"Infrastructure","size_band":"large","sanction_year":2018,"capex_estimate":170.9,"capex_actual":183.2,"cost_growth":0.07197191339964881,"schedule_slip":0.13427561837455831,"fel_score":56},{"id":39,"name":"Access Road Infrastructure 0039","operator":"Pioneer Materials","sector":"oil_gas","sector_label":"Oil & Gas","region":"north_america","region_label":"North America","project_type":"infrastructure","project_type_label":"Infrastructure","size_band":"mega","sanction_year":2023,"capex_estimate":772.4,"capex_actual":774.5,"cost_growth":0.0027187985499741362,"schedule_slip":-0.05645161290322589,"fel_score":90},{"id":44,"name":"Access Road Infrastructure 0044","operator":"Northgate Energy","sector":"mining","sector_label":"Mining & Metals","region":"middle_east","region_label":"Middle East & Africa","project_type":"infrastructure","project_type_label":"Infrastructure","size_band":"large","sanction_year":2023,"capex_estimate":104.2,"capex_actual":128.3,"cost_growth":0.23128598848368528,"schedule_slip":0.07079646017699105,"fel_score":50},{"id":76,"name":"Access Road Infrastructure 0076","operator":"Cascade Energy","sector":"pulp_paper","sector_label":"Pulp & Paper","region":"europe","region_label":"Europe","project_type":"infrastructure","project_type_label":"Infrastructure","size_band":"large","sanction_year":2021,"capex_estimate":466.1,"capex_actual":452.7,"cost_growth":-0.028749195451619896,"schedule_slip":0.047120418848167464,"fel_score":75},{"id":109,"name":"Access Road Infrastructure 0109","operator":"Granite Industries","sector":"power","sector_label":"Power & Utilities","region":"south_america","region_label":"South America","project_type":"infrastructure","project_type_label":"Infrastructure","size_band":"mega","sanction_year":2023,"capex_estimate":1092.1,"capex_actual":1191.1,"cost_growth":0.09065103928211703,"schedule_slip":0.11724137931034478,"fel_score":50},{"id":131,"name":"Access Road Infrastructure 0131","operator":"Meridian Industries","sector":"oil_gas","sector_label":"Oil & Gas","region":"north_america","region_label":"North America","project_type":"infrastructure","project_type_label":"Infrastructure","size_band":"mega","sanction_year":2017,"capex_estimate":751.7,"capex_actual":814.0,"cost_growth":0.08287880803512032,"schedule_slip":0.1452991452991454,"fel_score":25},{"id":143,"name":"Access Road Infrastructure 0143","operator":"Atlas Energy","sector":"power","sector_label":"Power & Utilities","region":"europe","region_label":"Europe","project_type":"infrastructure","project_type_label":"Infrastructure","size_band":"mega","sanction_year":2023,"capex_estimate":1290.3,"capex_actual":1096.8,"cost_growth":-0.14996512438967682,"schedule_slip":0.041297935103244796,"fel_score":100},{"id":175,"name":"Access Road Infrastructure 0175","operator":"Cardinal Resources","sector":"pulp_paper","sector_label":"Pulp & Paper","region":"middle_east","region_label":"Middle East & Africa","project_type":"infrastructure","project_type_label":"Infrastructure","size_band":"mega","sanction_year":2024,"capex_estimate":538.2,"capex_actual":619.8,"cost_growth":0.1516164994425862,"schedule_slip":0.07368421052631571,"fel_score":31},{"id":183,"name":"Access Road Infrastructure 0183","operator":"Summit Energy","sector":"mining","sector_label":"Mining & Metals","region":"europe","region_label":"Europe","project_type":"infrastructure","project_type_label":"Infrastructure","size_band":"mega","sanction_year":2019,"capex_estimate":1055.5,"capex_actual":1147.3,"cost_growth":0.08697299857887253,"schedule_slip":0.06410256410256422,"fel_score":59},{"id":214,"name":"Access Road Infrastructure 0214","operator":"Meridian Materials","sector":"chemicals","sector_label":"Chemicals","region":"middle_east","region_label":"Middle East & Africa","project_type":"infrastructure","project_type_label":"Infrastructure","size_band":"mega","sanction_year":2022,"capex_estimate":1421.5,"capex_actual":1399.7,"cost_growth":-0.015335912768202571,"schedule_slip":-0.043589743589743664,"fel_score":81},{"id":238,"name":"Access Road Infrastructure 0238","operator":"Meridian Operations","sector":"chemicals","sector_label":"Chemicals","region":"asia_pacific","region_label":"Asia Pacific","project_type":"infrastructure","project_type_label":"Infrastructure","size_band":"mega","sanction_year":2019,"capex_estimate":783.2,"capex_actual":818.5,"cost_growth":0.04507150153217563,"schedule_slip":0.1020408163265306,"fel_score":65},{"id":246,"name":"Access Road Infrastructure 0246","operator":"Keystone Industries","sector":"oil_gas","sector_label":"Oil & Gas","region":"asia_pacific","region_label":"Asia Pacific","project_type":"infrastructure","project_type_label":"Infrastructure","size_band":"medium","sanction_year":2014,"capex_estimate":67.9,"capex_actual":76.6,"cost_growth":0.1281296023564063,"schedule_slip":0.05789473684210534,"fel_score":34},{"id":271,"name":"Access Road Infrastructure 0271","operator":"Atlas Industries","sector":"chemicals","sector_label":"Chemicals","region":"asia_pacific","region_label":"Asia Pacific","project_type":"infrastructure","project_type_label":"Infrastructure","size_band":"mega","sanction_year":2023,"capex_estimate":1448.6,"capex_actual":1658.6,"cost_growth":0.14496755488057436,"schedule_slip":0.10994764397905747,"fel_score":50},{"id":298,"name":"Access Road Infrastructure 0298","operator":"Sterling Materials","sector":"chemicals","sector_label":"Chemicals","region":"europe","region_label":"Europe","project_type":"infrastructure","project_type_label":"Infrastructure","size_band":"large","sanction_year":2018,"capex_estimate":436.4,"capex_actual":484.7,"cost_growth":0.11067827681026585,"schedule_slip":0.12454212454212449,"fel_score":56},{"id":307,"name":"Access Road Infrastructure 0307","operator":"Keystone Operations","sector":"chemicals","sector_label":"Chemicals","region":"middle_east","region_label":"Middle East & Africa","project_type":"infrastructure","project_type_label":"Infrastructure","size_band":"mega","sanction_year":2014,"capex_estimate":870.8,"capex_actual":955.1,"cost_growth":0.09680753330271023,"schedule_slip":-0.0063694267515923345,"fel_score":41},{"id":309,"name":"Access Road Infrastructure 0309","operator":"Vanguard Industries","sector":"mining","sector_label":"Mining & Metals","region":"europe","region_label":"Europe","project_type":"infrastructure","project_type_label":"Infrastructure","size_band":"mega","sanction_year":2014,"capex_estimate":1299.4,"capex_actual":1386.8,"cost_growth":0.06726181314452813,"schedule_slip":-0.013698630136986254,"fel_score":66},{"id":313,"name":"Access Road Infrastructure 0313","operator":"Harbor Industries","sector":"oil_gas","sector_label":"Oil & Gas","region":"south_america","region_label":"South America","project_type":"infrastructure","project_type_label":"Infrastructure","size_band":"mega","sanction_year":2018,"capex_estimate":906.2,"capex_actual":794.0,"cost_growth":-0.12381372765393957,"schedule_slip":-0.1209302325581396,"fel_score":91},{"id":319,"name":"Access Road Infrastructure 0319","operator":"Harbor Resources","sector":"power","sector_label":"Power & Utilities","region":"north_america","region_label":"North America","project_type":"infrastructure","project_type_label":"Infrastructure","size_band":"large","sanction_year":2022,"capex_estimate":258.9,"capex_actual":259.0,"cost_growth":0.0003862495171881914,"schedule_slip":0.0625,"fel_score":71},{"id":326,"name":"Access Road Infrastructure 0326","operator":"Meridian Operations","sector":"chemicals","sector_label":"Chemicals","region":"north_america","region_label":"North America","project_type":"infrastructure","project_type_label":"Infrastructure","size_band":"large","sanction_year":2022,"capex_estimate":302.8,"capex_actual":325.0,"cost_growth":0.0733157199471598,"schedule_slip":0.08366533864541824,"fel_score":60},{"id":334,"name":"Access Road Infrastructure 0334","operator":"Northgate Operations","sector":"pulp_paper","sector_label":"Pulp & Paper","region":"europe","region_label":"Europe","project_type":"infrastructure","project_type_label":"Infrastructure","size_band":"medium","sanction_year":2014,"capex_estimate":63.8,"capex_actual":69.9,"cost_growth":0.09561128526645782,"schedule_slip":0.03076923076923077,"fel_score":100},{"id":343,"name":"Access Road Infrastructure 0343","operator":"Northgate Industries","sector":"oil_gas","sector_label":"Oil & Gas","region":"north_america","region_label":"North America","project_type":"infrastructure","project_type_label":"Infrastructure","size_band":"large","sanction_year":2019,"capex_estimate":465.9,"capex_actual":491.2,"cost_growth":0.054303498604850856,"schedule_slip":-0.010050251256281372,"fel_score":59},{"id":360,"name":"Access Road Infrastructure 0360","operator":"Cardinal Energy","sector":"oil_gas","sector_label":"Oil & Gas","region":"asia_pacific","region_label":"Asia Pacific","project_type":"infrastructure","project_type_label":"Infrastructure","size_band":"medium","sanction_year":2020,"capex_estimate":46.9,"capex_actual":52.4,"cost_growth":0.11727078891257996,"schedule_slip":-0.05042016806722686,"fel_score":46},{"id":421,"name":"Access Road Infrastructure 0421","operator":"Cardinal Resources","sector":"mining","sector_label":"Mining & Metals","region":"europe","region_label":"Europe","project_type":"infrastructure","project_type_label":"Infrastructure","size_band":"mega","sanction_year":2020,"capex_estimate":606.1,"capex_actual":647.8,"cost_growth":0.06880052796568212,"schedule_slip":-0.01639344262295076,"fel_score":35},{"id":461,"name":"Access Road Infrastructure 0461","operator":"Summit Energy","sector":"oil_gas","sector_label":"Oil & Gas","region":"europe","region_label":"Europe","project_type":"infrastructure","project_type_label":"Infrastructure","size_band":"mega","sanction_year":2017,"capex_estimate":1288.5,"capex_actual":1487.5,"cost_growth":0.1544431509507179,"schedule_slip":0.09999999999999996,"fel_score":59},{"id":468,"name":"Access Road Infrastructure 0468","operator":"Granite Energy","sector":"pulp_paper","sector_label":"Pulp & Paper","region":"middle_east","region_label":"Middle East & Africa","project_type":"infrastructure","project_type_label":"Infrastructure","size_band":"medium","sanction_year":2024,"capex_estimate":90.2,"capex_actual":102.5,"cost_growth":0.13636363636363633,"schedule_slip":0.15324675324675321,"fel_score":65}]}