{"count":370,"next":"http://testserver/api/projects/?ordering=name&page=2&project_type=asset_replacement","previous":null,"results":[{"id":41,"name":"Boiler Asset 0041","operator":"Cascade Industries","sector":"chemicals","sector_label":"Chemicals","region":"middle_east","region_label":"Middle East & Africa","project_type":"asset_replacement","project_type_label":"Asset Replacement","size_band":"mega","sanction_year":2023,"capex_estimate":1310.3,"capex_actual":1467.5,"cost_growth":0.11997252537586817,"schedule_slip":-0.05813953488372093,"fel_score":81},{"id":56,"name":"Boiler Asset 0056","operator":"Keystone Industries","sector":"mining","sector_label":"Mining & Metals","region":"asia_pacific","region_label":"Asia Pacific","project_type":"asset_replacement","project_type_label":"Asset Replacement","size_band":"mega","sanction_year":2017,"capex_estimate":1191.0,"capex_actual":1252.5,"cost_growth":0.05163727959697733,"schedule_slip":0.05026455026455042,"fel_score":69},{"id":66,"name":"Boiler Asset 0066","operator":"Northgate Resources","sector":"power","sector_label":"Power & Utilities","region":"europe","region_label":"Europe","project_type":"asset_replacement","project_type_label":"Asset Replacement","size_band":"large","sanction_year":2017,"capex_estimate":337.8,"capex_actual":357.6,"cost_growth":0.05861456483126113,"schedule_slip":0.0902777777777777,"fel_score":49},{"id":102,"name":"Boiler Asset 0102","operator":"Sterling Energy","sector":"mining","sector_label":"Mining & Metals","region":"asia_pacific","region_label":"Asia Pacific","project_type":"asset_replacement","project_type_label":"Asset Replacement","size_band":"large","sanction_year":2017,"capex_estimate":391.7,"capex_actual":374.5,"cost_growth":-0.04391115649731935,"schedule_slip":0.09006211180124218,"fel_score":50},{"id":160,"name":"Boiler Asset 0160","operator":"Atlas Energy","sector":"oil_gas","sector_label":"Oil & Gas","region":"middle_east","region_label":"Middle East & Africa","project_type":"asset_replacement","project_type_label":"Asset Replacement","size_band":"mega","sanction_year":2015,"capex_estimate":531.3,"capex_actual":507.2,"cost_growth":-0.04536043666478443,"schedule_slip":0.041666666666666644,"fel_score":91},{"id":170,"name":"Boiler Asset 0170","operator":"Summit Energy","sector":"chemicals","sector_label":"Chemicals","region":"asia_pacific","region_label":"Asia Pacific","project_type":"asset_replacement","project_type_label":"Asset Replacement","size_band":"mega","sanction_year":2016,"capex_estimate":697.7,"capex_actual":637.7,"cost_growth":-0.08599684678228464,"schedule_slip":-0.010676156583629918,"fel_score":66},{"id":194,"name":"Boiler Asset 0194","operator":"Granite Operations","sector":"mining","sector_label":"Mining & Metals","region":"middle_east","region_label":"Middle East & Africa","project_type":"asset_replacement","project_type_label":"Asset Replacement","size_band":"mega","sanction_year":2014,"capex_estimate":562.3,"capex_actual":584.1,"cost_growth":0.03876934020985252,"schedule_slip":0.02393617021276592,"fel_score":66},{"id":216,"name":"Boiler Asset 0216","operator":"Cascade Industries","sector":"power","sector_label":"Power & Utilities","region":"middle_east","region_label":"Middle East & Africa","project_type":"asset_replacement","project_type_label":"Asset Replacement","size_band":"large","sanction_year":2015,"capex_estimate":407.2,"capex_actual":434.1,"cost_growth":0.06606090373280951,"schedule_slip":0.03488372093023264,"fel_score":59},{"id":235,"name":"Boiler Asset 0235","operator":"Cascade Materials","sector":"mining","sector_label":"Mining & Metals","region":"south_america","region_label":"South America","project_type":"asset_replacement","project_type_label":"Asset Replacement","size_band":"large","sanction_year":2020,"capex_estimate":417.3,"capex_actual":441.1,"cost_growth":0.05703330936975799,"schedule_slip":0.03225806451612891,"fel_score":69},{"id":245,"name":"Boiler Asset 0245","operator":"Cascade Operations","sector":"chemicals","sector_label":"Chemicals","region":"south_america","region_label":"South America","project_type":"asset_replacement","project_type_label":"Asset Replacement","size_band":"mega","sanction_year":2019,"capex_estimate":1655.5,"capex_actual":1623.0,"cost_growth":-0.019631531259438235,"schedule_slip":-0.014150943396226448,"fel_score":90},{"id":301,"name":"Boiler Asset 0301","operator":"Summit Energy","sector":"oil_gas","sector_label":"Oil & Gas","region":"middle_east","region_label":"Middle East & Africa","project_type":"asset_replacement","project_type_label":"Asset Replacement","size_band":"mega","sanction_year":2020,"capex_estimate":644.1,"capex_actual":572.9,"cost_growth":-0.11054184132898624,"schedule_slip":0.0050505050505049425,"fel_score":56},{"id":305,"name":"Boiler Asset 0305","operator":"Cardinal Materials","sector":"pulp_paper","sector_label":"Pulp & Paper","region":"north_america","region_label":"North America","project_type":"asset_replacement","project_type_label":"Asset Replacement","size_band":"mega","sanction_year":2017,"capex_estimate":619.5,"capex_actual":595.8,"cost_growth":-0.03825665859564172,"schedule_slip":0.03535353535353532,"fel_score":85},{"id":308,"name":"Boiler Asset 0308","operator":"Harbor Resources","sector":"chemicals","sector_label":"Chemicals","region":"europe","region_label":"Europe","project_type":"asset_replacement","project_type_label":"Asset Replacement","size_band":"mega","sanction_year":2023,"capex_estimate":1199.1,"capex_actual":1097.1,"cost_growth":-0.0850637978483863,"schedule_slip":-0.0067567567567568525,"fel_score":85},{"id":338,"name":"Boiler Asset 0338","operator":"Pioneer Industries","sector":"mining","sector_label":"Mining & Metals","region":"south_america","region_label":"South America","project_type":"asset_replacement","project_type_label":"Asset Replacement","size_band":"large","sanction_year":2016,"capex_estimate":129.9,"capex_actual":130.8,"cost_growth":0.006928406466512746,"schedule_slip":-0.027237354085603085,"fel_score":69},{"id":348,"name":"Boiler Asset 0348","operator":"Harbor Resources","sector":"mining","sector_label":"Mining & Metals","region":"asia_pacific","region_label":"Asia Pacific","project_type":"asset_replacement","project_type_label":"Asset Replacement","size_band":"large","sanction_year":2017,"capex_estimate":314.9,"capex_actual":356.2,"cost_growth":0.131152746903779,"schedule_slip":0.07878787878787884,"fel_score":40},{"id":357,"name":"Boiler Asset 0357","operator":"Pioneer Industries","sector":"oil_gas","sector_label":"Oil & Gas","region":"asia_pacific","region_label":"Asia Pacific","project_type":"asset_replacement","project_type_label":"Asset Replacement","size_band":"mega","sanction_year":2023,"capex_estimate":1195.0,"capex_actual":1228.4,"cost_growth":0.027949790794979154,"schedule_slip":0.07981220657276991,"fel_score":56},{"id":389,"name":"Boiler Asset 0389","operator":"Harbor Materials","sector":"mining","sector_label":"Mining & Metals","region":"asia_pacific","region_label":"Asia Pacific","project_type":"asset_replacement","project_type_label":"Asset Replacement","size_band":"large","sanction_year":2018,"capex_estimate":320.6,"capex_actual":353.5,"cost_growth":0.10262008733624446,"schedule_slip":0.17857142857142858,"fel_score":31},{"id":394,"name":"Boiler Asset 0394","operator":"Harbor Industries","sector":"oil_gas","sector_label":"Oil & Gas","region":"middle_east","region_label":"Middle East & Africa","project_type":"asset_replacement","project_type_label":"Asset Replacement","size_band":"mega","sanction_year":2024,"capex_estimate":919.1,"capex_actual":975.8,"cost_growth":0.061690784463061615,"schedule_slip":0.1079136690647482,"fel_score":50},{"id":400,"name":"Boiler Asset 0400","operator":"Northgate Energy","sector":"oil_gas","sector_label":"Oil & Gas","region":"europe","region_label":"Europe","project_type":"asset_replacement","project_type_label":"Asset Replacement","size_band":"mega","sanction_year":2014,"capex_estimate":982.8,"capex_actual":1081.5,"cost_growth":0.10042735042735047,"schedule_slip":0.004950495049505021,"fel_score":50},{"id":425,"name":"Boiler Asset 0425","operator":"Cardinal Operations","sector":"chemicals","sector_label":"Chemicals","region":"middle_east","region_label":"Middle East & Africa","project_type":"asset_replacement","project_type_label":"Asset Replacement","size_band":"large","sanction_year":2015,"capex_estimate":293.6,"capex_actual":292.2,"cost_growth":-0.004768392370572323,"schedule_slip":-0.00881057268722464,"fel_score":65},{"id":475,"name":"Boiler Asset 0475","operator":"Harbor Industries","sector":"mining","sector_label":"Mining & Metals","region":"asia_pacific","region_label":"Asia Pacific","project_type":"asset_replacement","project_type_label":"Asset Replacement","size_band":"mega","sanction_year":2020,"capex_estimate":2004.0,"capex_actual":2043.7,"cost_growth":0.01981037924151699,"schedule_slip":0.02179176755447956,"fel_score":82},{"id":478,"name":"Boiler Asset 0478","operator":"Meridian Operations","sector":"mining","sector_label":"Mining & Metals","region":"south_america","region_label":"South America","project_type":"asset_replacement","project_type_label":"Asset Replacement","size_band":"mega","sanction_year":2022,"capex_estimate":1640.2,"capex_actual":1837.6,"cost_growth":0.12035117668576994,"schedule_slip":-0.043824701195219175,"fel_score":59},{"id":568,"name":"Boiler Asset 0568","operator":"Harbor Resources","sector":"power","sector_label":"Power & Utilities","region":"asia_pacific","region_label":"Asia Pacific","project_type":"asset_replacement","project_type_label":"Asset Replacement","size_band":"mega","sanction_year":2021,"capex_estimate":665.4,"capex_actual":648.0,"cost_growth":-0.02614968440036065,"schedule_slip":0.018292682926829312,"fel_score":66},{"id":579,"name":"Boiler Asset 0579","operator":"Sterling Materials","sector":"power","sector_label":"Power & Utilities","region":"south_america","region_label":"South America","project_type":"asset_replacement","project_type_label":"Asset Replacement","size_band":"mega","sanction_year":2016,"capex_estimate":774.1,"capex_actual":819.2,"cost_growth":0.05826120656245966,"schedule_slip":0.12380952380952388,"fel_score":41},{"id":584,"name":"Boiler Asset 0584","operator":"Granite Resources","sector":"power","sector_label":"Power & Utilities","region":"north_america","region_label":"North America","project_type":"asset_replacement","project_type_label":"Asset Replacement","size_band":"large","sanction_year":2019,"capex_estimate":465.0,"capex_actual":502.1,"cost_growth":0.07978494623655918,"schedule_slip":0.10126582278480999,"fel_score":66}]}