{"count":389,"next":"http://testserver/api/projects/?ordering=name&page=2&project_type=compliance","previous":null,"results":[{"id":58,"name":"Containment EH&S 0058","operator":"Cardinal Industries","sector":"oil_gas","sector_label":"Oil & Gas","region":"middle_east","region_label":"Middle East & Africa","project_type":"compliance","project_type_label":"EH&S / Compliance","size_band":"medium","sanction_year":2015,"capex_estimate":37.3,"capex_actual":31.7,"cost_growth":-0.15013404825737262,"schedule_slip":-0.058201058201058094,"fel_score":91},{"id":67,"name":"Containment EH&S 0067","operator":"Cardinal Industries","sector":"oil_gas","sector_label":"Oil & Gas","region":"south_america","region_label":"South America","project_type":"compliance","project_type_label":"EH&S / Compliance","size_band":"large","sanction_year":2022,"capex_estimate":362.4,"capex_actual":384.5,"cost_growth":0.06098233995584996,"schedule_slip":0.12544802867383514,"fel_score":35},{"id":70,"name":"Containment EH&S 0070","operator":"Granite Industries","sector":"mining","sector_label":"Mining & Metals","region":"north_america","region_label":"North America","project_type":"compliance","project_type_label":"EH&S / Compliance","size_band":"large","sanction_year":2019,"capex_estimate":347.3,"capex_actual":349.0,"cost_growth":0.0048949035416066475,"schedule_slip":0.07954545454545446,"fel_score":59},{"id":151,"name":"Containment EH&S 0151","operator":"Summit Industries","sector":"oil_gas","sector_label":"Oil & Gas","region":"middle_east","region_label":"Middle East & Africa","project_type":"compliance","project_type_label":"EH&S / Compliance","size_band":"mega","sanction_year":2020,"capex_estimate":992.2,"capex_actual":1232.6,"cost_growth":0.24228986091513793,"schedule_slip":0.14062499999999992,"fel_score":41},{"id":227,"name":"Containment EH&S 0227","operator":"Cascade Energy","sector":"mining","sector_label":"Mining & Metals","region":"middle_east","region_label":"Middle East & Africa","project_type":"compliance","project_type_label":"EH&S / Compliance","size_band":"mega","sanction_year":2019,"capex_estimate":522.3,"capex_actual":543.5,"cost_growth":0.04058969940647147,"schedule_slip":0.09316770186335403,"fel_score":74},{"id":251,"name":"Containment EH&S 0251","operator":"Pioneer Operations","sector":"oil_gas","sector_label":"Oil & Gas","region":"asia_pacific","region_label":"Asia Pacific","project_type":"compliance","project_type_label":"EH&S / Compliance","size_band":"large","sanction_year":2015,"capex_estimate":394.1,"capex_actual":392.0,"cost_growth":-0.005328596802841976,"schedule_slip":-0.020671834625323106,"fel_score":69},{"id":256,"name":"Containment EH&S 0256","operator":"Meridian Operations","sector":"oil_gas","sector_label":"Oil & Gas","region":"south_america","region_label":"South America","project_type":"compliance","project_type_label":"EH&S / Compliance","size_band":"mega","sanction_year":2021,"capex_estimate":680.2,"capex_actual":713.2,"cost_growth":0.04851514260511614,"schedule_slip":0.022123893805309734,"fel_score":65},{"id":270,"name":"Containment EH&S 0270","operator":"Cascade Materials","sector":"mining","sector_label":"Mining & Metals","region":"middle_east","region_label":"Middle East & Africa","project_type":"compliance","project_type_label":"EH&S / Compliance","size_band":"mega","sanction_year":2021,"capex_estimate":573.9,"capex_actual":579.6,"cost_growth":0.009932043910088945,"schedule_slip":0.09003215434083592,"fel_score":60},{"id":272,"name":"Containment EH&S 0272","operator":"Meridian Resources","sector":"power","sector_label":"Power & Utilities","region":"south_america","region_label":"South America","project_type":"compliance","project_type_label":"EH&S / Compliance","size_band":"mega","sanction_year":2023,"capex_estimate":778.0,"capex_actual":814.8,"cost_growth":0.047300771208226164,"schedule_slip":0.17438692098092637,"fel_score":34},{"id":317,"name":"Containment EH&S 0317","operator":"Keystone Materials","sector":"mining","sector_label":"Mining & Metals","region":"middle_east","region_label":"Middle East & Africa","project_type":"compliance","project_type_label":"EH&S / Compliance","size_band":"large","sanction_year":2023,"capex_estimate":454.1,"capex_actual":477.4,"cost_growth":0.051310284078396724,"schedule_slip":0.16161616161616157,"fel_score":34},{"id":320,"name":"Containment EH&S 0320","operator":"Cascade Resources","sector":"oil_gas","sector_label":"Oil & Gas","region":"middle_east","region_label":"Middle East & Africa","project_type":"compliance","project_type_label":"EH&S / Compliance","size_band":"large","sanction_year":2014,"capex_estimate":399.4,"capex_actual":453.5,"cost_growth":0.13545317976965454,"schedule_slip":0.08000000000000004,"fel_score":69},{"id":336,"name":"Containment EH&S 0336","operator":"Summit Resources","sector":"mining","sector_label":"Mining & Metals","region":"middle_east","region_label":"Middle East & Africa","project_type":"compliance","project_type_label":"EH&S / Compliance","size_band":"medium","sanction_year":2021,"capex_estimate":87.6,"capex_actual":99.7,"cost_growth":0.13812785388127866,"schedule_slip":-0.06278026905829606,"fel_score":60},{"id":367,"name":"Containment EH&S 0367","operator":"Granite Industries","sector":"mining","sector_label":"Mining & Metals","region":"south_america","region_label":"South America","project_type":"compliance","project_type_label":"EH&S / Compliance","size_band":"large","sanction_year":2018,"capex_estimate":262.0,"capex_actual":286.7,"cost_growth":0.0942748091603053,"schedule_slip":-0.0410958904109589,"fel_score":81},{"id":375,"name":"Containment EH&S 0375","operator":"Pioneer Materials","sector":"oil_gas","sector_label":"Oil & Gas","region":"europe","region_label":"Europe","project_type":"compliance","project_type_label":"EH&S / Compliance","size_band":"large","sanction_year":2018,"capex_estimate":285.2,"capex_actual":282.4,"cost_growth":-0.009817671809256702,"schedule_slip":0.002512562814070388,"fel_score":69},{"id":459,"name":"Containment EH&S 0459","operator":"Harbor Resources","sector":"power","sector_label":"Power & Utilities","region":"europe","region_label":"Europe","project_type":"compliance","project_type_label":"EH&S / Compliance","size_band":"large","sanction_year":2018,"capex_estimate":376.4,"capex_actual":388.0,"cost_growth":0.030818278427205165,"schedule_slip":0.03682719546742222,"fel_score":75},{"id":460,"name":"Containment EH&S 0460","operator":"Meridian Operations","sector":"pulp_paper","sector_label":"Pulp & Paper","region":"south_america","region_label":"South America","project_type":"compliance","project_type_label":"EH&S / Compliance","size_band":"large","sanction_year":2020,"capex_estimate":123.5,"capex_actual":129.4,"cost_growth":0.047773279352226763,"schedule_slip":0.16545012165450115,"fel_score":31},{"id":463,"name":"Containment EH&S 0463","operator":"Northgate Operations","sector":"power","sector_label":"Power & Utilities","region":"south_america","region_label":"South America","project_type":"compliance","project_type_label":"EH&S / Compliance","size_band":"mega","sanction_year":2021,"capex_estimate":1064.3,"capex_actual":1107.9,"cost_growth":0.04096589307526086,"schedule_slip":0.024096385542168586,"fel_score":84},{"id":487,"name":"Containment EH&S 0487","operator":"Northgate Materials","sector":"pulp_paper","sector_label":"Pulp & Paper","region":"middle_east","region_label":"Middle East & Africa","project_type":"compliance","project_type_label":"EH&S / Compliance","size_band":"large","sanction_year":2021,"capex_estimate":324.6,"capex_actual":355.1,"cost_growth":0.09396179913739987,"schedule_slip":0.23931623931623927,"fel_score":34},{"id":503,"name":"Containment EH&S 0503","operator":"Atlas Industries","sector":"chemicals","sector_label":"Chemicals","region":"europe","region_label":"Europe","project_type":"compliance","project_type_label":"EH&S / Compliance","size_band":"large","sanction_year":2018,"capex_estimate":130.1,"capex_actual":152.3,"cost_growth":0.17063797079169885,"schedule_slip":0.0756302521008402,"fel_score":69},{"id":521,"name":"Containment EH&S 0521","operator":"Vanguard Resources","sector":"power","sector_label":"Power & Utilities","region":"asia_pacific","region_label":"Asia Pacific","project_type":"compliance","project_type_label":"EH&S / Compliance","size_band":"large","sanction_year":2023,"capex_estimate":250.0,"capex_actual":257.2,"cost_growth":0.028799999999999954,"schedule_slip":-0.004773269689737369,"fel_score":66},{"id":524,"name":"Containment EH&S 0524","operator":"Keystone Resources","sector":"chemicals","sector_label":"Chemicals","region":"europe","region_label":"Europe","project_type":"compliance","project_type_label":"EH&S / Compliance","size_band":"medium","sanction_year":2015,"capex_estimate":90.2,"capex_actual":101.6,"cost_growth":0.1263858093126385,"schedule_slip":0.04166666666666669,"fel_score":82},{"id":560,"name":"Containment EH&S 0560","operator":"Pioneer Resources","sector":"power","sector_label":"Power & Utilities","region":"europe","region_label":"Europe","project_type":"compliance","project_type_label":"EH&S / Compliance","size_band":"medium","sanction_year":2018,"capex_estimate":55.0,"capex_actual":58.5,"cost_growth":0.06363636363636363,"schedule_slip":0.07228915662650598,"fel_score":50},{"id":561,"name":"Containment EH&S 0561","operator":"Meridian Industries","sector":"mining","sector_label":"Mining & Metals","region":"middle_east","region_label":"Middle East & Africa","project_type":"compliance","project_type_label":"EH&S / Compliance","size_band":"medium","sanction_year":2017,"capex_estimate":31.8,"capex_actual":30.3,"cost_growth":-0.04716981132075471,"schedule_slip":0.1030534351145038,"fel_score":30},{"id":605,"name":"Containment EH&S 0605","operator":"Sterling Materials","sector":"oil_gas","sector_label":"Oil & Gas","region":"middle_east","region_label":"Middle East & Africa","project_type":"compliance","project_type_label":"EH&S / Compliance","size_band":"large","sanction_year":2021,"capex_estimate":103.6,"capex_actual":98.4,"cost_growth":-0.050193050193050086,"schedule_slip":0.01980198019801991,"fel_score":84},{"id":632,"name":"Containment EH&S 0632","operator":"Cascade Operations","sector":"oil_gas","sector_label":"Oil & Gas","region":"middle_east","region_label":"Middle East & Africa","project_type":"compliance","project_type_label":"EH&S / Compliance","size_band":"medium","sanction_year":2018,"capex_estimate":66.6,"capex_actual":66.5,"cost_growth":-0.0015015015015014163,"schedule_slip":0.08029197080291982,"fel_score":85}]}