{"count":353,"next":"http://testserver/api/projects/?ordering=name&page=2&project_type=debottleneck","previous":null,"results":[{"id":11,"name":"Circuit Debottleneck 0011","operator":"Summit Resources","sector":"mining","sector_label":"Mining & Metals","region":"middle_east","region_label":"Middle East & Africa","project_type":"debottleneck","project_type_label":"Debottleneck","size_band":"large","sanction_year":2017,"capex_estimate":230.9,"capex_actual":254.4,"cost_growth":0.10177566045907319,"schedule_slip":0.04878048780487805,"fel_score":59},{"id":35,"name":"Circuit Debottleneck 0035","operator":"Pioneer Operations","sector":"power","sector_label":"Power & Utilities","region":"south_america","region_label":"South America","project_type":"debottleneck","project_type_label":"Debottleneck","size_band":"large","sanction_year":2021,"capex_estimate":360.4,"capex_actual":381.3,"cost_growth":0.057991120976692664,"schedule_slip":0.012539184952978013,"fel_score":79},{"id":46,"name":"Circuit Debottleneck 0046","operator":"Cascade Materials","sector":"power","sector_label":"Power & Utilities","region":"north_america","region_label":"North America","project_type":"debottleneck","project_type_label":"Debottleneck","size_band":"mega","sanction_year":2023,"capex_estimate":1182.8,"capex_actual":1101.6,"cost_growth":-0.06865065945214749,"schedule_slip":0.008928571428571556,"fel_score":84},{"id":124,"name":"Circuit Debottleneck 0124","operator":"Meridian Operations","sector":"mining","sector_label":"Mining & Metals","region":"asia_pacific","region_label":"Asia Pacific","project_type":"debottleneck","project_type_label":"Debottleneck","size_band":"medium","sanction_year":2017,"capex_estimate":96.0,"capex_actual":100.1,"cost_growth":0.04270833333333327,"schedule_slip":-0.12121212121212131,"fel_score":90},{"id":138,"name":"Circuit Debottleneck 0138","operator":"Cardinal Resources","sector":"mining","sector_label":"Mining & Metals","region":"asia_pacific","region_label":"Asia Pacific","project_type":"debottleneck","project_type_label":"Debottleneck","size_band":"mega","sanction_year":2017,"capex_estimate":1121.2,"capex_actual":1227.7,"cost_growth":0.09498751337852301,"schedule_slip":0.07692307692307684,"fel_score":35},{"id":224,"name":"Circuit Debottleneck 0224","operator":"Northgate Energy","sector":"pulp_paper","sector_label":"Pulp & Paper","region":"asia_pacific","region_label":"Asia Pacific","project_type":"debottleneck","project_type_label":"Debottleneck","size_band":"large","sanction_year":2022,"capex_estimate":258.3,"capex_actual":253.0,"cost_growth":-0.020518776616337636,"schedule_slip":0.005235602094240726,"fel_score":84},{"id":290,"name":"Circuit Debottleneck 0290","operator":"Cascade Operations","sector":"chemicals","sector_label":"Chemicals","region":"europe","region_label":"Europe","project_type":"debottleneck","project_type_label":"Debottleneck","size_band":"mega","sanction_year":2018,"capex_estimate":631.3,"capex_actual":563.0,"cost_growth":-0.10818945034056703,"schedule_slip":-0.02531645569620244,"fel_score":91},{"id":294,"name":"Circuit Debottleneck 0294","operator":"Keystone Industries","sector":"mining","sector_label":"Mining & Metals","region":"asia_pacific","region_label":"Asia Pacific","project_type":"debottleneck","project_type_label":"Debottleneck","size_band":"large","sanction_year":2015,"capex_estimate":155.2,"capex_actual":151.9,"cost_growth":-0.021262886597938038,"schedule_slip":0.13609467455621307,"fel_score":56},{"id":311,"name":"Circuit Debottleneck 0311","operator":"Cardinal Materials","sector":"pulp_paper","sector_label":"Pulp & Paper","region":"south_america","region_label":"South America","project_type":"debottleneck","project_type_label":"Debottleneck","size_band":"large","sanction_year":2024,"capex_estimate":186.4,"capex_actual":175.7,"cost_growth":-0.05740343347639494,"schedule_slip":-0.027624309392265192,"fel_score":65},{"id":395,"name":"Circuit Debottleneck 0395","operator":"Cascade Energy","sector":"pulp_paper","sector_label":"Pulp & Paper","region":"middle_east","region_label":"Middle East & Africa","project_type":"debottleneck","project_type_label":"Debottleneck","size_band":"mega","sanction_year":2016,"capex_estimate":671.0,"capex_actual":661.9,"cost_growth":-0.01356184798807753,"schedule_slip":0.1,"fel_score":84},{"id":429,"name":"Circuit Debottleneck 0429","operator":"Summit Materials","sector":"oil_gas","sector_label":"Oil & Gas","region":"north_america","region_label":"North America","project_type":"debottleneck","project_type_label":"Debottleneck","size_band":"mega","sanction_year":2020,"capex_estimate":1464.2,"capex_actual":1476.5,"cost_growth":0.008400491736101594,"schedule_slip":0.05341246290801178,"fel_score":94},{"id":482,"name":"Circuit Debottleneck 0482","operator":"Summit Operations","sector":"pulp_paper","sector_label":"Pulp & Paper","region":"middle_east","region_label":"Middle East & Africa","project_type":"debottleneck","project_type_label":"Debottleneck","size_band":"medium","sanction_year":2020,"capex_estimate":66.1,"capex_actual":76.6,"cost_growth":0.15885022692889564,"schedule_slip":0.031007751937984523,"fel_score":66},{"id":485,"name":"Circuit Debottleneck 0485","operator":"Sterling Energy","sector":"mining","sector_label":"Mining & Metals","region":"europe","region_label":"Europe","project_type":"debottleneck","project_type_label":"Debottleneck","size_band":"mega","sanction_year":2016,"capex_estimate":599.9,"capex_actual":578.7,"cost_growth":-0.0353392232038672,"schedule_slip":-0.02280130293159607,"fel_score":84},{"id":505,"name":"Circuit Debottleneck 0505","operator":"Cascade Materials","sector":"oil_gas","sector_label":"Oil & Gas","region":"south_america","region_label":"South America","project_type":"debottleneck","project_type_label":"Debottleneck","size_band":"large","sanction_year":2015,"capex_estimate":100.0,"capex_actual":100.1,"cost_growth":0.0009999999999999432,"schedule_slip":-0.008403361344537785,"fel_score":81},{"id":506,"name":"Circuit Debottleneck 0506","operator":"Northgate Energy","sector":"oil_gas","sector_label":"Oil & Gas","region":"middle_east","region_label":"Middle East & Africa","project_type":"debottleneck","project_type_label":"Debottleneck","size_band":"large","sanction_year":2015,"capex_estimate":140.9,"capex_actual":155.7,"cost_growth":0.10503903477643707,"schedule_slip":-0.05479452054794513,"fel_score":69},{"id":509,"name":"Circuit Debottleneck 0509","operator":"Keystone Industries","sector":"pulp_paper","sector_label":"Pulp & Paper","region":"north_america","region_label":"North America","project_type":"debottleneck","project_type_label":"Debottleneck","size_band":"large","sanction_year":2024,"capex_estimate":195.8,"capex_actual":220.4,"cost_growth":0.1256384065372829,"schedule_slip":-0.016129032258064602,"fel_score":65},{"id":531,"name":"Circuit Debottleneck 0531","operator":"Cascade Operations","sector":"oil_gas","sector_label":"Oil & Gas","region":"north_america","region_label":"North America","project_type":"debottleneck","project_type_label":"Debottleneck","size_band":"mega","sanction_year":2022,"capex_estimate":644.3,"capex_actual":710.6,"cost_growth":0.10290237467018482,"schedule_slip":0.07943925233644873,"fel_score":56},{"id":538,"name":"Circuit Debottleneck 0538","operator":"Granite Resources","sector":"mining","sector_label":"Mining & Metals","region":"north_america","region_label":"North America","project_type":"debottleneck","project_type_label":"Debottleneck","size_band":"mega","sanction_year":2024,"capex_estimate":1114.4,"capex_actual":1135.3,"cost_growth":0.018754486719310716,"schedule_slip":0.00847457627118641,"fel_score":56},{"id":594,"name":"Circuit Debottleneck 0594","operator":"Cardinal Materials","sector":"chemicals","sector_label":"Chemicals","region":"middle_east","region_label":"Middle East & Africa","project_type":"debottleneck","project_type_label":"Debottleneck","size_band":"large","sanction_year":2023,"capex_estimate":466.1,"capex_actual":469.9,"cost_growth":0.008152756919115971,"schedule_slip":-0.0686274509803921,"fel_score":94},{"id":601,"name":"Circuit Debottleneck 0601","operator":"Meridian Industries","sector":"pulp_paper","sector_label":"Pulp & Paper","region":"north_america","region_label":"North America","project_type":"debottleneck","project_type_label":"Debottleneck","size_band":"large","sanction_year":2022,"capex_estimate":478.8,"capex_actual":549.8,"cost_growth":0.14828738512949027,"schedule_slip":-0.0071428571428571175,"fel_score":40},{"id":637,"name":"Circuit Debottleneck 0637","operator":"Cascade Industries","sector":"oil_gas","sector_label":"Oil & Gas","region":"europe","region_label":"Europe","project_type":"debottleneck","project_type_label":"Debottleneck","size_band":"large","sanction_year":2023,"capex_estimate":185.9,"capex_actual":199.0,"cost_growth":0.07046799354491659,"schedule_slip":0.03714285714285706,"fel_score":41},{"id":676,"name":"Circuit Debottleneck 0676","operator":"Cascade Materials","sector":"pulp_paper","sector_label":"Pulp & Paper","region":"north_america","region_label":"North America","project_type":"debottleneck","project_type_label":"Debottleneck","size_band":"large","sanction_year":2016,"capex_estimate":480.8,"capex_actual":531.9,"cost_growth":0.10628119800332772,"schedule_slip":0.03546099290780142,"fel_score":40},{"id":686,"name":"Circuit Debottleneck 0686","operator":"Atlas Materials","sector":"pulp_paper","sector_label":"Pulp & Paper","region":"middle_east","region_label":"Middle East & Africa","project_type":"debottleneck","project_type_label":"Debottleneck","size_band":"large","sanction_year":2024,"capex_estimate":288.0,"capex_actual":275.6,"cost_growth":-0.04305555555555548,"schedule_slip":0.005617977528089768,"fel_score":94},{"id":722,"name":"Circuit Debottleneck 0722","operator":"Harbor Materials","sector":"chemicals","sector_label":"Chemicals","region":"south_america","region_label":"South America","project_type":"debottleneck","project_type_label":"Debottleneck","size_band":"mega","sanction_year":2016,"capex_estimate":582.5,"capex_actual":754.5,"cost_growth":0.2952789699570815,"schedule_slip":0.14540059347181003,"fel_score":9},{"id":732,"name":"Circuit Debottleneck 0732","operator":"Cascade Operations","sector":"mining","sector_label":"Mining & Metals","region":"south_america","region_label":"South America","project_type":"debottleneck","project_type_label":"Debottleneck","size_band":"mega","sanction_year":2015,"capex_estimate":734.0,"capex_actual":817.3,"cost_growth":0.11348773841961847,"schedule_slip":0.053435114503816876,"fel_score":60}]}