{"count":246,"next":"http://testserver/api/projects/?ordering=name&page=2&sector=pulp_paper","previous":null,"results":[{"id":76,"name":"Access Road Infrastructure 0076","operator":"Cascade Energy","sector":"pulp_paper","sector_label":"Pulp & Paper","region":"europe","region_label":"Europe","project_type":"infrastructure","project_type_label":"Infrastructure","size_band":"large","sanction_year":2021,"capex_estimate":466.1,"capex_actual":452.7,"cost_growth":-0.028749195451619896,"schedule_slip":0.047120418848167464,"fel_score":75},{"id":175,"name":"Access Road Infrastructure 0175","operator":"Cardinal Resources","sector":"pulp_paper","sector_label":"Pulp & Paper","region":"middle_east","region_label":"Middle East & Africa","project_type":"infrastructure","project_type_label":"Infrastructure","size_band":"mega","sanction_year":2024,"capex_estimate":538.2,"capex_actual":619.8,"cost_growth":0.1516164994425862,"schedule_slip":0.07368421052631571,"fel_score":31},{"id":334,"name":"Access Road Infrastructure 0334","operator":"Northgate Operations","sector":"pulp_paper","sector_label":"Pulp & Paper","region":"europe","region_label":"Europe","project_type":"infrastructure","project_type_label":"Infrastructure","size_band":"medium","sanction_year":2014,"capex_estimate":63.8,"capex_actual":69.9,"cost_growth":0.09561128526645782,"schedule_slip":0.03076923076923077,"fel_score":100},{"id":468,"name":"Access Road Infrastructure 0468","operator":"Granite Energy","sector":"pulp_paper","sector_label":"Pulp & Paper","region":"middle_east","region_label":"Middle East & Africa","project_type":"infrastructure","project_type_label":"Infrastructure","size_band":"medium","sanction_year":2024,"capex_estimate":90.2,"capex_actual":102.5,"cost_growth":0.13636363636363633,"schedule_slip":0.15324675324675321,"fel_score":65},{"id":471,"name":"Access Road Infrastructure 0471","operator":"Cascade Operations","sector":"pulp_paper","sector_label":"Pulp & Paper","region":"south_america","region_label":"South America","project_type":"infrastructure","project_type_label":"Infrastructure","size_band":"large","sanction_year":2016,"capex_estimate":440.1,"capex_actual":508.6,"cost_growth":0.15564644399000227,"schedule_slip":0.17704918032786882,"fel_score":16},{"id":510,"name":"Access Road Infrastructure 0510","operator":"Cascade Energy","sector":"pulp_paper","sector_label":"Pulp & Paper","region":"europe","region_label":"Europe","project_type":"infrastructure","project_type_label":"Infrastructure","size_band":"large","sanction_year":2016,"capex_estimate":450.3,"capex_actual":433.8,"cost_growth":-0.03664223850766156,"schedule_slip":-0.04918032786885243,"fel_score":100},{"id":701,"name":"Access Road Infrastructure 0701","operator":"Harbor Operations","sector":"pulp_paper","sector_label":"Pulp & Paper","region":"north_america","region_label":"North America","project_type":"infrastructure","project_type_label":"Infrastructure","size_band":"large","sanction_year":2014,"capex_estimate":299.9,"capex_actual":326.0,"cost_growth":0.08702900966989005,"schedule_slip":0.023622047244094547,"fel_score":65},{"id":1229,"name":"Access Road Infrastructure 1229","operator":"Keystone Resources","sector":"pulp_paper","sector_label":"Pulp & Paper","region":"middle_east","region_label":"Middle East & Africa","project_type":"infrastructure","project_type_label":"Infrastructure","size_band":"medium","sanction_year":2024,"capex_estimate":69.0,"capex_actual":73.2,"cost_growth":0.06086956521739135,"schedule_slip":0.14159292035398227,"fel_score":56},{"id":1284,"name":"Access Road Infrastructure 1284","operator":"Atlas Industries","sector":"pulp_paper","sector_label":"Pulp & Paper","region":"south_america","region_label":"South America","project_type":"infrastructure","project_type_label":"Infrastructure","size_band":"large","sanction_year":2017,"capex_estimate":134.8,"capex_actual":147.4,"cost_growth":0.09347181008902072,"schedule_slip":0.06896551724137948,"fel_score":41},{"id":1302,"name":"Access Road Infrastructure 1302","operator":"Northgate Materials","sector":"pulp_paper","sector_label":"Pulp & Paper","region":"north_america","region_label":"North America","project_type":"infrastructure","project_type_label":"Infrastructure","size_band":"large","sanction_year":2023,"capex_estimate":129.4,"capex_actual":148.8,"cost_growth":0.14992272024729525,"schedule_slip":0.08599508599508598,"fel_score":59},{"id":1483,"name":"Access Road Infrastructure 1483","operator":"Harbor Materials","sector":"pulp_paper","sector_label":"Pulp & Paper","region":"europe","region_label":"Europe","project_type":"infrastructure","project_type_label":"Infrastructure","size_band":"large","sanction_year":2022,"capex_estimate":263.7,"capex_actual":249.6,"cost_growth":-0.05346985210466437,"schedule_slip":-0.06806282722513092,"fel_score":100},{"id":1646,"name":"Access Road Infrastructure 1646","operator":"Summit Resources","sector":"pulp_paper","sector_label":"Pulp & Paper","region":"europe","region_label":"Europe","project_type":"infrastructure","project_type_label":"Infrastructure","size_band":"large","sanction_year":2019,"capex_estimate":328.1,"capex_actual":313.5,"cost_growth":-0.04449862846693088,"schedule_slip":0.03396226415094334,"fel_score":91},{"id":1678,"name":"Access Road Infrastructure 1678","operator":"Vanguard Materials","sector":"pulp_paper","sector_label":"Pulp & Paper","region":"middle_east","region_label":"Middle East & Africa","project_type":"infrastructure","project_type_label":"Infrastructure","size_band":"medium","sanction_year":2018,"capex_estimate":95.1,"capex_actual":100.6,"cost_growth":0.05783385909568875,"schedule_slip":0.07317073170731725,"fel_score":35},{"id":1750,"name":"Access Road Infrastructure 1750","operator":"Pioneer Resources","sector":"pulp_paper","sector_label":"Pulp & Paper","region":"europe","region_label":"Europe","project_type":"infrastructure","project_type_label":"Infrastructure","size_band":"large","sanction_year":2019,"capex_estimate":360.1,"capex_actual":390.6,"cost_growth":0.08469869480699806,"schedule_slip":0.1483870967741936,"fel_score":50},{"id":1820,"name":"Access Road Infrastructure 1820","operator":"Meridian Materials","sector":"pulp_paper","sector_label":"Pulp & Paper","region":"south_america","region_label":"South America","project_type":"infrastructure","project_type_label":"Infrastructure","size_band":"large","sanction_year":2024,"capex_estimate":219.1,"capex_actual":243.1,"cost_growth":0.10953902327704244,"schedule_slip":0.15189873417721508,"fel_score":31},{"id":1879,"name":"Access Road Infrastructure 1879","operator":"Meridian Operations","sector":"pulp_paper","sector_label":"Pulp & Paper","region":"north_america","region_label":"North America","project_type":"infrastructure","project_type_label":"Infrastructure","size_band":"large","sanction_year":2019,"capex_estimate":135.4,"capex_actual":142.1,"cost_growth":0.049483013293943785,"schedule_slip":0.03448275862068969,"fel_score":56},{"id":305,"name":"Boiler Asset 0305","operator":"Cardinal Materials","sector":"pulp_paper","sector_label":"Pulp & Paper","region":"north_america","region_label":"North America","project_type":"asset_replacement","project_type_label":"Asset Replacement","size_band":"mega","sanction_year":2017,"capex_estimate":619.5,"capex_actual":595.8,"cost_growth":-0.03825665859564172,"schedule_slip":0.03535353535353532,"fel_score":85},{"id":819,"name":"Boiler Asset 0819","operator":"Cascade Energy","sector":"pulp_paper","sector_label":"Pulp & Paper","region":"asia_pacific","region_label":"Asia Pacific","project_type":"asset_replacement","project_type_label":"Asset Replacement","size_band":"large","sanction_year":2015,"capex_estimate":111.3,"capex_actual":108.5,"cost_growth":-0.02515723270440249,"schedule_slip":0.03333333333333341,"fel_score":50},{"id":880,"name":"Boiler Asset 0880","operator":"Keystone Energy","sector":"pulp_paper","sector_label":"Pulp & Paper","region":"south_america","region_label":"South America","project_type":"asset_replacement","project_type_label":"Asset Replacement","size_band":"mega","sanction_year":2023,"capex_estimate":564.9,"capex_actual":574.3,"cost_growth":0.01664011329438835,"schedule_slip":0.10548523206751055,"fel_score":40},{"id":1004,"name":"Boiler Asset 1004","operator":"Northgate Materials","sector":"pulp_paper","sector_label":"Pulp & Paper","region":"europe","region_label":"Europe","project_type":"asset_replacement","project_type_label":"Asset Replacement","size_band":"mega","sanction_year":2020,"capex_estimate":672.0,"capex_actual":648.8,"cost_growth":-0.03452380952380959,"schedule_slip":0.0344827586206897,"fel_score":94},{"id":1202,"name":"Boiler Asset 1202","operator":"Keystone Energy","sector":"pulp_paper","sector_label":"Pulp & Paper","region":"middle_east","region_label":"Middle East & Africa","project_type":"asset_replacement","project_type_label":"Asset Replacement","size_band":"large","sanction_year":2015,"capex_estimate":164.4,"capex_actual":181.2,"cost_growth":0.1021897810218977,"schedule_slip":0.04545454545454557,"fel_score":50},{"id":1443,"name":"Boiler Asset 1443","operator":"Atlas Operations","sector":"pulp_paper","sector_label":"Pulp & Paper","region":"europe","region_label":"Europe","project_type":"asset_replacement","project_type_label":"Asset Replacement","size_band":"large","sanction_year":2022,"capex_estimate":276.9,"capex_actual":294.1,"cost_growth":0.06211628746840031,"schedule_slip":-0.03409090909090917,"fel_score":65},{"id":1806,"name":"Boiler Asset 1806","operator":"Harbor Resources","sector":"pulp_paper","sector_label":"Pulp & Paper","region":"middle_east","region_label":"Middle East & Africa","project_type":"asset_replacement","project_type_label":"Asset Replacement","size_band":"medium","sanction_year":2018,"capex_estimate":93.0,"capex_actual":106.7,"cost_growth":0.14731182795698927,"schedule_slip":0.03278688524590167,"fel_score":30},{"id":1994,"name":"Boiler Asset 1994","operator":"Atlas Materials","sector":"pulp_paper","sector_label":"Pulp & Paper","region":"north_america","region_label":"North America","project_type":"asset_replacement","project_type_label":"Asset Replacement","size_band":"large","sanction_year":2018,"capex_estimate":179.3,"capex_actual":205.8,"cost_growth":0.1477969882877858,"schedule_slip":0.16080402010050265,"fel_score":31},{"id":224,"name":"Circuit Debottleneck 0224","operator":"Northgate Energy","sector":"pulp_paper","sector_label":"Pulp & Paper","region":"asia_pacific","region_label":"Asia Pacific","project_type":"debottleneck","project_type_label":"Debottleneck","size_band":"large","sanction_year":2022,"capex_estimate":258.3,"capex_actual":253.0,"cost_growth":-0.020518776616337636,"schedule_slip":0.005235602094240726,"fel_score":84}]}