{"count":68,"next":"http://testserver/api/projects/?ordering=name&page=2&project_type=reliability&sector=chemicals","previous":null,"results":[{"id":94,"name":"Heat Exchanger Reliability 0094","operator":"Harbor Operations","sector":"chemicals","sector_label":"Chemicals","region":"asia_pacific","region_label":"Asia Pacific","project_type":"reliability","project_type_label":"Reliability & Integrity","size_band":"mega","sanction_year":2024,"capex_estimate":676.9,"capex_actual":802.2,"cost_growth":0.18510858324715626,"schedule_slip":0.06741573033707861,"fel_score":66},{"id":206,"name":"Heat Exchanger Reliability 0206","operator":"Meridian Materials","sector":"chemicals","sector_label":"Chemicals","region":"asia_pacific","region_label":"Asia Pacific","project_type":"reliability","project_type_label":"Reliability & Integrity","size_band":"mega","sanction_year":2022,"capex_estimate":1072.3,"capex_actual":1087.9,"cost_growth":0.014548167490441235,"schedule_slip":-0.0141643059490085,"fel_score":75},{"id":232,"name":"Heat Exchanger Reliability 0232","operator":"Atlas Resources","sector":"chemicals","sector_label":"Chemicals","region":"middle_east","region_label":"Middle East & Africa","project_type":"reliability","project_type_label":"Reliability & Integrity","size_band":"mega","sanction_year":2023,"capex_estimate":943.1,"capex_actual":909.7,"cost_growth":-0.03541512034778918,"schedule_slip":-0.00657894736842103,"fel_score":75},{"id":261,"name":"Heat Exchanger Reliability 0261","operator":"Keystone Energy","sector":"chemicals","sector_label":"Chemicals","region":"middle_east","region_label":"Middle East & Africa","project_type":"reliability","project_type_label":"Reliability & Integrity","size_band":"mega","sanction_year":2019,"capex_estimate":1043.5,"capex_actual":1136.5,"cost_growth":0.08912314326784859,"schedule_slip":0.019607843137254832,"fel_score":56},{"id":428,"name":"Heat Exchanger Reliability 0428","operator":"Vanguard Industries","sector":"chemicals","sector_label":"Chemicals","region":"north_america","region_label":"North America","project_type":"reliability","project_type_label":"Reliability & Integrity","size_band":"mega","sanction_year":2023,"capex_estimate":521.9,"capex_actual":551.5,"cost_growth":0.056715845947499566,"schedule_slip":0.00726392251815991,"fel_score":44},{"id":476,"name":"Heat Exchanger Reliability 0476","operator":"Pioneer Materials","sector":"chemicals","sector_label":"Chemicals","region":"middle_east","region_label":"Middle East & Africa","project_type":"reliability","project_type_label":"Reliability & Integrity","size_band":"medium","sanction_year":2024,"capex_estimate":56.3,"capex_actual":56.6,"cost_growth":0.005328596802841994,"schedule_slip":-0.06397306397306393,"fel_score":69},{"id":734,"name":"Heat Exchanger Reliability 0734","operator":"Sterling Resources","sector":"chemicals","sector_label":"Chemicals","region":"europe","region_label":"Europe","project_type":"reliability","project_type_label":"Reliability & Integrity","size_band":"medium","sanction_year":2023,"capex_estimate":71.8,"capex_actual":76.1,"cost_growth":0.05988857938718659,"schedule_slip":-0.06250000000000006,"fel_score":69},{"id":803,"name":"Heat Exchanger Reliability 0803","operator":"Harbor Operations","sector":"chemicals","sector_label":"Chemicals","region":"north_america","region_label":"North America","project_type":"reliability","project_type_label":"Reliability & Integrity","size_band":"large","sanction_year":2017,"capex_estimate":145.2,"capex_actual":159.0,"cost_growth":0.09504132231404967,"schedule_slip":0.019230769230769162,"fel_score":44},{"id":997,"name":"Heat Exchanger Reliability 0997","operator":"Cascade Industries","sector":"chemicals","sector_label":"Chemicals","region":"middle_east","region_label":"Middle East & Africa","project_type":"reliability","project_type_label":"Reliability & Integrity","size_band":"large","sanction_year":2018,"capex_estimate":382.0,"capex_actual":442.9,"cost_growth":0.15942408376963343,"schedule_slip":0.13461538461538464,"fel_score":35},{"id":1013,"name":"Heat Exchanger Reliability 1013","operator":"Granite Operations","sector":"chemicals","sector_label":"Chemicals","region":"asia_pacific","region_label":"Asia Pacific","project_type":"reliability","project_type_label":"Reliability & Integrity","size_band":"mega","sanction_year":2020,"capex_estimate":1020.1,"capex_actual":1016.8,"cost_growth":-0.003234976963042906,"schedule_slip":-0.11224489795918381,"fel_score":100},{"id":1046,"name":"Heat Exchanger Reliability 1046","operator":"Cardinal Energy","sector":"chemicals","sector_label":"Chemicals","region":"europe","region_label":"Europe","project_type":"reliability","project_type_label":"Reliability & Integrity","size_band":"mega","sanction_year":2016,"capex_estimate":802.0,"capex_actual":903.8,"cost_growth":0.126932668329177,"schedule_slip":0.14067278287461754,"fel_score":65},{"id":1165,"name":"Heat Exchanger Reliability 1165","operator":"Northgate Operations","sector":"chemicals","sector_label":"Chemicals","region":"asia_pacific","region_label":"Asia Pacific","project_type":"reliability","project_type_label":"Reliability & Integrity","size_band":"mega","sanction_year":2024,"capex_estimate":965.4,"capex_actual":921.2,"cost_growth":-0.04578413093018431,"schedule_slip":-0.00925925925925939,"fel_score":85},{"id":1168,"name":"Heat Exchanger Reliability 1168","operator":"Cascade Energy","sector":"chemicals","sector_label":"Chemicals","region":"middle_east","region_label":"Middle East & Africa","project_type":"reliability","project_type_label":"Reliability & Integrity","size_band":"mega","sanction_year":2015,"capex_estimate":1369.0,"capex_actual":1412.1,"cost_growth":0.03148283418553682,"schedule_slip":0.015000000000000036,"fel_score":65},{"id":1254,"name":"Heat Exchanger Reliability 1254","operator":"Atlas Resources","sector":"chemicals","sector_label":"Chemicals","region":"europe","region_label":"Europe","project_type":"reliability","project_type_label":"Reliability & Integrity","size_band":"mega","sanction_year":2015,"capex_estimate":673.0,"capex_actual":767.9,"cost_growth":0.14101040118870725,"schedule_slip":0.054945054945054944,"fel_score":59},{"id":1344,"name":"Heat Exchanger Reliability 1344","operator":"Meridian Operations","sector":"chemicals","sector_label":"Chemicals","region":"south_america","region_label":"South America","project_type":"reliability","project_type_label":"Reliability & Integrity","size_band":"large","sanction_year":2020,"capex_estimate":452.4,"capex_actual":475.9,"cost_growth":0.051945181255526086,"schedule_slip":0.10273972602739738,"fel_score":49},{"id":1372,"name":"Heat Exchanger Reliability 1372","operator":"Keystone Energy","sector":"chemicals","sector_label":"Chemicals","region":"middle_east","region_label":"Middle East & Africa","project_type":"reliability","project_type_label":"Reliability & Integrity","size_band":"large","sanction_year":2022,"capex_estimate":316.1,"capex_actual":323.4,"cost_growth":0.02309395760835164,"schedule_slip":0.09625668449197865,"fel_score":25},{"id":1595,"name":"Heat Exchanger Reliability 1595","operator":"Vanguard Operations","sector":"chemicals","sector_label":"Chemicals","region":"europe","region_label":"Europe","project_type":"reliability","project_type_label":"Reliability & Integrity","size_band":"mega","sanction_year":2018,"capex_estimate":955.3,"capex_actual":1002.5,"cost_growth":0.0494085627551555,"schedule_slip":0.11728395061728408,"fel_score":35},{"id":1649,"name":"Heat Exchanger Reliability 1649","operator":"Keystone Energy","sector":"chemicals","sector_label":"Chemicals","region":"europe","region_label":"Europe","project_type":"reliability","project_type_label":"Reliability & Integrity","size_band":"medium","sanction_year":2014,"capex_estimate":44.1,"capex_actual":46.1,"cost_growth":0.045351473922902494,"schedule_slip":0.07755102040816321,"fel_score":66},{"id":1732,"name":"Heat Exchanger Reliability 1732","operator":"Sterling Energy","sector":"chemicals","sector_label":"Chemicals","region":"europe","region_label":"Europe","project_type":"reliability","project_type_label":"Reliability & Integrity","size_band":"large","sanction_year":2017,"capex_estimate":218.9,"capex_actual":223.2,"cost_growth":0.01964367291000449,"schedule_slip":0.04242424242424238,"fel_score":65},{"id":1818,"name":"Heat Exchanger Reliability 1818","operator":"Vanguard Materials","sector":"chemicals","sector_label":"Chemicals","region":"europe","region_label":"Europe","project_type":"reliability","project_type_label":"Reliability & Integrity","size_band":"mega","sanction_year":2023,"capex_estimate":1447.1,"capex_actual":1573.6,"cost_growth":0.08741621173381246,"schedule_slip":0.2170087976539589,"fel_score":34},{"id":1910,"name":"Heat Exchanger Reliability 1910","operator":"Atlas Industries","sector":"chemicals","sector_label":"Chemicals","region":"south_america","region_label":"South America","project_type":"reliability","project_type_label":"Reliability & Integrity","size_band":"mega","sanction_year":2018,"capex_estimate":790.3,"capex_actual":903.7,"cost_growth":0.1434898139946857,"schedule_slip":0.10052910052910065,"fel_score":41},{"id":1936,"name":"Heat Exchanger Reliability 1936","operator":"Atlas Energy","sector":"chemicals","sector_label":"Chemicals","region":"north_america","region_label":"North America","project_type":"reliability","project_type_label":"Reliability & Integrity","size_band":"mega","sanction_year":2016,"capex_estimate":642.1,"capex_actual":682.0,"cost_growth":0.062139853605357384,"schedule_slip":0.08045977011494265,"fel_score":65},{"id":100,"name":"Pump Station Reliability 0100","operator":"Granite Materials","sector":"chemicals","sector_label":"Chemicals","region":"asia_pacific","region_label":"Asia Pacific","project_type":"reliability","project_type_label":"Reliability & Integrity","size_band":"large","sanction_year":2019,"capex_estimate":404.0,"capex_actual":424.5,"cost_growth":0.050742574257425746,"schedule_slip":-0.06031746031746027,"fel_score":85},{"id":200,"name":"Pump Station Reliability 0200","operator":"Pioneer Resources","sector":"chemicals","sector_label":"Chemicals","region":"middle_east","region_label":"Middle East & Africa","project_type":"reliability","project_type_label":"Reliability & Integrity","size_band":"mega","sanction_year":2018,"capex_estimate":1013.2,"capex_actual":901.2,"cost_growth":-0.11054086063955783,"schedule_slip":-0.023684210526315752,"fel_score":100},{"id":237,"name":"Pump Station Reliability 0237","operator":"Atlas Operations","sector":"chemicals","sector_label":"Chemicals","region":"asia_pacific","region_label":"Asia Pacific","project_type":"reliability","project_type_label":"Reliability & Integrity","size_band":"mega","sanction_year":2015,"capex_estimate":779.5,"capex_actual":768.5,"cost_growth":-0.014111610006414367,"schedule_slip":0.10679611650485432,"fel_score":60}]}