{"count":58,"next":"http://testserver/api/projects/?ordering=name&page=2&project_type=debottleneck&sector=pulp_paper","previous":null,"results":[{"id":224,"name":"Circuit Debottleneck 0224","operator":"Northgate Energy","sector":"pulp_paper","sector_label":"Pulp & Paper","region":"asia_pacific","region_label":"Asia Pacific","project_type":"debottleneck","project_type_label":"Debottleneck","size_band":"large","sanction_year":2022,"capex_estimate":258.3,"capex_actual":253.0,"cost_growth":-0.020518776616337636,"schedule_slip":0.005235602094240726,"fel_score":84},{"id":311,"name":"Circuit Debottleneck 0311","operator":"Cardinal Materials","sector":"pulp_paper","sector_label":"Pulp & Paper","region":"south_america","region_label":"South America","project_type":"debottleneck","project_type_label":"Debottleneck","size_band":"large","sanction_year":2024,"capex_estimate":186.4,"capex_actual":175.7,"cost_growth":-0.05740343347639494,"schedule_slip":-0.027624309392265192,"fel_score":65},{"id":395,"name":"Circuit Debottleneck 0395","operator":"Cascade Energy","sector":"pulp_paper","sector_label":"Pulp & Paper","region":"middle_east","region_label":"Middle East & Africa","project_type":"debottleneck","project_type_label":"Debottleneck","size_band":"mega","sanction_year":2016,"capex_estimate":671.0,"capex_actual":661.9,"cost_growth":-0.01356184798807753,"schedule_slip":0.1,"fel_score":84},{"id":482,"name":"Circuit Debottleneck 0482","operator":"Summit Operations","sector":"pulp_paper","sector_label":"Pulp & Paper","region":"middle_east","region_label":"Middle East & Africa","project_type":"debottleneck","project_type_label":"Debottleneck","size_band":"medium","sanction_year":2020,"capex_estimate":66.1,"capex_actual":76.6,"cost_growth":0.15885022692889564,"schedule_slip":0.031007751937984523,"fel_score":66},{"id":509,"name":"Circuit Debottleneck 0509","operator":"Keystone Industries","sector":"pulp_paper","sector_label":"Pulp & Paper","region":"north_america","region_label":"North America","project_type":"debottleneck","project_type_label":"Debottleneck","size_band":"large","sanction_year":2024,"capex_estimate":195.8,"capex_actual":220.4,"cost_growth":0.1256384065372829,"schedule_slip":-0.016129032258064602,"fel_score":65},{"id":601,"name":"Circuit Debottleneck 0601","operator":"Meridian Industries","sector":"pulp_paper","sector_label":"Pulp & Paper","region":"north_america","region_label":"North America","project_type":"debottleneck","project_type_label":"Debottleneck","size_band":"large","sanction_year":2022,"capex_estimate":478.8,"capex_actual":549.8,"cost_growth":0.14828738512949027,"schedule_slip":-0.0071428571428571175,"fel_score":40},{"id":676,"name":"Circuit Debottleneck 0676","operator":"Cascade Materials","sector":"pulp_paper","sector_label":"Pulp & Paper","region":"north_america","region_label":"North America","project_type":"debottleneck","project_type_label":"Debottleneck","size_band":"large","sanction_year":2016,"capex_estimate":480.8,"capex_actual":531.9,"cost_growth":0.10628119800332772,"schedule_slip":0.03546099290780142,"fel_score":40},{"id":686,"name":"Circuit Debottleneck 0686","operator":"Atlas Materials","sector":"pulp_paper","sector_label":"Pulp & Paper","region":"middle_east","region_label":"Middle East & Africa","project_type":"debottleneck","project_type_label":"Debottleneck","size_band":"large","sanction_year":2024,"capex_estimate":288.0,"capex_actual":275.6,"cost_growth":-0.04305555555555548,"schedule_slip":0.005617977528089768,"fel_score":94},{"id":853,"name":"Circuit Debottleneck 0853","operator":"Keystone Industries","sector":"pulp_paper","sector_label":"Pulp & Paper","region":"south_america","region_label":"South America","project_type":"debottleneck","project_type_label":"Debottleneck","size_band":"large","sanction_year":2017,"capex_estimate":275.8,"capex_actual":295.5,"cost_growth":0.07142857142857138,"schedule_slip":0.13496932515337418,"fel_score":10},{"id":914,"name":"Circuit Debottleneck 0914","operator":"Sterling Materials","sector":"pulp_paper","sector_label":"Pulp & Paper","region":"europe","region_label":"Europe","project_type":"debottleneck","project_type_label":"Debottleneck","size_band":"large","sanction_year":2015,"capex_estimate":447.3,"capex_actual":538.7,"cost_growth":0.20433713391459876,"schedule_slip":0.16571428571428562,"fel_score":12},{"id":1071,"name":"Circuit Debottleneck 1071","operator":"Cascade Resources","sector":"pulp_paper","sector_label":"Pulp & Paper","region":"europe","region_label":"Europe","project_type":"debottleneck","project_type_label":"Debottleneck","size_band":"large","sanction_year":2022,"capex_estimate":352.0,"capex_actual":343.4,"cost_growth":-0.024431818181818245,"schedule_slip":0.032258064516129004,"fel_score":81},{"id":1186,"name":"Circuit Debottleneck 1186","operator":"Meridian Operations","sector":"pulp_paper","sector_label":"Pulp & Paper","region":"north_america","region_label":"North America","project_type":"debottleneck","project_type_label":"Debottleneck","size_band":"large","sanction_year":2020,"capex_estimate":216.2,"capex_actual":205.5,"cost_growth":-0.04949121184088802,"schedule_slip":-0.00847457627118656,"fel_score":75},{"id":1563,"name":"Circuit Debottleneck 1563","operator":"Keystone Materials","sector":"pulp_paper","sector_label":"Pulp & Paper","region":"south_america","region_label":"South America","project_type":"debottleneck","project_type_label":"Debottleneck","size_band":"large","sanction_year":2017,"capex_estimate":467.2,"capex_actual":522.8,"cost_growth":0.11900684931506843,"schedule_slip":-0.008620689655172384,"fel_score":40},{"id":1656,"name":"Circuit Debottleneck 1656","operator":"Northgate Resources","sector":"pulp_paper","sector_label":"Pulp & Paper","region":"north_america","region_label":"North America","project_type":"debottleneck","project_type_label":"Debottleneck","size_band":"large","sanction_year":2017,"capex_estimate":113.7,"capex_actual":119.5,"cost_growth":0.05101143359718555,"schedule_slip":-0.04109589041095888,"fel_score":75},{"id":1712,"name":"Circuit Debottleneck 1712","operator":"Pioneer Resources","sector":"pulp_paper","sector_label":"Pulp & Paper","region":"south_america","region_label":"South America","project_type":"debottleneck","project_type_label":"Debottleneck","size_band":"mega","sanction_year":2015,"capex_estimate":724.7,"capex_actual":805.1,"cost_growth":0.11094245894853039,"schedule_slip":-0.10697674418604654,"fel_score":75},{"id":1801,"name":"Circuit Debottleneck 1801","operator":"Cascade Operations","sector":"pulp_paper","sector_label":"Pulp & Paper","region":"south_america","region_label":"South America","project_type":"debottleneck","project_type_label":"Debottleneck","size_band":"large","sanction_year":2017,"capex_estimate":318.8,"capex_actual":348.8,"cost_growth":0.09410288582183186,"schedule_slip":0.1226666666666667,"fel_score":69},{"id":1850,"name":"Circuit Debottleneck 1850","operator":"Keystone Industries","sector":"pulp_paper","sector_label":"Pulp & Paper","region":"north_america","region_label":"North America","project_type":"debottleneck","project_type_label":"Debottleneck","size_band":"mega","sanction_year":2023,"capex_estimate":559.3,"capex_actual":683.5,"cost_growth":0.22206329340246747,"schedule_slip":0.16285714285714295,"fel_score":41},{"id":1916,"name":"Circuit Debottleneck 1916","operator":"Meridian Resources","sector":"pulp_paper","sector_label":"Pulp & Paper","region":"middle_east","region_label":"Middle East & Africa","project_type":"debottleneck","project_type_label":"Debottleneck","size_band":"large","sanction_year":2017,"capex_estimate":329.6,"capex_actual":318.8,"cost_growth":-0.03276699029126217,"schedule_slip":0.06312292358803982,"fel_score":66},{"id":1986,"name":"Circuit Debottleneck 1986","operator":"Cardinal Energy","sector":"pulp_paper","sector_label":"Pulp & Paper","region":"south_america","region_label":"South America","project_type":"debottleneck","project_type_label":"Debottleneck","size_band":"large","sanction_year":2016,"capex_estimate":190.5,"capex_actual":204.0,"cost_growth":0.07086614173228346,"schedule_slip":-0.003690036900369056,"fel_score":78},{"id":154,"name":"Line Debottleneck 0154","operator":"Granite Energy","sector":"pulp_paper","sector_label":"Pulp & Paper","region":"north_america","region_label":"North America","project_type":"debottleneck","project_type_label":"Debottleneck","size_band":"large","sanction_year":2016,"capex_estimate":387.3,"capex_actual":442.2,"cost_growth":0.1417505809450038,"schedule_slip":0.21348314606741575,"fel_score":6},{"id":186,"name":"Line Debottleneck 0186","operator":"Summit Operations","sector":"pulp_paper","sector_label":"Pulp & Paper","region":"europe","region_label":"Europe","project_type":"debottleneck","project_type_label":"Debottleneck","size_band":"mega","sanction_year":2018,"capex_estimate":715.3,"capex_actual":788.7,"cost_growth":0.10261428771144987,"schedule_slip":0.08333333333333333,"fel_score":40},{"id":567,"name":"Line Debottleneck 0567","operator":"Cascade Energy","sector":"pulp_paper","sector_label":"Pulp & Paper","region":"north_america","region_label":"North America","project_type":"debottleneck","project_type_label":"Debottleneck","size_band":"large","sanction_year":2023,"capex_estimate":356.3,"capex_actual":435.7,"cost_growth":0.2228459163626157,"schedule_slip":0.11538461538461552,"fel_score":15},{"id":639,"name":"Line Debottleneck 0639","operator":"Northgate Operations","sector":"pulp_paper","sector_label":"Pulp & Paper","region":"asia_pacific","region_label":"Asia Pacific","project_type":"debottleneck","project_type_label":"Debottleneck","size_band":"large","sanction_year":2018,"capex_estimate":349.6,"capex_actual":421.8,"cost_growth":0.20652173913043473,"schedule_slip":0.08407079646017693,"fel_score":60},{"id":698,"name":"Line Debottleneck 0698","operator":"Cardinal Industries","sector":"pulp_paper","sector_label":"Pulp & Paper","region":"south_america","region_label":"South America","project_type":"debottleneck","project_type_label":"Debottleneck","size_band":"large","sanction_year":2017,"capex_estimate":138.5,"capex_actual":150.9,"cost_growth":0.08953068592057765,"schedule_slip":0.0,"fel_score":60},{"id":935,"name":"Line Debottleneck 0935","operator":"Cardinal Materials","sector":"pulp_paper","sector_label":"Pulp & Paper","region":"north_america","region_label":"North America","project_type":"debottleneck","project_type_label":"Debottleneck","size_band":"large","sanction_year":2022,"capex_estimate":280.6,"capex_actual":325.8,"cost_growth":0.16108339272986452,"schedule_slip":-0.007042253521126736,"fel_score":31}]}