{"count":71,"next":"http://testserver/api/projects/?ordering=name&page=2&project_type=compliance&sector=oil_gas","previous":null,"results":[{"id":58,"name":"Containment EH&S 0058","operator":"Cardinal Industries","sector":"oil_gas","sector_label":"Oil & Gas","region":"middle_east","region_label":"Middle East & Africa","project_type":"compliance","project_type_label":"EH&S / Compliance","size_band":"medium","sanction_year":2015,"capex_estimate":37.3,"capex_actual":31.7,"cost_growth":-0.15013404825737262,"schedule_slip":-0.058201058201058094,"fel_score":91},{"id":67,"name":"Containment EH&S 0067","operator":"Cardinal Industries","sector":"oil_gas","sector_label":"Oil & Gas","region":"south_america","region_label":"South America","project_type":"compliance","project_type_label":"EH&S / Compliance","size_band":"large","sanction_year":2022,"capex_estimate":362.4,"capex_actual":384.5,"cost_growth":0.06098233995584996,"schedule_slip":0.12544802867383514,"fel_score":35},{"id":151,"name":"Containment EH&S 0151","operator":"Summit Industries","sector":"oil_gas","sector_label":"Oil & Gas","region":"middle_east","region_label":"Middle East & Africa","project_type":"compliance","project_type_label":"EH&S / Compliance","size_band":"mega","sanction_year":2020,"capex_estimate":992.2,"capex_actual":1232.6,"cost_growth":0.24228986091513793,"schedule_slip":0.14062499999999992,"fel_score":41},{"id":251,"name":"Containment EH&S 0251","operator":"Pioneer Operations","sector":"oil_gas","sector_label":"Oil & Gas","region":"asia_pacific","region_label":"Asia Pacific","project_type":"compliance","project_type_label":"EH&S / Compliance","size_band":"large","sanction_year":2015,"capex_estimate":394.1,"capex_actual":392.0,"cost_growth":-0.005328596802841976,"schedule_slip":-0.020671834625323106,"fel_score":69},{"id":256,"name":"Containment EH&S 0256","operator":"Meridian Operations","sector":"oil_gas","sector_label":"Oil & Gas","region":"south_america","region_label":"South America","project_type":"compliance","project_type_label":"EH&S / Compliance","size_band":"mega","sanction_year":2021,"capex_estimate":680.2,"capex_actual":713.2,"cost_growth":0.04851514260511614,"schedule_slip":0.022123893805309734,"fel_score":65},{"id":320,"name":"Containment EH&S 0320","operator":"Cascade Resources","sector":"oil_gas","sector_label":"Oil & Gas","region":"middle_east","region_label":"Middle East & Africa","project_type":"compliance","project_type_label":"EH&S / Compliance","size_band":"large","sanction_year":2014,"capex_estimate":399.4,"capex_actual":453.5,"cost_growth":0.13545317976965454,"schedule_slip":0.08000000000000004,"fel_score":69},{"id":375,"name":"Containment EH&S 0375","operator":"Pioneer Materials","sector":"oil_gas","sector_label":"Oil & Gas","region":"europe","region_label":"Europe","project_type":"compliance","project_type_label":"EH&S / Compliance","size_band":"large","sanction_year":2018,"capex_estimate":285.2,"capex_actual":282.4,"cost_growth":-0.009817671809256702,"schedule_slip":0.002512562814070388,"fel_score":69},{"id":605,"name":"Containment EH&S 0605","operator":"Sterling Materials","sector":"oil_gas","sector_label":"Oil & Gas","region":"middle_east","region_label":"Middle East & Africa","project_type":"compliance","project_type_label":"EH&S / Compliance","size_band":"large","sanction_year":2021,"capex_estimate":103.6,"capex_actual":98.4,"cost_growth":-0.050193050193050086,"schedule_slip":0.01980198019801991,"fel_score":84},{"id":632,"name":"Containment EH&S 0632","operator":"Cascade Operations","sector":"oil_gas","sector_label":"Oil & Gas","region":"middle_east","region_label":"Middle East & Africa","project_type":"compliance","project_type_label":"EH&S / Compliance","size_band":"medium","sanction_year":2018,"capex_estimate":66.6,"capex_actual":66.5,"cost_growth":-0.0015015015015014163,"schedule_slip":0.08029197080291982,"fel_score":85},{"id":699,"name":"Containment EH&S 0699","operator":"Sterling Industries","sector":"oil_gas","sector_label":"Oil & Gas","region":"south_america","region_label":"South America","project_type":"compliance","project_type_label":"EH&S / Compliance","size_band":"mega","sanction_year":2021,"capex_estimate":585.9,"capex_actual":539.4,"cost_growth":-0.07936507936507937,"schedule_slip":0.06859205776173292,"fel_score":100},{"id":835,"name":"Containment EH&S 0835","operator":"Harbor Operations","sector":"oil_gas","sector_label":"Oil & Gas","region":"south_america","region_label":"South America","project_type":"compliance","project_type_label":"EH&S / Compliance","size_band":"mega","sanction_year":2021,"capex_estimate":575.5,"capex_actual":531.9,"cost_growth":-0.0757602085143354,"schedule_slip":0.06934306569343074,"fel_score":69},{"id":875,"name":"Containment EH&S 0875","operator":"Atlas Materials","sector":"oil_gas","sector_label":"Oil & Gas","region":"north_america","region_label":"North America","project_type":"compliance","project_type_label":"EH&S / Compliance","size_band":"large","sanction_year":2014,"capex_estimate":203.1,"capex_actual":208.8,"cost_growth":0.028064992614475714,"schedule_slip":-0.020100502512562745,"fel_score":69},{"id":1151,"name":"Containment EH&S 1151","operator":"Meridian Materials","sector":"oil_gas","sector_label":"Oil & Gas","region":"north_america","region_label":"North America","project_type":"compliance","project_type_label":"EH&S / Compliance","size_band":"mega","sanction_year":2023,"capex_estimate":667.4,"capex_actual":793.5,"cost_growth":0.18894216362001803,"schedule_slip":0.07092198581560284,"fel_score":34},{"id":1263,"name":"Containment EH&S 1263","operator":"Keystone Operations","sector":"oil_gas","sector_label":"Oil & Gas","region":"north_america","region_label":"North America","project_type":"compliance","project_type_label":"EH&S / Compliance","size_band":"medium","sanction_year":2015,"capex_estimate":64.5,"capex_actual":70.6,"cost_growth":0.09457364341085263,"schedule_slip":0.011627906976744146,"fel_score":60},{"id":1471,"name":"Containment EH&S 1471","operator":"Vanguard Operations","sector":"oil_gas","sector_label":"Oil & Gas","region":"europe","region_label":"Europe","project_type":"compliance","project_type_label":"EH&S / Compliance","size_band":"medium","sanction_year":2022,"capex_estimate":75.6,"capex_actual":84.6,"cost_growth":0.11904761904761905,"schedule_slip":0.11282051282051278,"fel_score":44},{"id":1562,"name":"Containment EH&S 1562","operator":"Sterling Operations","sector":"oil_gas","sector_label":"Oil & Gas","region":"europe","region_label":"Europe","project_type":"compliance","project_type_label":"EH&S / Compliance","size_band":"mega","sanction_year":2020,"capex_estimate":599.0,"capex_actual":655.3,"cost_growth":0.0939899833055091,"schedule_slip":-0.06976744186046507,"fel_score":81},{"id":1607,"name":"Containment EH&S 1607","operator":"Meridian Operations","sector":"oil_gas","sector_label":"Oil & Gas","region":"north_america","region_label":"North America","project_type":"compliance","project_type_label":"EH&S / Compliance","size_band":"large","sanction_year":2024,"capex_estimate":484.6,"capex_actual":546.5,"cost_growth":0.12773421378456454,"schedule_slip":0.11111111111111115,"fel_score":40},{"id":1761,"name":"Containment EH&S 1761","operator":"Granite Operations","sector":"oil_gas","sector_label":"Oil & Gas","region":"asia_pacific","region_label":"Asia Pacific","project_type":"compliance","project_type_label":"EH&S / Compliance","size_band":"large","sanction_year":2021,"capex_estimate":137.6,"capex_actual":144.1,"cost_growth":0.047238372093023256,"schedule_slip":0.1424731182795698,"fel_score":59},{"id":1783,"name":"Containment EH&S 1783","operator":"Vanguard Industries","sector":"oil_gas","sector_label":"Oil & Gas","region":"europe","region_label":"Europe","project_type":"compliance","project_type_label":"EH&S / Compliance","size_band":"large","sanction_year":2015,"capex_estimate":296.8,"capex_actual":329.3,"cost_growth":0.10950134770889487,"schedule_slip":0.03179190751445091,"fel_score":49},{"id":1923,"name":"Containment EH&S 1923","operator":"Keystone Materials","sector":"oil_gas","sector_label":"Oil & Gas","region":"north_america","region_label":"North America","project_type":"compliance","project_type_label":"EH&S / Compliance","size_band":"mega","sanction_year":2024,"capex_estimate":658.8,"capex_actual":768.9,"cost_growth":0.1671220400728598,"schedule_slip":0.08749999999999991,"fel_score":25},{"id":21,"name":"Flare EH&S 0021","operator":"Northgate Resources","sector":"oil_gas","sector_label":"Oil & Gas","region":"north_america","region_label":"North America","project_type":"compliance","project_type_label":"EH&S / Compliance","size_band":"large","sanction_year":2019,"capex_estimate":250.4,"capex_actual":256.3,"cost_growth":0.02356230031948884,"schedule_slip":0.09903381642512081,"fel_score":72},{"id":87,"name":"Flare EH&S 0087","operator":"Northgate Resources","sector":"oil_gas","sector_label":"Oil & Gas","region":"europe","region_label":"Europe","project_type":"compliance","project_type_label":"EH&S / Compliance","size_band":"large","sanction_year":2019,"capex_estimate":358.5,"capex_actual":356.3,"cost_growth":-0.00613668061366803,"schedule_slip":-0.006896551724137907,"fel_score":65},{"id":140,"name":"Flare EH&S 0140","operator":"Vanguard Materials","sector":"oil_gas","sector_label":"Oil & Gas","region":"south_america","region_label":"South America","project_type":"compliance","project_type_label":"EH&S / Compliance","size_band":"mega","sanction_year":2016,"capex_estimate":717.3,"capex_actual":842.0,"cost_growth":0.17384636832566577,"schedule_slip":0.14909090909090914,"fel_score":31},{"id":337,"name":"Flare EH&S 0337","operator":"Pioneer Industries","sector":"oil_gas","sector_label":"Oil & Gas","region":"south_america","region_label":"South America","project_type":"compliance","project_type_label":"EH&S / Compliance","size_band":"large","sanction_year":2021,"capex_estimate":481.9,"capex_actual":500.3,"cost_growth":0.03818219547623996,"schedule_slip":0.1493670886075949,"fel_score":34},{"id":442,"name":"Flare EH&S 0442","operator":"Atlas Industries","sector":"oil_gas","sector_label":"Oil & Gas","region":"south_america","region_label":"South America","project_type":"compliance","project_type_label":"EH&S / Compliance","size_band":"mega","sanction_year":2024,"capex_estimate":535.4,"capex_actual":687.8,"cost_growth":0.2846469929025028,"schedule_slip":0.08411214953271032,"fel_score":25}]}