{"count":57,"next":"http://testserver/api/projects/?ordering=name&page=2&project_type=reliability&sector=power","previous":null,"results":[{"id":59,"name":"Heat Exchanger Reliability 0059","operator":"Atlas Energy","sector":"power","sector_label":"Power & Utilities","region":"north_america","region_label":"North America","project_type":"reliability","project_type_label":"Reliability & Integrity","size_band":"mega","sanction_year":2016,"capex_estimate":644.0,"capex_actual":758.8,"cost_growth":0.17826086956521733,"schedule_slip":0.09629629629629635,"fel_score":56},{"id":402,"name":"Heat Exchanger Reliability 0402","operator":"Granite Operations","sector":"power","sector_label":"Power & Utilities","region":"middle_east","region_label":"Middle East & Africa","project_type":"reliability","project_type_label":"Reliability & Integrity","size_band":"large","sanction_year":2024,"capex_estimate":477.2,"capex_actual":478.7,"cost_growth":0.0031433361274098913,"schedule_slip":0.024590163934426288,"fel_score":69},{"id":479,"name":"Heat Exchanger Reliability 0479","operator":"Cascade Resources","sector":"power","sector_label":"Power & Utilities","region":"north_america","region_label":"North America","project_type":"reliability","project_type_label":"Reliability & Integrity","size_band":"mega","sanction_year":2014,"capex_estimate":1195.9,"capex_actual":1287.2,"cost_growth":0.07634417593444263,"schedule_slip":0.05970149253731335,"fel_score":65},{"id":494,"name":"Heat Exchanger Reliability 0494","operator":"Cascade Energy","sector":"power","sector_label":"Power & Utilities","region":"south_america","region_label":"South America","project_type":"reliability","project_type_label":"Reliability & Integrity","size_band":"large","sanction_year":2015,"capex_estimate":309.0,"capex_actual":340.7,"cost_growth":0.102588996763754,"schedule_slip":0.18885448916408676,"fel_score":10},{"id":501,"name":"Heat Exchanger Reliability 0501","operator":"Keystone Materials","sector":"power","sector_label":"Power & Utilities","region":"north_america","region_label":"North America","project_type":"reliability","project_type_label":"Reliability & Integrity","size_band":"large","sanction_year":2018,"capex_estimate":431.6,"capex_actual":442.7,"cost_growth":0.02571825764596841,"schedule_slip":0.047619047619047596,"fel_score":44},{"id":625,"name":"Heat Exchanger Reliability 0625","operator":"Keystone Energy","sector":"power","sector_label":"Power & Utilities","region":"europe","region_label":"Europe","project_type":"reliability","project_type_label":"Reliability & Integrity","size_band":"mega","sanction_year":2015,"capex_estimate":2143.6,"capex_actual":2224.2,"cost_growth":0.03760029856316473,"schedule_slip":0.01680672268907547,"fel_score":66},{"id":680,"name":"Heat Exchanger Reliability 0680","operator":"Pioneer Operations","sector":"power","sector_label":"Power & Utilities","region":"south_america","region_label":"South America","project_type":"reliability","project_type_label":"Reliability & Integrity","size_band":"mega","sanction_year":2016,"capex_estimate":1042.9,"capex_actual":1170.7,"cost_growth":0.12254290919551246,"schedule_slip":0.05379746835443024,"fel_score":35},{"id":1214,"name":"Heat Exchanger Reliability 1214","operator":"Cascade Materials","sector":"power","sector_label":"Power & Utilities","region":"north_america","region_label":"North America","project_type":"reliability","project_type_label":"Reliability & Integrity","size_band":"mega","sanction_year":2016,"capex_estimate":852.6,"capex_actual":976.5,"cost_growth":0.14532019704433494,"schedule_slip":0.06274509803921574,"fel_score":60},{"id":1310,"name":"Heat Exchanger Reliability 1310","operator":"Northgate Materials","sector":"power","sector_label":"Power & Utilities","region":"north_america","region_label":"North America","project_type":"reliability","project_type_label":"Reliability & Integrity","size_band":"large","sanction_year":2015,"capex_estimate":424.2,"capex_actual":395.2,"cost_growth":-0.06836397925506836,"schedule_slip":-0.07653061224489795,"fel_score":94},{"id":1359,"name":"Heat Exchanger Reliability 1359","operator":"Atlas Industries","sector":"power","sector_label":"Power & Utilities","region":"asia_pacific","region_label":"Asia Pacific","project_type":"reliability","project_type_label":"Reliability & Integrity","size_band":"medium","sanction_year":2015,"capex_estimate":93.3,"capex_actual":115.0,"cost_growth":0.23258306538049306,"schedule_slip":0.14009661835748802,"fel_score":25},{"id":1398,"name":"Heat Exchanger Reliability 1398","operator":"Harbor Resources","sector":"power","sector_label":"Power & Utilities","region":"middle_east","region_label":"Middle East & Africa","project_type":"reliability","project_type_label":"Reliability & Integrity","size_band":"large","sanction_year":2016,"capex_estimate":379.5,"capex_actual":428.6,"cost_growth":0.1293807641633729,"schedule_slip":0.0,"fel_score":41},{"id":1620,"name":"Heat Exchanger Reliability 1620","operator":"Atlas Materials","sector":"power","sector_label":"Power & Utilities","region":"europe","region_label":"Europe","project_type":"reliability","project_type_label":"Reliability & Integrity","size_band":"large","sanction_year":2014,"capex_estimate":499.5,"capex_actual":520.3,"cost_growth":0.04164164164164155,"schedule_slip":0.0705882352941176,"fel_score":60},{"id":1658,"name":"Heat Exchanger Reliability 1658","operator":"Harbor Resources","sector":"power","sector_label":"Power & Utilities","region":"middle_east","region_label":"Middle East & Africa","project_type":"reliability","project_type_label":"Reliability & Integrity","size_band":"mega","sanction_year":2021,"capex_estimate":531.6,"capex_actual":632.7,"cost_growth":0.19018058690744924,"schedule_slip":0.06818181818181814,"fel_score":40},{"id":1862,"name":"Heat Exchanger Reliability 1862","operator":"Harbor Operations","sector":"power","sector_label":"Power & Utilities","region":"middle_east","region_label":"Middle East & Africa","project_type":"reliability","project_type_label":"Reliability & Integrity","size_band":"mega","sanction_year":2018,"capex_estimate":633.8,"capex_actual":726.7,"cost_growth":0.1465762070053646,"schedule_slip":0.07817589576547239,"fel_score":34},{"id":1900,"name":"Heat Exchanger Reliability 1900","operator":"Keystone Operations","sector":"power","sector_label":"Power & Utilities","region":"europe","region_label":"Europe","project_type":"reliability","project_type_label":"Reliability & Integrity","size_band":"medium","sanction_year":2019,"capex_estimate":36.6,"capex_actual":36.9,"cost_growth":0.008196721311475332,"schedule_slip":0.01604278074866314,"fel_score":81},{"id":1934,"name":"Heat Exchanger Reliability 1934","operator":"Granite Materials","sector":"power","sector_label":"Power & Utilities","region":"south_america","region_label":"South America","project_type":"reliability","project_type_label":"Reliability & Integrity","size_band":"mega","sanction_year":2020,"capex_estimate":1359.9,"capex_actual":1391.0,"cost_growth":0.022869328627104866,"schedule_slip":0.08139534883720943,"fel_score":46},{"id":1993,"name":"Heat Exchanger Reliability 1993","operator":"Harbor Resources","sector":"power","sector_label":"Power & Utilities","region":"north_america","region_label":"North America","project_type":"reliability","project_type_label":"Reliability & Integrity","size_band":"mega","sanction_year":2017,"capex_estimate":839.7,"capex_actual":713.7,"cost_growth":-0.15005359056806,"schedule_slip":0.029411764705882425,"fel_score":69},{"id":210,"name":"Pump Station Reliability 0210","operator":"Harbor Industries","sector":"power","sector_label":"Power & Utilities","region":"asia_pacific","region_label":"Asia Pacific","project_type":"reliability","project_type_label":"Reliability & Integrity","size_band":"mega","sanction_year":2014,"capex_estimate":730.3,"capex_actual":797.5,"cost_growth":0.09201697932356573,"schedule_slip":-0.007425742574257356,"fel_score":75},{"id":284,"name":"Pump Station Reliability 0284","operator":"Sterling Energy","sector":"power","sector_label":"Power & Utilities","region":"asia_pacific","region_label":"Asia Pacific","project_type":"reliability","project_type_label":"Reliability & Integrity","size_band":"large","sanction_year":2015,"capex_estimate":346.7,"capex_actual":375.2,"cost_growth":0.08220363426593597,"schedule_slip":0.047781569965870255,"fel_score":75},{"id":409,"name":"Pump Station Reliability 0409","operator":"Sterling Industries","sector":"power","sector_label":"Power & Utilities","region":"middle_east","region_label":"Middle East & Africa","project_type":"reliability","project_type_label":"Reliability & Integrity","size_band":"large","sanction_year":2016,"capex_estimate":477.0,"capex_actual":438.6,"cost_growth":-0.080503144654088,"schedule_slip":0.03157894736842113,"fel_score":50},{"id":516,"name":"Pump Station Reliability 0516","operator":"Cascade Industries","sector":"power","sector_label":"Power & Utilities","region":"asia_pacific","region_label":"Asia Pacific","project_type":"reliability","project_type_label":"Reliability & Integrity","size_band":"medium","sanction_year":2022,"capex_estimate":89.8,"capex_actual":79.0,"cost_growth":-0.12026726057906456,"schedule_slip":-0.014084507042253554,"fel_score":90},{"id":558,"name":"Pump Station Reliability 0558","operator":"Atlas Materials","sector":"power","sector_label":"Power & Utilities","region":"north_america","region_label":"North America","project_type":"reliability","project_type_label":"Reliability & Integrity","size_band":"mega","sanction_year":2018,"capex_estimate":1695.9,"capex_actual":2026.8,"cost_growth":0.19511763665310444,"schedule_slip":0.09451219512195128,"fel_score":31},{"id":751,"name":"Pump Station Reliability 0751","operator":"Harbor Energy","sector":"power","sector_label":"Power & Utilities","region":"europe","region_label":"Europe","project_type":"reliability","project_type_label":"Reliability & Integrity","size_band":"mega","sanction_year":2023,"capex_estimate":770.6,"capex_actual":737.0,"cost_growth":-0.04360238774980538,"schedule_slip":0.04624277456647403,"fel_score":65},{"id":834,"name":"Pump Station Reliability 0834","operator":"Cascade Energy","sector":"power","sector_label":"Power & Utilities","region":"middle_east","region_label":"Middle East & Africa","project_type":"reliability","project_type_label":"Reliability & Integrity","size_band":"mega","sanction_year":2016,"capex_estimate":821.8,"capex_actual":961.7,"cost_growth":0.17023606716962777,"schedule_slip":0.054945054945054944,"fel_score":31},{"id":1147,"name":"Pump Station Reliability 1147","operator":"Meridian Operations","sector":"power","sector_label":"Power & Utilities","region":"europe","region_label":"Europe","project_type":"reliability","project_type_label":"Reliability & Integrity","size_band":"mega","sanction_year":2017,"capex_estimate":818.7,"capex_actual":928.6,"cost_growth":0.13423720532551603,"schedule_slip":0.06837606837606844,"fel_score":25}]}