{"count":68,"next":"http://testserver/api/projects/?ordering=name&page=2&project_type=asset_replacement&sector=chemicals","previous":null,"results":[{"id":41,"name":"Boiler Asset 0041","operator":"Cascade Industries","sector":"chemicals","sector_label":"Chemicals","region":"middle_east","region_label":"Middle East & Africa","project_type":"asset_replacement","project_type_label":"Asset Replacement","size_band":"mega","sanction_year":2023,"capex_estimate":1310.3,"capex_actual":1467.5,"cost_growth":0.11997252537586817,"schedule_slip":-0.05813953488372093,"fel_score":81},{"id":170,"name":"Boiler Asset 0170","operator":"Summit Energy","sector":"chemicals","sector_label":"Chemicals","region":"asia_pacific","region_label":"Asia Pacific","project_type":"asset_replacement","project_type_label":"Asset Replacement","size_band":"mega","sanction_year":2016,"capex_estimate":697.7,"capex_actual":637.7,"cost_growth":-0.08599684678228464,"schedule_slip":-0.010676156583629918,"fel_score":66},{"id":245,"name":"Boiler Asset 0245","operator":"Cascade Operations","sector":"chemicals","sector_label":"Chemicals","region":"south_america","region_label":"South America","project_type":"asset_replacement","project_type_label":"Asset Replacement","size_band":"mega","sanction_year":2019,"capex_estimate":1655.5,"capex_actual":1623.0,"cost_growth":-0.019631531259438235,"schedule_slip":-0.014150943396226448,"fel_score":90},{"id":308,"name":"Boiler Asset 0308","operator":"Harbor Resources","sector":"chemicals","sector_label":"Chemicals","region":"europe","region_label":"Europe","project_type":"asset_replacement","project_type_label":"Asset Replacement","size_band":"mega","sanction_year":2023,"capex_estimate":1199.1,"capex_actual":1097.1,"cost_growth":-0.0850637978483863,"schedule_slip":-0.0067567567567568525,"fel_score":85},{"id":425,"name":"Boiler Asset 0425","operator":"Cardinal Operations","sector":"chemicals","sector_label":"Chemicals","region":"middle_east","region_label":"Middle East & Africa","project_type":"asset_replacement","project_type_label":"Asset Replacement","size_band":"large","sanction_year":2015,"capex_estimate":293.6,"capex_actual":292.2,"cost_growth":-0.004768392370572323,"schedule_slip":-0.00881057268722464,"fel_score":65},{"id":809,"name":"Boiler Asset 0809","operator":"Atlas Materials","sector":"chemicals","sector_label":"Chemicals","region":"middle_east","region_label":"Middle East & Africa","project_type":"asset_replacement","project_type_label":"Asset Replacement","size_band":"mega","sanction_year":2019,"capex_estimate":883.3,"capex_actual":918.2,"cost_growth":0.0395109249405639,"schedule_slip":0.009803921568627591,"fel_score":59},{"id":1018,"name":"Boiler Asset 1018","operator":"Sterling Materials","sector":"chemicals","sector_label":"Chemicals","region":"europe","region_label":"Europe","project_type":"asset_replacement","project_type_label":"Asset Replacement","size_band":"mega","sanction_year":2017,"capex_estimate":780.2,"capex_actual":961.2,"cost_growth":0.23199179697513456,"schedule_slip":0.06451612903225802,"fel_score":60},{"id":1094,"name":"Boiler Asset 1094","operator":"Keystone Industries","sector":"chemicals","sector_label":"Chemicals","region":"asia_pacific","region_label":"Asia Pacific","project_type":"asset_replacement","project_type_label":"Asset Replacement","size_band":"mega","sanction_year":2022,"capex_estimate":546.3,"capex_actual":595.3,"cost_growth":0.08969430715723962,"schedule_slip":-0.03278688524590152,"fel_score":81},{"id":1119,"name":"Boiler Asset 1119","operator":"Atlas Energy","sector":"chemicals","sector_label":"Chemicals","region":"south_america","region_label":"South America","project_type":"asset_replacement","project_type_label":"Asset Replacement","size_band":"large","sanction_year":2024,"capex_estimate":416.0,"capex_actual":529.0,"cost_growth":0.27163461538461536,"schedule_slip":0.18604651162790686,"fel_score":25},{"id":1169,"name":"Boiler Asset 1169","operator":"Summit Resources","sector":"chemicals","sector_label":"Chemicals","region":"asia_pacific","region_label":"Asia Pacific","project_type":"asset_replacement","project_type_label":"Asset Replacement","size_band":"mega","sanction_year":2019,"capex_estimate":1435.6,"capex_actual":1501.8,"cost_growth":0.046113123432711095,"schedule_slip":0.09749303621169916,"fel_score":54},{"id":1400,"name":"Boiler Asset 1400","operator":"Cascade Energy","sector":"chemicals","sector_label":"Chemicals","region":"south_america","region_label":"South America","project_type":"asset_replacement","project_type_label":"Asset Replacement","size_band":"large","sanction_year":2015,"capex_estimate":105.7,"capex_actual":120.0,"cost_growth":0.1352885525070955,"schedule_slip":-0.03358208955223888,"fel_score":60},{"id":1422,"name":"Boiler Asset 1422","operator":"Cardinal Materials","sector":"chemicals","sector_label":"Chemicals","region":"north_america","region_label":"North America","project_type":"asset_replacement","project_type_label":"Asset Replacement","size_band":"mega","sanction_year":2020,"capex_estimate":1518.1,"capex_actual":1889.1,"cost_growth":0.2443844279033002,"schedule_slip":0.0964285714285714,"fel_score":31},{"id":26,"name":"Compressor Asset 0026","operator":"Cardinal Operations","sector":"chemicals","sector_label":"Chemicals","region":"middle_east","region_label":"Middle East & Africa","project_type":"asset_replacement","project_type_label":"Asset Replacement","size_band":"mega","sanction_year":2016,"capex_estimate":571.8,"capex_actual":543.0,"cost_growth":-0.050367261280167816,"schedule_slip":0.09186351706036745,"fel_score":56},{"id":95,"name":"Compressor Asset 0095","operator":"Pioneer Materials","sector":"chemicals","sector_label":"Chemicals","region":"asia_pacific","region_label":"Asia Pacific","project_type":"asset_replacement","project_type_label":"Asset Replacement","size_band":"mega","sanction_year":2021,"capex_estimate":865.4,"capex_actual":849.8,"cost_growth":-0.018026346198289835,"schedule_slip":0.012195121951219686,"fel_score":90},{"id":345,"name":"Compressor Asset 0345","operator":"Atlas Energy","sector":"chemicals","sector_label":"Chemicals","region":"europe","region_label":"Europe","project_type":"asset_replacement","project_type_label":"Asset Replacement","size_band":"mega","sanction_year":2018,"capex_estimate":1531.7,"capex_actual":1687.7,"cost_growth":0.10184762029117973,"schedule_slip":0.17223650385604122,"fel_score":10},{"id":504,"name":"Compressor Asset 0504","operator":"Cardinal Energy","sector":"chemicals","sector_label":"Chemicals","region":"asia_pacific","region_label":"Asia Pacific","project_type":"asset_replacement","project_type_label":"Asset Replacement","size_band":"mega","sanction_year":2017,"capex_estimate":745.3,"capex_actual":833.4,"cost_growth":0.1182074332483564,"schedule_slip":0.1517615176151762,"fel_score":50},{"id":670,"name":"Compressor Asset 0670","operator":"Cardinal Industries","sector":"chemicals","sector_label":"Chemicals","region":"north_america","region_label":"North America","project_type":"asset_replacement","project_type_label":"Asset Replacement","size_band":"mega","sanction_year":2021,"capex_estimate":960.8,"capex_actual":1101.8,"cost_growth":0.14675270607826812,"schedule_slip":0.01488095238095238,"fel_score":74},{"id":767,"name":"Compressor Asset 0767","operator":"Cascade Energy","sector":"chemicals","sector_label":"Chemicals","region":"north_america","region_label":"North America","project_type":"asset_replacement","project_type_label":"Asset Replacement","size_band":"large","sanction_year":2024,"capex_estimate":365.2,"capex_actual":394.4,"cost_growth":0.0799561883899233,"schedule_slip":0.0659340659340659,"fel_score":56},{"id":792,"name":"Compressor Asset 0792","operator":"Vanguard Resources","sector":"chemicals","sector_label":"Chemicals","region":"north_america","region_label":"North America","project_type":"asset_replacement","project_type_label":"Asset Replacement","size_band":"mega","sanction_year":2021,"capex_estimate":899.2,"capex_actual":952.2,"cost_growth":0.05894128113879003,"schedule_slip":0.12068965517241388,"fel_score":50},{"id":868,"name":"Compressor Asset 0868","operator":"Cascade Materials","sector":"chemicals","sector_label":"Chemicals","region":"south_america","region_label":"South America","project_type":"asset_replacement","project_type_label":"Asset Replacement","size_band":"mega","sanction_year":2024,"capex_estimate":880.2,"capex_actual":1080.9,"cost_growth":0.22801635991820046,"schedule_slip":0.21621621621621626,"fel_score":19},{"id":1088,"name":"Compressor Asset 1088","operator":"Sterling Operations","sector":"chemicals","sector_label":"Chemicals","region":"asia_pacific","region_label":"Asia Pacific","project_type":"asset_replacement","project_type_label":"Asset Replacement","size_band":"mega","sanction_year":2017,"capex_estimate":1480.6,"capex_actual":1594.9,"cost_growth":0.07719843306767539,"schedule_slip":0.07608695652173925,"fel_score":60},{"id":1274,"name":"Compressor Asset 1274","operator":"Summit Resources","sector":"chemicals","sector_label":"Chemicals","region":"north_america","region_label":"North America","project_type":"asset_replacement","project_type_label":"Asset Replacement","size_band":"mega","sanction_year":2018,"capex_estimate":720.5,"capex_actual":795.2,"cost_growth":0.10367800138792511,"schedule_slip":0.18382352941176483,"fel_score":34},{"id":1513,"name":"Compressor Asset 1513","operator":"Granite Materials","sector":"chemicals","sector_label":"Chemicals","region":"north_america","region_label":"North America","project_type":"asset_replacement","project_type_label":"Asset Replacement","size_band":"mega","sanction_year":2016,"capex_estimate":1091.1,"capex_actual":1223.1,"cost_growth":0.12097882870497664,"schedule_slip":0.10588235294117651,"fel_score":75},{"id":1570,"name":"Compressor Asset 1570","operator":"Summit Industries","sector":"chemicals","sector_label":"Chemicals","region":"south_america","region_label":"South America","project_type":"asset_replacement","project_type_label":"Asset Replacement","size_band":"large","sanction_year":2015,"capex_estimate":183.2,"capex_actual":189.9,"cost_growth":0.03657205240174682,"schedule_slip":0.20652173913043484,"fel_score":75},{"id":1582,"name":"Compressor Asset 1582","operator":"Cardinal Resources","sector":"chemicals","sector_label":"Chemicals","region":"north_america","region_label":"North America","project_type":"asset_replacement","project_type_label":"Asset Replacement","size_band":"mega","sanction_year":2016,"capex_estimate":1031.7,"capex_actual":1176.0,"cost_growth":0.13986624018610055,"schedule_slip":0.15384615384615385,"fel_score":50}]}