{"count":62,"next":"http://testserver/api/projects/?ordering=name&page=2&project_type=compliance&sector=power","previous":null,"results":[{"id":272,"name":"Containment EH&S 0272","operator":"Meridian Resources","sector":"power","sector_label":"Power & Utilities","region":"south_america","region_label":"South America","project_type":"compliance","project_type_label":"EH&S / Compliance","size_band":"mega","sanction_year":2023,"capex_estimate":778.0,"capex_actual":814.8,"cost_growth":0.047300771208226164,"schedule_slip":0.17438692098092637,"fel_score":34},{"id":459,"name":"Containment EH&S 0459","operator":"Harbor Resources","sector":"power","sector_label":"Power & Utilities","region":"europe","region_label":"Europe","project_type":"compliance","project_type_label":"EH&S / Compliance","size_band":"large","sanction_year":2018,"capex_estimate":376.4,"capex_actual":388.0,"cost_growth":0.030818278427205165,"schedule_slip":0.03682719546742222,"fel_score":75},{"id":463,"name":"Containment EH&S 0463","operator":"Northgate Operations","sector":"power","sector_label":"Power & Utilities","region":"south_america","region_label":"South America","project_type":"compliance","project_type_label":"EH&S / Compliance","size_band":"mega","sanction_year":2021,"capex_estimate":1064.3,"capex_actual":1107.9,"cost_growth":0.04096589307526086,"schedule_slip":0.024096385542168586,"fel_score":84},{"id":521,"name":"Containment EH&S 0521","operator":"Vanguard Resources","sector":"power","sector_label":"Power & Utilities","region":"asia_pacific","region_label":"Asia Pacific","project_type":"compliance","project_type_label":"EH&S / Compliance","size_band":"large","sanction_year":2023,"capex_estimate":250.0,"capex_actual":257.2,"cost_growth":0.028799999999999954,"schedule_slip":-0.004773269689737369,"fel_score":66},{"id":560,"name":"Containment EH&S 0560","operator":"Pioneer Resources","sector":"power","sector_label":"Power & Utilities","region":"europe","region_label":"Europe","project_type":"compliance","project_type_label":"EH&S / Compliance","size_band":"medium","sanction_year":2018,"capex_estimate":55.0,"capex_actual":58.5,"cost_growth":0.06363636363636363,"schedule_slip":0.07228915662650598,"fel_score":50},{"id":642,"name":"Containment EH&S 0642","operator":"Keystone Operations","sector":"power","sector_label":"Power & Utilities","region":"europe","region_label":"Europe","project_type":"compliance","project_type_label":"EH&S / Compliance","size_band":"large","sanction_year":2014,"capex_estimate":212.9,"capex_actual":223.4,"cost_growth":0.04931892907468295,"schedule_slip":0.0650887573964498,"fel_score":79},{"id":663,"name":"Containment EH&S 0663","operator":"Cascade Energy","sector":"power","sector_label":"Power & Utilities","region":"south_america","region_label":"South America","project_type":"compliance","project_type_label":"EH&S / Compliance","size_band":"large","sanction_year":2019,"capex_estimate":301.4,"capex_actual":347.5,"cost_growth":0.15295288652952896,"schedule_slip":0.1309523809523809,"fel_score":34},{"id":1167,"name":"Containment EH&S 1167","operator":"Northgate Resources","sector":"power","sector_label":"Power & Utilities","region":"europe","region_label":"Europe","project_type":"compliance","project_type_label":"EH&S / Compliance","size_band":"mega","sanction_year":2019,"capex_estimate":1226.9,"capex_actual":1287.6,"cost_growth":0.04947428478278573,"schedule_slip":0.05630026809651479,"fel_score":50},{"id":1437,"name":"Containment EH&S 1437","operator":"Harbor Industries","sector":"power","sector_label":"Power & Utilities","region":"asia_pacific","region_label":"Asia Pacific","project_type":"compliance","project_type_label":"EH&S / Compliance","size_band":"large","sanction_year":2021,"capex_estimate":320.4,"capex_actual":326.4,"cost_growth":0.018726591760299626,"schedule_slip":0.04280155642023352,"fel_score":75},{"id":1472,"name":"Containment EH&S 1472","operator":"Vanguard Industries","sector":"power","sector_label":"Power & Utilities","region":"asia_pacific","region_label":"Asia Pacific","project_type":"compliance","project_type_label":"EH&S / Compliance","size_band":"large","sanction_year":2024,"capex_estimate":478.9,"capex_actual":480.9,"cost_growth":0.0041762372102735435,"schedule_slip":0.0591715976331361,"fel_score":56},{"id":1508,"name":"Containment EH&S 1508","operator":"Summit Industries","sector":"power","sector_label":"Power & Utilities","region":"europe","region_label":"Europe","project_type":"compliance","project_type_label":"EH&S / Compliance","size_band":"mega","sanction_year":2022,"capex_estimate":516.4,"capex_actual":557.8,"cost_growth":0.08017041053446937,"schedule_slip":0.06666666666666672,"fel_score":50},{"id":1526,"name":"Containment EH&S 1526","operator":"Northgate Energy","sector":"power","sector_label":"Power & Utilities","region":"north_america","region_label":"North America","project_type":"compliance","project_type_label":"EH&S / Compliance","size_band":"large","sanction_year":2023,"capex_estimate":267.2,"capex_actual":300.1,"cost_growth":0.12312874251497019,"schedule_slip":0.06214689265536731,"fel_score":35},{"id":1736,"name":"Containment EH&S 1736","operator":"Sterling Energy","sector":"power","sector_label":"Power & Utilities","region":"middle_east","region_label":"Middle East & Africa","project_type":"compliance","project_type_label":"EH&S / Compliance","size_band":"small","sanction_year":2022,"capex_estimate":21.4,"capex_actual":26.4,"cost_growth":0.23364485981308414,"schedule_slip":0.040816326530612096,"fel_score":69},{"id":1747,"name":"Containment EH&S 1747","operator":"Pioneer Materials","sector":"power","sector_label":"Power & Utilities","region":"europe","region_label":"Europe","project_type":"compliance","project_type_label":"EH&S / Compliance","size_band":"mega","sanction_year":2024,"capex_estimate":639.6,"capex_actual":649.8,"cost_growth":0.015947467166979253,"schedule_slip":0.12631578947368413,"fel_score":60},{"id":1864,"name":"Containment EH&S 1864","operator":"Sterling Industries","sector":"power","sector_label":"Power & Utilities","region":"asia_pacific","region_label":"Asia Pacific","project_type":"compliance","project_type_label":"EH&S / Compliance","size_band":"mega","sanction_year":2022,"capex_estimate":555.8,"capex_actual":546.1,"cost_growth":-0.01745232097876922,"schedule_slip":0.06467661691542274,"fel_score":50},{"id":47,"name":"Flare EH&S 0047","operator":"Cascade Materials","sector":"power","sector_label":"Power & Utilities","region":"north_america","region_label":"North America","project_type":"compliance","project_type_label":"EH&S / Compliance","size_band":"mega","sanction_year":2019,"capex_estimate":783.9,"capex_actual":876.5,"cost_growth":0.11812731215716293,"schedule_slip":-0.01342281879194638,"fel_score":56},{"id":113,"name":"Flare EH&S 0113","operator":"Northgate Industries","sector":"power","sector_label":"Power & Utilities","region":"middle_east","region_label":"Middle East & Africa","project_type":"compliance","project_type_label":"EH&S / Compliance","size_band":"mega","sanction_year":2016,"capex_estimate":849.0,"capex_actual":997.0,"cost_growth":0.17432273262661954,"schedule_slip":0.11111111111111108,"fel_score":22},{"id":114,"name":"Flare EH&S 0114","operator":"Cascade Operations","sector":"power","sector_label":"Power & Utilities","region":"middle_east","region_label":"Middle East & Africa","project_type":"compliance","project_type_label":"EH&S / Compliance","size_band":"large","sanction_year":2022,"capex_estimate":419.7,"capex_actual":374.0,"cost_growth":-0.10888730045270428,"schedule_slip":-0.03243243243243251,"fel_score":90},{"id":189,"name":"Flare EH&S 0189","operator":"Sterling Industries","sector":"power","sector_label":"Power & Utilities","region":"south_america","region_label":"South America","project_type":"compliance","project_type_label":"EH&S / Compliance","size_band":"medium","sanction_year":2019,"capex_estimate":72.6,"capex_actual":75.1,"cost_growth":0.03443526170798898,"schedule_slip":0.058510638297872224,"fel_score":66},{"id":281,"name":"Flare EH&S 0281","operator":"Pioneer Energy","sector":"power","sector_label":"Power & Utilities","region":"north_america","region_label":"North America","project_type":"compliance","project_type_label":"EH&S / Compliance","size_band":"large","sanction_year":2020,"capex_estimate":416.4,"capex_actual":433.0,"cost_growth":0.03986551392891456,"schedule_slip":0.13311688311688305,"fel_score":31},{"id":453,"name":"Flare EH&S 0453","operator":"Sterling Operations","sector":"power","sector_label":"Power & Utilities","region":"north_america","region_label":"North America","project_type":"compliance","project_type_label":"EH&S / Compliance","size_band":"large","sanction_year":2019,"capex_estimate":184.0,"capex_actual":198.5,"cost_growth":0.07880434782608696,"schedule_slip":0.1780821917808219,"fel_score":25},{"id":537,"name":"Flare EH&S 0537","operator":"Meridian Resources","sector":"power","sector_label":"Power & Utilities","region":"middle_east","region_label":"Middle East & Africa","project_type":"compliance","project_type_label":"EH&S / Compliance","size_band":"mega","sanction_year":2019,"capex_estimate":604.1,"capex_actual":673.3,"cost_growth":0.1145505710975003,"schedule_slip":0.08376963350785328,"fel_score":56},{"id":693,"name":"Flare EH&S 0693","operator":"Keystone Industries","sector":"power","sector_label":"Power & Utilities","region":"europe","region_label":"Europe","project_type":"compliance","project_type_label":"EH&S / Compliance","size_band":"large","sanction_year":2019,"capex_estimate":456.7,"capex_actual":522.0,"cost_growth":0.1429822640683162,"schedule_slip":0.06231454005934701,"fel_score":34},{"id":1069,"name":"Flare EH&S 1069","operator":"Harbor Industries","sector":"power","sector_label":"Power & Utilities","region":"middle_east","region_label":"Middle East & Africa","project_type":"compliance","project_type_label":"EH&S / Compliance","size_band":"large","sanction_year":2022,"capex_estimate":483.1,"capex_actual":479.6,"cost_growth":-0.007244876837093769,"schedule_slip":-0.008547008547008517,"fel_score":84},{"id":1173,"name":"Flare EH&S 1173","operator":"Pioneer Energy","sector":"power","sector_label":"Power & Utilities","region":"europe","region_label":"Europe","project_type":"compliance","project_type_label":"EH&S / Compliance","size_band":"mega","sanction_year":2021,"capex_estimate":783.6,"capex_actual":802.6,"cost_growth":0.024247064828994386,"schedule_slip":-0.024242424242424156,"fel_score":85}]}