{"count":99,"next":"http://testserver/api/projects/?ordering=name&page=2&project_type=reliability&sector=mining","previous":null,"results":[{"id":24,"name":"Heat Exchanger Reliability 0024","operator":"Meridian Industries","sector":"mining","sector_label":"Mining & Metals","region":"europe","region_label":"Europe","project_type":"reliability","project_type_label":"Reliability & Integrity","size_band":"mega","sanction_year":2015,"capex_estimate":663.8,"capex_actual":790.9,"cost_growth":0.19147333534197053,"schedule_slip":0.008264462809917326,"fel_score":50},{"id":208,"name":"Heat Exchanger Reliability 0208","operator":"Sterling Operations","sector":"mining","sector_label":"Mining & Metals","region":"europe","region_label":"Europe","project_type":"reliability","project_type_label":"Reliability & Integrity","size_band":"mega","sanction_year":2020,"capex_estimate":1247.2,"capex_actual":1267.4,"cost_growth":0.01619627966645289,"schedule_slip":0.047619047619047616,"fel_score":40},{"id":419,"name":"Heat Exchanger Reliability 0419","operator":"Summit Resources","sector":"mining","sector_label":"Mining & Metals","region":"north_america","region_label":"North America","project_type":"reliability","project_type_label":"Reliability & Integrity","size_band":"mega","sanction_year":2021,"capex_estimate":1548.2,"capex_actual":1653.1,"cost_growth":0.06775610386254997,"schedule_slip":-0.0024213075060531314,"fel_score":65},{"id":489,"name":"Heat Exchanger Reliability 0489","operator":"Keystone Resources","sector":"mining","sector_label":"Mining & Metals","region":"asia_pacific","region_label":"Asia Pacific","project_type":"reliability","project_type_label":"Reliability & Integrity","size_band":"large","sanction_year":2018,"capex_estimate":248.3,"capex_actual":296.1,"cost_growth":0.1925090616190093,"schedule_slip":0.09210526315789488,"fel_score":34},{"id":659,"name":"Heat Exchanger Reliability 0659","operator":"Meridian Energy","sector":"mining","sector_label":"Mining & Metals","region":"europe","region_label":"Europe","project_type":"reliability","project_type_label":"Reliability & Integrity","size_band":"mega","sanction_year":2014,"capex_estimate":1001.8,"capex_actual":1022.8,"cost_growth":0.020962267917748054,"schedule_slip":0.03124999999999989,"fel_score":66},{"id":755,"name":"Heat Exchanger Reliability 0755","operator":"Summit Resources","sector":"mining","sector_label":"Mining & Metals","region":"europe","region_label":"Europe","project_type":"reliability","project_type_label":"Reliability & Integrity","size_band":"mega","sanction_year":2021,"capex_estimate":701.9,"capex_actual":720.0,"cost_growth":0.025787149166547976,"schedule_slip":0.11688311688311681,"fel_score":84},{"id":789,"name":"Heat Exchanger Reliability 0789","operator":"Vanguard Energy","sector":"mining","sector_label":"Mining & Metals","region":"north_america","region_label":"North America","project_type":"reliability","project_type_label":"Reliability & Integrity","size_band":"large","sanction_year":2020,"capex_estimate":136.4,"capex_actual":162.1,"cost_growth":0.18841642228738995,"schedule_slip":0.03603603603603607,"fel_score":19},{"id":833,"name":"Heat Exchanger Reliability 0833","operator":"Sterling Energy","sector":"mining","sector_label":"Mining & Metals","region":"south_america","region_label":"South America","project_type":"reliability","project_type_label":"Reliability & Integrity","size_band":"mega","sanction_year":2024,"capex_estimate":1125.0,"capex_actual":1255.2,"cost_growth":0.11573333333333337,"schedule_slip":0.11764705882352952,"fel_score":40},{"id":1048,"name":"Heat Exchanger Reliability 1048","operator":"Cascade Operations","sector":"mining","sector_label":"Mining & Metals","region":"middle_east","region_label":"Middle East & Africa","project_type":"reliability","project_type_label":"Reliability & Integrity","size_band":"large","sanction_year":2024,"capex_estimate":122.8,"capex_actual":123.7,"cost_growth":0.007328990228013076,"schedule_slip":-0.04109589041095888,"fel_score":60},{"id":1093,"name":"Heat Exchanger Reliability 1093","operator":"Atlas Operations","sector":"mining","sector_label":"Mining & Metals","region":"europe","region_label":"Europe","project_type":"reliability","project_type_label":"Reliability & Integrity","size_band":"mega","sanction_year":2017,"capex_estimate":527.3,"capex_actual":530.2,"cost_growth":0.005499715531955417,"schedule_slip":0.03313253012048176,"fel_score":85},{"id":1268,"name":"Heat Exchanger Reliability 1268","operator":"Atlas Industries","sector":"mining","sector_label":"Mining & Metals","region":"south_america","region_label":"South America","project_type":"reliability","project_type_label":"Reliability & Integrity","size_band":"large","sanction_year":2020,"capex_estimate":317.4,"capex_actual":347.4,"cost_growth":0.0945179584120983,"schedule_slip":0.057017543859649154,"fel_score":50},{"id":1530,"name":"Heat Exchanger Reliability 1530","operator":"Northgate Operations","sector":"mining","sector_label":"Mining & Metals","region":"europe","region_label":"Europe","project_type":"reliability","project_type_label":"Reliability & Integrity","size_band":"mega","sanction_year":2017,"capex_estimate":1054.6,"capex_actual":1263.2,"cost_growth":0.19780011378721804,"schedule_slip":0.18686868686868682,"fel_score":31},{"id":1540,"name":"Heat Exchanger Reliability 1540","operator":"Harbor Industries","sector":"mining","sector_label":"Mining & Metals","region":"asia_pacific","region_label":"Asia Pacific","project_type":"reliability","project_type_label":"Reliability & Integrity","size_band":"mega","sanction_year":2018,"capex_estimate":953.4,"capex_actual":828.5,"cost_growth":-0.13100482483742393,"schedule_slip":-0.051546391752577324,"fel_score":65},{"id":1561,"name":"Heat Exchanger Reliability 1561","operator":"Harbor Operations","sector":"mining","sector_label":"Mining & Metals","region":"north_america","region_label":"North America","project_type":"reliability","project_type_label":"Reliability & Integrity","size_band":"mega","sanction_year":2024,"capex_estimate":957.8,"capex_actual":902.6,"cost_growth":-0.05763207350177483,"schedule_slip":0.0,"fel_score":91},{"id":1581,"name":"Heat Exchanger Reliability 1581","operator":"Meridian Energy","sector":"mining","sector_label":"Mining & Metals","region":"europe","region_label":"Europe","project_type":"reliability","project_type_label":"Reliability & Integrity","size_band":"large","sanction_year":2019,"capex_estimate":454.4,"capex_actual":478.8,"cost_growth":0.05369718309859163,"schedule_slip":-0.004950495049504845,"fel_score":66},{"id":1685,"name":"Heat Exchanger Reliability 1685","operator":"Sterling Materials","sector":"mining","sector_label":"Mining & Metals","region":"north_america","region_label":"North America","project_type":"reliability","project_type_label":"Reliability & Integrity","size_band":"mega","sanction_year":2019,"capex_estimate":823.9,"capex_actual":967.3,"cost_growth":0.17405024881660394,"schedule_slip":0.11428571428571421,"fel_score":25},{"id":1762,"name":"Heat Exchanger Reliability 1762","operator":"Pioneer Operations","sector":"mining","sector_label":"Mining & Metals","region":"north_america","region_label":"North America","project_type":"reliability","project_type_label":"Reliability & Integrity","size_band":"large","sanction_year":2023,"capex_estimate":163.3,"capex_actual":167.5,"cost_growth":0.025719534598897663,"schedule_slip":0.12222222222222218,"fel_score":75},{"id":1800,"name":"Heat Exchanger Reliability 1800","operator":"Vanguard Operations","sector":"mining","sector_label":"Mining & Metals","region":"europe","region_label":"Europe","project_type":"reliability","project_type_label":"Reliability & Integrity","size_band":"large","sanction_year":2015,"capex_estimate":268.1,"capex_actual":318.4,"cost_growth":0.18761656098470703,"schedule_slip":0.2025316455696202,"fel_score":25},{"id":1878,"name":"Heat Exchanger Reliability 1878","operator":"Cascade Materials","sector":"mining","sector_label":"Mining & Metals","region":"middle_east","region_label":"Middle East & Africa","project_type":"reliability","project_type_label":"Reliability & Integrity","size_band":"large","sanction_year":2023,"capex_estimate":123.8,"capex_actual":132.1,"cost_growth":0.06704361873990305,"schedule_slip":0.06796116504854362,"fel_score":50},{"id":1961,"name":"Heat Exchanger Reliability 1961","operator":"Summit Energy","sector":"mining","sector_label":"Mining & Metals","region":"europe","region_label":"Europe","project_type":"reliability","project_type_label":"Reliability & Integrity","size_band":"large","sanction_year":2023,"capex_estimate":212.7,"capex_actual":202.3,"cost_growth":-0.04889515749882453,"schedule_slip":0.08021390374331551,"fel_score":65},{"id":63,"name":"Pump Station Reliability 0063","operator":"Harbor Materials","sector":"mining","sector_label":"Mining & Metals","region":"asia_pacific","region_label":"Asia Pacific","project_type":"reliability","project_type_label":"Reliability & Integrity","size_band":"mega","sanction_year":2015,"capex_estimate":859.9,"capex_actual":868.0,"cost_growth":0.009419699965112249,"schedule_slip":0.062034739454094295,"fel_score":75},{"id":65,"name":"Pump Station Reliability 0065","operator":"Vanguard Operations","sector":"mining","sector_label":"Mining & Metals","region":"asia_pacific","region_label":"Asia Pacific","project_type":"reliability","project_type_label":"Reliability & Integrity","size_band":"large","sanction_year":2023,"capex_estimate":231.4,"capex_actual":259.4,"cost_growth":0.12100259291270514,"schedule_slip":0.14885496183206115,"fel_score":41},{"id":169,"name":"Pump Station Reliability 0169","operator":"Keystone Industries","sector":"mining","sector_label":"Mining & Metals","region":"asia_pacific","region_label":"Asia Pacific","project_type":"reliability","project_type_label":"Reliability & Integrity","size_band":"mega","sanction_year":2019,"capex_estimate":915.5,"capex_actual":951.3,"cost_growth":0.039104314582195474,"schedule_slip":0.0,"fel_score":70},{"id":174,"name":"Pump Station Reliability 0174","operator":"Cardinal Energy","sector":"mining","sector_label":"Mining & Metals","region":"middle_east","region_label":"Middle East & Africa","project_type":"reliability","project_type_label":"Reliability & Integrity","size_band":"mega","sanction_year":2015,"capex_estimate":1239.3,"capex_actual":1628.6,"cost_growth":0.31412894375857336,"schedule_slip":0.15126050420168058,"fel_score":25},{"id":220,"name":"Pump Station Reliability 0220","operator":"Meridian Industries","sector":"mining","sector_label":"Mining & Metals","region":"south_america","region_label":"South America","project_type":"reliability","project_type_label":"Reliability & Integrity","size_band":"mega","sanction_year":2018,"capex_estimate":677.7,"capex_actual":771.3,"cost_growth":0.1381142098273571,"schedule_slip":0.030821917808219253,"fel_score":66}]}