{"count":80,"next":"http://testserver/api/projects/?ordering=name&page=2&project_type=reliability&sector=oil_gas","previous":null,"results":[{"id":596,"name":"Heat Exchanger Reliability 0596","operator":"Pioneer Materials","sector":"oil_gas","sector_label":"Oil & Gas","region":"asia_pacific","region_label":"Asia Pacific","project_type":"reliability","project_type_label":"Reliability & Integrity","size_band":"mega","sanction_year":2021,"capex_estimate":1088.6,"capex_actual":1092.1,"cost_growth":0.003215138710270072,"schedule_slip":0.08695652173913047,"fel_score":66},{"id":618,"name":"Heat Exchanger Reliability 0618","operator":"Meridian Energy","sector":"oil_gas","sector_label":"Oil & Gas","region":"asia_pacific","region_label":"Asia Pacific","project_type":"reliability","project_type_label":"Reliability & Integrity","size_band":"large","sanction_year":2016,"capex_estimate":261.6,"capex_actual":266.9,"cost_growth":0.020259938837920315,"schedule_slip":0.003663003663003585,"fel_score":69},{"id":1075,"name":"Heat Exchanger Reliability 1075","operator":"Pioneer Resources","sector":"oil_gas","sector_label":"Oil & Gas","region":"middle_east","region_label":"Middle East & Africa","project_type":"reliability","project_type_label":"Reliability & Integrity","size_band":"mega","sanction_year":2023,"capex_estimate":738.6,"capex_actual":817.0,"cost_growth":0.1061467641483888,"schedule_slip":0.05813953488372093,"fel_score":40},{"id":1121,"name":"Heat Exchanger Reliability 1121","operator":"Sterling Energy","sector":"oil_gas","sector_label":"Oil & Gas","region":"south_america","region_label":"South America","project_type":"reliability","project_type_label":"Reliability & Integrity","size_band":"mega","sanction_year":2021,"capex_estimate":772.9,"capex_actual":860.8,"cost_growth":0.11372751973088366,"schedule_slip":0.078125,"fel_score":59},{"id":1207,"name":"Heat Exchanger Reliability 1207","operator":"Sterling Energy","sector":"oil_gas","sector_label":"Oil & Gas","region":"middle_east","region_label":"Middle East & Africa","project_type":"reliability","project_type_label":"Reliability & Integrity","size_band":"mega","sanction_year":2017,"capex_estimate":904.1,"capex_actual":928.4,"cost_growth":0.026877557792279565,"schedule_slip":-0.04575163398692817,"fel_score":84},{"id":1317,"name":"Heat Exchanger Reliability 1317","operator":"Sterling Energy","sector":"oil_gas","sector_label":"Oil & Gas","region":"middle_east","region_label":"Middle East & Africa","project_type":"reliability","project_type_label":"Reliability & Integrity","size_band":"large","sanction_year":2015,"capex_estimate":247.3,"capex_actual":264.1,"cost_growth":0.06793368378487671,"schedule_slip":0.03370786516853921,"fel_score":70},{"id":1441,"name":"Heat Exchanger Reliability 1441","operator":"Atlas Industries","sector":"oil_gas","sector_label":"Oil & Gas","region":"middle_east","region_label":"Middle East & Africa","project_type":"reliability","project_type_label":"Reliability & Integrity","size_band":"large","sanction_year":2018,"capex_estimate":213.6,"capex_actual":224.7,"cost_growth":0.051966292134831435,"schedule_slip":0.10377358490566034,"fel_score":60},{"id":1502,"name":"Heat Exchanger Reliability 1502","operator":"Vanguard Resources","sector":"oil_gas","sector_label":"Oil & Gas","region":"middle_east","region_label":"Middle East & Africa","project_type":"reliability","project_type_label":"Reliability & Integrity","size_band":"mega","sanction_year":2024,"capex_estimate":544.7,"capex_actual":647.7,"cost_growth":0.18909491463190745,"schedule_slip":0.03903903903903917,"fel_score":50},{"id":1507,"name":"Heat Exchanger Reliability 1507","operator":"Northgate Materials","sector":"oil_gas","sector_label":"Oil & Gas","region":"europe","region_label":"Europe","project_type":"reliability","project_type_label":"Reliability & Integrity","size_band":"large","sanction_year":2018,"capex_estimate":133.9,"capex_actual":145.3,"cost_growth":0.08513816280806576,"schedule_slip":0.16111111111111104,"fel_score":34},{"id":1531,"name":"Heat Exchanger Reliability 1531","operator":"Pioneer Resources","sector":"oil_gas","sector_label":"Oil & Gas","region":"north_america","region_label":"North America","project_type":"reliability","project_type_label":"Reliability & Integrity","size_band":"large","sanction_year":2024,"capex_estimate":200.6,"capex_actual":231.4,"cost_growth":0.15353938185443675,"schedule_slip":0.07909604519774023,"fel_score":84},{"id":1663,"name":"Heat Exchanger Reliability 1663","operator":"Northgate Resources","sector":"oil_gas","sector_label":"Oil & Gas","region":"south_america","region_label":"South America","project_type":"reliability","project_type_label":"Reliability & Integrity","size_band":"large","sanction_year":2017,"capex_estimate":497.8,"capex_actual":519.7,"cost_growth":0.043993571715548484,"schedule_slip":0.027210884353741523,"fel_score":56},{"id":1675,"name":"Heat Exchanger Reliability 1675","operator":"Atlas Industries","sector":"oil_gas","sector_label":"Oil & Gas","region":"north_america","region_label":"North America","project_type":"reliability","project_type_label":"Reliability & Integrity","size_band":"large","sanction_year":2016,"capex_estimate":113.7,"capex_actual":109.8,"cost_growth":-0.03430079155672828,"schedule_slip":-0.03561643835616431,"fel_score":59},{"id":1730,"name":"Heat Exchanger Reliability 1730","operator":"Granite Resources","sector":"oil_gas","sector_label":"Oil & Gas","region":"north_america","region_label":"North America","project_type":"reliability","project_type_label":"Reliability & Integrity","size_band":"mega","sanction_year":2018,"capex_estimate":550.2,"capex_actual":660.7,"cost_growth":0.20083605961468556,"schedule_slip":0.16666666666666669,"fel_score":34},{"id":1950,"name":"Heat Exchanger Reliability 1950","operator":"Atlas Energy","sector":"oil_gas","sector_label":"Oil & Gas","region":"europe","region_label":"Europe","project_type":"reliability","project_type_label":"Reliability & Integrity","size_band":"mega","sanction_year":2014,"capex_estimate":694.2,"capex_actual":749.5,"cost_growth":0.07966004033419756,"schedule_slip":0.07317073170731707,"fel_score":66},{"id":1966,"name":"Heat Exchanger Reliability 1966","operator":"Pioneer Materials","sector":"oil_gas","sector_label":"Oil & Gas","region":"asia_pacific","region_label":"Asia Pacific","project_type":"reliability","project_type_label":"Reliability & Integrity","size_band":"large","sanction_year":2019,"capex_estimate":257.9,"capex_actual":262.6,"cost_growth":0.018224117875145582,"schedule_slip":-0.0540540540540541,"fel_score":75},{"id":1975,"name":"Heat Exchanger Reliability 1975","operator":"Vanguard Industries","sector":"oil_gas","sector_label":"Oil & Gas","region":"north_america","region_label":"North America","project_type":"reliability","project_type_label":"Reliability & Integrity","size_band":"large","sanction_year":2017,"capex_estimate":111.4,"capex_actual":127.1,"cost_growth":0.14093357271095142,"schedule_slip":0.06666666666666661,"fel_score":44},{"id":20,"name":"Pump Station Reliability 0020","operator":"Atlas Energy","sector":"oil_gas","sector_label":"Oil & Gas","region":"middle_east","region_label":"Middle East & Africa","project_type":"reliability","project_type_label":"Reliability & Integrity","size_band":"large","sanction_year":2024,"capex_estimate":296.9,"capex_actual":276.7,"cost_growth":-0.06803637588413604,"schedule_slip":0.0,"fel_score":91},{"id":162,"name":"Pump Station Reliability 0162","operator":"Meridian Materials","sector":"oil_gas","sector_label":"Oil & Gas","region":"north_america","region_label":"North America","project_type":"reliability","project_type_label":"Reliability & Integrity","size_band":"mega","sanction_year":2016,"capex_estimate":762.7,"capex_actual":872.9,"cost_growth":0.14448669201520903,"schedule_slip":0.007751937984496096,"fel_score":48},{"id":249,"name":"Pump Station Reliability 0249","operator":"Pioneer Operations","sector":"oil_gas","sector_label":"Oil & Gas","region":"south_america","region_label":"South America","project_type":"reliability","project_type_label":"Reliability & Integrity","size_band":"mega","sanction_year":2014,"capex_estimate":537.7,"capex_actual":583.4,"cost_growth":0.0849916310210153,"schedule_slip":0.10327455919395451,"fel_score":44},{"id":283,"name":"Pump Station Reliability 0283","operator":"Harbor Materials","sector":"oil_gas","sector_label":"Oil & Gas","region":"north_america","region_label":"North America","project_type":"reliability","project_type_label":"Reliability & Integrity","size_band":"large","sanction_year":2022,"capex_estimate":242.1,"capex_actual":268.6,"cost_growth":0.10945890128046273,"schedule_slip":0.04504504504504505,"fel_score":75},{"id":446,"name":"Pump Station Reliability 0446","operator":"Northgate Industries","sector":"oil_gas","sector_label":"Oil & Gas","region":"middle_east","region_label":"Middle East & Africa","project_type":"reliability","project_type_label":"Reliability & Integrity","size_band":"large","sanction_year":2016,"capex_estimate":234.8,"capex_actual":259.8,"cost_growth":0.10647359454855196,"schedule_slip":-0.029556650246305487,"fel_score":44},{"id":645,"name":"Pump Station Reliability 0645","operator":"Keystone Industries","sector":"oil_gas","sector_label":"Oil & Gas","region":"middle_east","region_label":"Middle East & Africa","project_type":"reliability","project_type_label":"Reliability & Integrity","size_band":"large","sanction_year":2017,"capex_estimate":484.8,"capex_actual":572.0,"cost_growth":0.17986798679867985,"schedule_slip":-0.073170731707317,"fel_score":60},{"id":824,"name":"Pump Station Reliability 0824","operator":"Atlas Materials","sector":"oil_gas","sector_label":"Oil & Gas","region":"south_america","region_label":"South America","project_type":"reliability","project_type_label":"Reliability & Integrity","size_band":"mega","sanction_year":2018,"capex_estimate":687.7,"capex_actual":803.5,"cost_growth":0.1683873782172458,"schedule_slip":0.0,"fel_score":41},{"id":828,"name":"Pump Station Reliability 0828","operator":"Vanguard Industries","sector":"oil_gas","sector_label":"Oil & Gas","region":"middle_east","region_label":"Middle East & Africa","project_type":"reliability","project_type_label":"Reliability & Integrity","size_band":"large","sanction_year":2020,"capex_estimate":297.1,"capex_actual":285.3,"cost_growth":-0.039717266913497175,"schedule_slip":0.11913357400722024,"fel_score":60},{"id":881,"name":"Pump Station Reliability 0881","operator":"Atlas Industries","sector":"oil_gas","sector_label":"Oil & Gas","region":"south_america","region_label":"South America","project_type":"reliability","project_type_label":"Reliability & Integrity","size_band":"large","sanction_year":2018,"capex_estimate":315.4,"capex_actual":356.6,"cost_growth":0.13062777425491454,"schedule_slip":0.019607843137254832,"fel_score":75}]}