{"count":83,"next":"http://testserver/api/projects/?ordering=name&page=2&project_type=compliance&sector=chemicals","previous":null,"results":[{"id":503,"name":"Containment EH&S 0503","operator":"Atlas Industries","sector":"chemicals","sector_label":"Chemicals","region":"europe","region_label":"Europe","project_type":"compliance","project_type_label":"EH&S / Compliance","size_band":"large","sanction_year":2018,"capex_estimate":130.1,"capex_actual":152.3,"cost_growth":0.17063797079169885,"schedule_slip":0.0756302521008402,"fel_score":69},{"id":524,"name":"Containment EH&S 0524","operator":"Keystone Resources","sector":"chemicals","sector_label":"Chemicals","region":"europe","region_label":"Europe","project_type":"compliance","project_type_label":"EH&S / Compliance","size_band":"medium","sanction_year":2015,"capex_estimate":90.2,"capex_actual":101.6,"cost_growth":0.1263858093126385,"schedule_slip":0.04166666666666669,"fel_score":82},{"id":648,"name":"Containment EH&S 0648","operator":"Granite Materials","sector":"chemicals","sector_label":"Chemicals","region":"europe","region_label":"Europe","project_type":"compliance","project_type_label":"EH&S / Compliance","size_band":"mega","sanction_year":2016,"capex_estimate":729.2,"capex_actual":759.2,"cost_growth":0.04114097641250685,"schedule_slip":0.08132530120481914,"fel_score":75},{"id":679,"name":"Containment EH&S 0679","operator":"Vanguard Energy","sector":"chemicals","sector_label":"Chemicals","region":"north_america","region_label":"North America","project_type":"compliance","project_type_label":"EH&S / Compliance","size_band":"mega","sanction_year":2017,"capex_estimate":566.5,"capex_actual":644.1,"cost_growth":0.13698146513680498,"schedule_slip":0.09192200557103077,"fel_score":59},{"id":696,"name":"Containment EH&S 0696","operator":"Meridian Industries","sector":"chemicals","sector_label":"Chemicals","region":"middle_east","region_label":"Middle East & Africa","project_type":"compliance","project_type_label":"EH&S / Compliance","size_band":"large","sanction_year":2021,"capex_estimate":127.9,"capex_actual":153.4,"cost_growth":0.199374511336982,"schedule_slip":0.010676156583629791,"fel_score":40},{"id":836,"name":"Containment EH&S 0836","operator":"Vanguard Resources","sector":"chemicals","sector_label":"Chemicals","region":"middle_east","region_label":"Middle East & Africa","project_type":"compliance","project_type_label":"EH&S / Compliance","size_band":"mega","sanction_year":2014,"capex_estimate":672.2,"capex_actual":699.8,"cost_growth":0.041059208568878174,"schedule_slip":-0.04301075268817208,"fel_score":76},{"id":986,"name":"Containment EH&S 0986","operator":"Keystone Resources","sector":"chemicals","sector_label":"Chemicals","region":"north_america","region_label":"North America","project_type":"compliance","project_type_label":"EH&S / Compliance","size_band":"large","sanction_year":2017,"capex_estimate":390.0,"capex_actual":416.0,"cost_growth":0.06666666666666667,"schedule_slip":0.10094637223974762,"fel_score":50},{"id":1134,"name":"Containment EH&S 1134","operator":"Cardinal Energy","sector":"chemicals","sector_label":"Chemicals","region":"asia_pacific","region_label":"Asia Pacific","project_type":"compliance","project_type_label":"EH&S / Compliance","size_band":"large","sanction_year":2015,"capex_estimate":326.0,"capex_actual":388.3,"cost_growth":0.19110429447852764,"schedule_slip":0.21897810218978103,"fel_score":21},{"id":1204,"name":"Containment EH&S 1204","operator":"Cardinal Industries","sector":"chemicals","sector_label":"Chemicals","region":"south_america","region_label":"South America","project_type":"compliance","project_type_label":"EH&S / Compliance","size_band":"large","sanction_year":2024,"capex_estimate":126.2,"capex_actual":120.2,"cost_growth":-0.04754358161648178,"schedule_slip":0.013888888888888888,"fel_score":66},{"id":1459,"name":"Containment EH&S 1459","operator":"Summit Materials","sector":"chemicals","sector_label":"Chemicals","region":"asia_pacific","region_label":"Asia Pacific","project_type":"compliance","project_type_label":"EH&S / Compliance","size_band":"mega","sanction_year":2023,"capex_estimate":597.7,"capex_actual":580.9,"cost_growth":-0.028107746361050807,"schedule_slip":0.052777777777777736,"fel_score":50},{"id":1602,"name":"Containment EH&S 1602","operator":"Cascade Resources","sector":"chemicals","sector_label":"Chemicals","region":"europe","region_label":"Europe","project_type":"compliance","project_type_label":"EH&S / Compliance","size_band":"large","sanction_year":2024,"capex_estimate":254.2,"capex_actual":253.7,"cost_growth":-0.001966955153422502,"schedule_slip":0.06965174129353226,"fel_score":84},{"id":1733,"name":"Containment EH&S 1733","operator":"Cardinal Resources","sector":"chemicals","sector_label":"Chemicals","region":"middle_east","region_label":"Middle East & Africa","project_type":"compliance","project_type_label":"EH&S / Compliance","size_band":"mega","sanction_year":2015,"capex_estimate":643.3,"capex_actual":615.4,"cost_growth":-0.04337012280429035,"schedule_slip":0.06493506493506493,"fel_score":50},{"id":1947,"name":"Containment EH&S 1947","operator":"Harbor Operations","sector":"chemicals","sector_label":"Chemicals","region":"europe","region_label":"Europe","project_type":"compliance","project_type_label":"EH&S / Compliance","size_band":"mega","sanction_year":2022,"capex_estimate":624.8,"capex_actual":704.0,"cost_growth":0.12676056338028177,"schedule_slip":0.08205128205128212,"fel_score":31},{"id":1,"name":"Flare EH&S 0001","operator":"Sterling Operations","sector":"chemicals","sector_label":"Chemicals","region":"north_america","region_label":"North America","project_type":"compliance","project_type_label":"EH&S / Compliance","size_band":"large","sanction_year":2017,"capex_estimate":311.9,"capex_actual":317.5,"cost_growth":0.01795447258736782,"schedule_slip":0.025157232704402538,"fel_score":50},{"id":57,"name":"Flare EH&S 0057","operator":"Sterling Energy","sector":"chemicals","sector_label":"Chemicals","region":"middle_east","region_label":"Middle East & Africa","project_type":"compliance","project_type_label":"EH&S / Compliance","size_band":"large","sanction_year":2024,"capex_estimate":404.9,"capex_actual":421.6,"cost_growth":0.041244751790565685,"schedule_slip":-0.01845018450184502,"fel_score":56},{"id":96,"name":"Flare EH&S 0096","operator":"Cardinal Operations","sector":"chemicals","sector_label":"Chemicals","region":"europe","region_label":"Europe","project_type":"compliance","project_type_label":"EH&S / Compliance","size_band":"large","sanction_year":2017,"capex_estimate":432.1,"capex_actual":471.2,"cost_growth":0.09048831289053451,"schedule_slip":0.0975609756097562,"fel_score":50},{"id":125,"name":"Flare EH&S 0125","operator":"Cardinal Materials","sector":"chemicals","sector_label":"Chemicals","region":"europe","region_label":"Europe","project_type":"compliance","project_type_label":"EH&S / Compliance","size_band":"mega","sanction_year":2022,"capex_estimate":641.4,"capex_actual":751.3,"cost_growth":0.17134393514187712,"schedule_slip":0.04225352112676067,"fel_score":59},{"id":282,"name":"Flare EH&S 0282","operator":"Atlas Operations","sector":"chemicals","sector_label":"Chemicals","region":"middle_east","region_label":"Middle East & Africa","project_type":"compliance","project_type_label":"EH&S / Compliance","size_band":"mega","sanction_year":2014,"capex_estimate":639.1,"capex_actual":709.3,"cost_growth":0.1098419652636519,"schedule_slip":0.07978723404255318,"fel_score":69},{"id":416,"name":"Flare EH&S 0416","operator":"Summit Industries","sector":"chemicals","sector_label":"Chemicals","region":"north_america","region_label":"North America","project_type":"compliance","project_type_label":"EH&S / Compliance","size_band":"large","sanction_year":2018,"capex_estimate":210.1,"capex_actual":189.9,"cost_growth":-0.0961446930033317,"schedule_slip":0.01587301587301591,"fel_score":79},{"id":523,"name":"Flare EH&S 0523","operator":"Harbor Energy","sector":"chemicals","sector_label":"Chemicals","region":"middle_east","region_label":"Middle East & Africa","project_type":"compliance","project_type_label":"EH&S / Compliance","size_band":"mega","sanction_year":2019,"capex_estimate":514.5,"capex_actual":511.2,"cost_growth":-0.006413994169096232,"schedule_slip":0.06360424028268553,"fel_score":85},{"id":646,"name":"Flare EH&S 0646","operator":"Granite Operations","sector":"chemicals","sector_label":"Chemicals","region":"europe","region_label":"Europe","project_type":"compliance","project_type_label":"EH&S / Compliance","size_band":"mega","sanction_year":2017,"capex_estimate":594.3,"capex_actual":586.8,"cost_growth":-0.012619888944977285,"schedule_slip":0.12121212121212122,"fel_score":50},{"id":731,"name":"Flare EH&S 0731","operator":"Northgate Resources","sector":"chemicals","sector_label":"Chemicals","region":"middle_east","region_label":"Middle East & Africa","project_type":"compliance","project_type_label":"EH&S / Compliance","size_band":"mega","sanction_year":2019,"capex_estimate":764.1,"capex_actual":897.0,"cost_growth":0.17393011385944246,"schedule_slip":0.041666666666666644,"fel_score":62},{"id":756,"name":"Flare EH&S 0756","operator":"Harbor Materials","sector":"chemicals","sector_label":"Chemicals","region":"europe","region_label":"Europe","project_type":"compliance","project_type_label":"EH&S / Compliance","size_band":"mega","sanction_year":2019,"capex_estimate":630.5,"capex_actual":749.6,"cost_growth":0.18889770023790645,"schedule_slip":0.04424778761061947,"fel_score":59},{"id":901,"name":"Flare EH&S 0901","operator":"Vanguard Energy","sector":"chemicals","sector_label":"Chemicals","region":"europe","region_label":"Europe","project_type":"compliance","project_type_label":"EH&S / Compliance","size_band":"mega","sanction_year":2015,"capex_estimate":843.4,"capex_actual":930.6,"cost_growth":0.10339103628171692,"schedule_slip":-0.03278688524590152,"fel_score":65},{"id":917,"name":"Flare EH&S 0917","operator":"Harbor Energy","sector":"chemicals","sector_label":"Chemicals","region":"south_america","region_label":"South America","project_type":"compliance","project_type_label":"EH&S / Compliance","size_band":"large","sanction_year":2016,"capex_estimate":466.2,"capex_actual":520.0,"cost_growth":0.11540111540111543,"schedule_slip":0.090909090909091,"fel_score":44}]}