{"count":65,"next":"http://testserver/api/projects/?ordering=name&page=2&project_type=debottleneck&sector=chemicals","previous":null,"results":[{"id":290,"name":"Circuit Debottleneck 0290","operator":"Cascade Operations","sector":"chemicals","sector_label":"Chemicals","region":"europe","region_label":"Europe","project_type":"debottleneck","project_type_label":"Debottleneck","size_band":"mega","sanction_year":2018,"capex_estimate":631.3,"capex_actual":563.0,"cost_growth":-0.10818945034056703,"schedule_slip":-0.02531645569620244,"fel_score":91},{"id":594,"name":"Circuit Debottleneck 0594","operator":"Cardinal Materials","sector":"chemicals","sector_label":"Chemicals","region":"middle_east","region_label":"Middle East & Africa","project_type":"debottleneck","project_type_label":"Debottleneck","size_band":"large","sanction_year":2023,"capex_estimate":466.1,"capex_actual":469.9,"cost_growth":0.008152756919115971,"schedule_slip":-0.0686274509803921,"fel_score":94},{"id":722,"name":"Circuit Debottleneck 0722","operator":"Harbor Materials","sector":"chemicals","sector_label":"Chemicals","region":"south_america","region_label":"South America","project_type":"debottleneck","project_type_label":"Debottleneck","size_band":"mega","sanction_year":2016,"capex_estimate":582.5,"capex_actual":754.5,"cost_growth":0.2952789699570815,"schedule_slip":0.14540059347181003,"fel_score":9},{"id":948,"name":"Circuit Debottleneck 0948","operator":"Cascade Industries","sector":"chemicals","sector_label":"Chemicals","region":"north_america","region_label":"North America","project_type":"debottleneck","project_type_label":"Debottleneck","size_band":"mega","sanction_year":2019,"capex_estimate":629.6,"capex_actual":687.2,"cost_growth":0.09148665819567983,"schedule_slip":0.011718749999999889,"fel_score":71},{"id":953,"name":"Circuit Debottleneck 0953","operator":"Vanguard Energy","sector":"chemicals","sector_label":"Chemicals","region":"asia_pacific","region_label":"Asia Pacific","project_type":"debottleneck","project_type_label":"Debottleneck","size_band":"large","sanction_year":2022,"capex_estimate":173.2,"capex_actual":176.7,"cost_growth":0.020207852193995384,"schedule_slip":0.07062146892655367,"fel_score":50},{"id":1042,"name":"Circuit Debottleneck 1042","operator":"Harbor Energy","sector":"chemicals","sector_label":"Chemicals","region":"asia_pacific","region_label":"Asia Pacific","project_type":"debottleneck","project_type_label":"Debottleneck","size_band":"mega","sanction_year":2019,"capex_estimate":1211.5,"capex_actual":1263.0,"cost_growth":0.042509286009079654,"schedule_slip":-0.06451612903225806,"fel_score":91},{"id":1056,"name":"Circuit Debottleneck 1056","operator":"Cardinal Energy","sector":"chemicals","sector_label":"Chemicals","region":"south_america","region_label":"South America","project_type":"debottleneck","project_type_label":"Debottleneck","size_band":"mega","sanction_year":2016,"capex_estimate":1328.1,"capex_actual":1403.0,"cost_growth":0.05639635569610729,"schedule_slip":0.017777777777777715,"fel_score":60},{"id":1073,"name":"Circuit Debottleneck 1073","operator":"Vanguard Industries","sector":"chemicals","sector_label":"Chemicals","region":"middle_east","region_label":"Middle East & Africa","project_type":"debottleneck","project_type_label":"Debottleneck","size_band":"large","sanction_year":2024,"capex_estimate":346.0,"capex_actual":363.2,"cost_growth":0.049710982658959506,"schedule_slip":0.0,"fel_score":50},{"id":1104,"name":"Circuit Debottleneck 1104","operator":"Granite Energy","sector":"chemicals","sector_label":"Chemicals","region":"europe","region_label":"Europe","project_type":"debottleneck","project_type_label":"Debottleneck","size_band":"mega","sanction_year":2019,"capex_estimate":1734.5,"capex_actual":2323.4,"cost_growth":0.33952147592966275,"schedule_slip":0.15615615615615625,"fel_score":0},{"id":1131,"name":"Circuit Debottleneck 1131","operator":"Northgate Materials","sector":"chemicals","sector_label":"Chemicals","region":"europe","region_label":"Europe","project_type":"debottleneck","project_type_label":"Debottleneck","size_band":"mega","sanction_year":2022,"capex_estimate":898.5,"capex_actual":1082.0,"cost_growth":0.2042292710072343,"schedule_slip":0.22611464968152872,"fel_score":6},{"id":1153,"name":"Circuit Debottleneck 1153","operator":"Cardinal Resources","sector":"chemicals","sector_label":"Chemicals","region":"south_america","region_label":"South America","project_type":"debottleneck","project_type_label":"Debottleneck","size_band":"mega","sanction_year":2020,"capex_estimate":933.5,"capex_actual":1131.0,"cost_growth":0.21156936261381895,"schedule_slip":0.0684410646387833,"fel_score":75},{"id":1308,"name":"Circuit Debottleneck 1308","operator":"Keystone Energy","sector":"chemicals","sector_label":"Chemicals","region":"north_america","region_label":"North America","project_type":"debottleneck","project_type_label":"Debottleneck","size_band":"large","sanction_year":2016,"capex_estimate":144.2,"capex_actual":164.5,"cost_growth":0.1407766990291263,"schedule_slip":0.06993006993006992,"fel_score":35},{"id":1431,"name":"Circuit Debottleneck 1431","operator":"Cascade Materials","sector":"chemicals","sector_label":"Chemicals","region":"north_america","region_label":"North America","project_type":"debottleneck","project_type_label":"Debottleneck","size_band":"mega","sanction_year":2020,"capex_estimate":1078.1,"capex_actual":1123.4,"cost_growth":0.04201836564326147,"schedule_slip":-0.06332453825857516,"fel_score":94},{"id":1599,"name":"Circuit Debottleneck 1599","operator":"Cardinal Operations","sector":"chemicals","sector_label":"Chemicals","region":"north_america","region_label":"North America","project_type":"debottleneck","project_type_label":"Debottleneck","size_band":"large","sanction_year":2016,"capex_estimate":354.2,"capex_actual":358.8,"cost_growth":0.012987012987013052,"schedule_slip":0.003968253968254024,"fel_score":60},{"id":1725,"name":"Circuit Debottleneck 1725","operator":"Atlas Resources","sector":"chemicals","sector_label":"Chemicals","region":"south_america","region_label":"South America","project_type":"debottleneck","project_type_label":"Debottleneck","size_band":"mega","sanction_year":2021,"capex_estimate":1072.5,"capex_actual":1283.2,"cost_growth":0.1964568764568765,"schedule_slip":0.07569721115537842,"fel_score":35},{"id":1802,"name":"Circuit Debottleneck 1802","operator":"Sterling Energy","sector":"chemicals","sector_label":"Chemicals","region":"asia_pacific","region_label":"Asia Pacific","project_type":"debottleneck","project_type_label":"Debottleneck","size_band":"large","sanction_year":2014,"capex_estimate":286.6,"capex_actual":299.1,"cost_growth":0.04361479413817167,"schedule_slip":0.10638297872340426,"fel_score":50},{"id":43,"name":"Line Debottleneck 0043","operator":"Meridian Energy","sector":"chemicals","sector_label":"Chemicals","region":"south_america","region_label":"South America","project_type":"debottleneck","project_type_label":"Debottleneck","size_band":"mega","sanction_year":2020,"capex_estimate":654.0,"capex_actual":588.3,"cost_growth":-0.10045871559633035,"schedule_slip":-0.017045454545454586,"fel_score":100},{"id":129,"name":"Line Debottleneck 0129","operator":"Cascade Materials","sector":"chemicals","sector_label":"Chemicals","region":"middle_east","region_label":"Middle East & Africa","project_type":"debottleneck","project_type_label":"Debottleneck","size_band":"large","sanction_year":2019,"capex_estimate":302.5,"capex_actual":321.3,"cost_growth":0.06214876033057855,"schedule_slip":0.11111111111111102,"fel_score":60},{"id":180,"name":"Line Debottleneck 0180","operator":"Summit Materials","sector":"chemicals","sector_label":"Chemicals","region":"asia_pacific","region_label":"Asia Pacific","project_type":"debottleneck","project_type_label":"Debottleneck","size_band":"large","sanction_year":2020,"capex_estimate":116.1,"capex_actual":126.9,"cost_growth":0.09302325581395358,"schedule_slip":-0.05107526881720445,"fel_score":60},{"id":209,"name":"Line Debottleneck 0209","operator":"Keystone Resources","sector":"chemicals","sector_label":"Chemicals","region":"north_america","region_label":"North America","project_type":"debottleneck","project_type_label":"Debottleneck","size_band":"large","sanction_year":2021,"capex_estimate":260.1,"capex_actual":298.4,"cost_growth":0.14725105728565918,"schedule_slip":-0.006024096385542254,"fel_score":50},{"id":266,"name":"Line Debottleneck 0266","operator":"Granite Resources","sector":"chemicals","sector_label":"Chemicals","region":"south_america","region_label":"South America","project_type":"debottleneck","project_type_label":"Debottleneck","size_band":"mega","sanction_year":2017,"capex_estimate":1392.6,"capex_actual":1537.0,"cost_growth":0.10369093781416064,"schedule_slip":-0.004065040650406562,"fel_score":81},{"id":564,"name":"Line Debottleneck 0564","operator":"Atlas Operations","sector":"chemicals","sector_label":"Chemicals","region":"europe","region_label":"Europe","project_type":"debottleneck","project_type_label":"Debottleneck","size_band":"large","sanction_year":2016,"capex_estimate":287.8,"capex_actual":317.4,"cost_growth":0.10284920083391232,"schedule_slip":0.0699481865284973,"fel_score":58},{"id":638,"name":"Line Debottleneck 0638","operator":"Pioneer Industries","sector":"chemicals","sector_label":"Chemicals","region":"north_america","region_label":"North America","project_type":"debottleneck","project_type_label":"Debottleneck","size_band":"mega","sanction_year":2015,"capex_estimate":1016.1,"capex_actual":1223.1,"cost_growth":0.20372010628875098,"schedule_slip":-0.004149377593361055,"fel_score":28},{"id":661,"name":"Line Debottleneck 0661","operator":"Harbor Industries","sector":"chemicals","sector_label":"Chemicals","region":"north_america","region_label":"North America","project_type":"debottleneck","project_type_label":"Debottleneck","size_band":"mega","sanction_year":2022,"capex_estimate":1137.6,"capex_actual":1350.4,"cost_growth":0.18706047819971888,"schedule_slip":0.1836734693877551,"fel_score":25},{"id":776,"name":"Line Debottleneck 0776","operator":"Pioneer Materials","sector":"chemicals","sector_label":"Chemicals","region":"asia_pacific","region_label":"Asia Pacific","project_type":"debottleneck","project_type_label":"Debottleneck","size_band":"large","sanction_year":2022,"capex_estimate":413.5,"capex_actual":452.9,"cost_growth":0.0952841596130592,"schedule_slip":0.03787878787878788,"fel_score":66}]}