{"count":78,"next":"http://testserver/api/projects/?ordering=name&page=2&project_type=debottleneck&sector=oil_gas","previous":null,"results":[{"id":429,"name":"Circuit Debottleneck 0429","operator":"Summit Materials","sector":"oil_gas","sector_label":"Oil & Gas","region":"north_america","region_label":"North America","project_type":"debottleneck","project_type_label":"Debottleneck","size_band":"mega","sanction_year":2020,"capex_estimate":1464.2,"capex_actual":1476.5,"cost_growth":0.008400491736101594,"schedule_slip":0.05341246290801178,"fel_score":94},{"id":505,"name":"Circuit Debottleneck 0505","operator":"Cascade Materials","sector":"oil_gas","sector_label":"Oil & Gas","region":"south_america","region_label":"South America","project_type":"debottleneck","project_type_label":"Debottleneck","size_band":"large","sanction_year":2015,"capex_estimate":100.0,"capex_actual":100.1,"cost_growth":0.0009999999999999432,"schedule_slip":-0.008403361344537785,"fel_score":81},{"id":506,"name":"Circuit Debottleneck 0506","operator":"Northgate Energy","sector":"oil_gas","sector_label":"Oil & Gas","region":"middle_east","region_label":"Middle East & Africa","project_type":"debottleneck","project_type_label":"Debottleneck","size_band":"large","sanction_year":2015,"capex_estimate":140.9,"capex_actual":155.7,"cost_growth":0.10503903477643707,"schedule_slip":-0.05479452054794513,"fel_score":69},{"id":531,"name":"Circuit Debottleneck 0531","operator":"Cascade Operations","sector":"oil_gas","sector_label":"Oil & Gas","region":"north_america","region_label":"North America","project_type":"debottleneck","project_type_label":"Debottleneck","size_band":"mega","sanction_year":2022,"capex_estimate":644.3,"capex_actual":710.6,"cost_growth":0.10290237467018482,"schedule_slip":0.07943925233644873,"fel_score":56},{"id":637,"name":"Circuit Debottleneck 0637","operator":"Cascade Industries","sector":"oil_gas","sector_label":"Oil & Gas","region":"europe","region_label":"Europe","project_type":"debottleneck","project_type_label":"Debottleneck","size_band":"large","sanction_year":2023,"capex_estimate":185.9,"capex_actual":199.0,"cost_growth":0.07046799354491659,"schedule_slip":0.03714285714285706,"fel_score":41},{"id":795,"name":"Circuit Debottleneck 0795","operator":"Harbor Industries","sector":"oil_gas","sector_label":"Oil & Gas","region":"north_america","region_label":"North America","project_type":"debottleneck","project_type_label":"Debottleneck","size_band":"mega","sanction_year":2024,"capex_estimate":589.7,"capex_actual":546.1,"cost_growth":-0.0739358996099712,"schedule_slip":0.015290519877675839,"fel_score":59},{"id":883,"name":"Circuit Debottleneck 0883","operator":"Cardinal Energy","sector":"oil_gas","sector_label":"Oil & Gas","region":"asia_pacific","region_label":"Asia Pacific","project_type":"debottleneck","project_type_label":"Debottleneck","size_band":"large","sanction_year":2022,"capex_estimate":141.0,"capex_actual":143.9,"cost_growth":0.020567375886524863,"schedule_slip":0.07006369426751602,"fel_score":44},{"id":902,"name":"Circuit Debottleneck 0902","operator":"Harbor Resources","sector":"oil_gas","sector_label":"Oil & Gas","region":"asia_pacific","region_label":"Asia Pacific","project_type":"debottleneck","project_type_label":"Debottleneck","size_band":"large","sanction_year":2019,"capex_estimate":435.2,"capex_actual":423.5,"cost_growth":-0.026884191176470562,"schedule_slip":0.0,"fel_score":80},{"id":921,"name":"Circuit Debottleneck 0921","operator":"Granite Energy","sector":"oil_gas","sector_label":"Oil & Gas","region":"north_america","region_label":"North America","project_type":"debottleneck","project_type_label":"Debottleneck","size_band":"large","sanction_year":2016,"capex_estimate":431.1,"capex_actual":476.3,"cost_growth":0.10484806309440962,"schedule_slip":0.1072961373390558,"fel_score":41},{"id":945,"name":"Circuit Debottleneck 0945","operator":"Harbor Operations","sector":"oil_gas","sector_label":"Oil & Gas","region":"asia_pacific","region_label":"Asia Pacific","project_type":"debottleneck","project_type_label":"Debottleneck","size_band":"mega","sanction_year":2022,"capex_estimate":920.8,"capex_actual":1023.1,"cost_growth":0.11109904430929635,"schedule_slip":0.03773584905660381,"fel_score":58},{"id":1175,"name":"Circuit Debottleneck 1175","operator":"Pioneer Energy","sector":"oil_gas","sector_label":"Oil & Gas","region":"north_america","region_label":"North America","project_type":"debottleneck","project_type_label":"Debottleneck","size_band":"mega","sanction_year":2018,"capex_estimate":676.0,"capex_actual":688.2,"cost_growth":0.018047337278106576,"schedule_slip":0.0705128205128205,"fel_score":56},{"id":1534,"name":"Circuit Debottleneck 1534","operator":"Granite Materials","sector":"oil_gas","sector_label":"Oil & Gas","region":"europe","region_label":"Europe","project_type":"debottleneck","project_type_label":"Debottleneck","size_band":"mega","sanction_year":2014,"capex_estimate":705.4,"capex_actual":864.6,"cost_growth":0.22568755316132696,"schedule_slip":0.08411214953271032,"fel_score":35},{"id":1629,"name":"Circuit Debottleneck 1629","operator":"Meridian Operations","sector":"oil_gas","sector_label":"Oil & Gas","region":"europe","region_label":"Europe","project_type":"debottleneck","project_type_label":"Debottleneck","size_band":"mega","sanction_year":2018,"capex_estimate":1285.6,"capex_actual":1390.9,"cost_growth":0.08190728064716879,"schedule_slip":0.09698996655518391,"fel_score":65},{"id":1632,"name":"Circuit Debottleneck 1632","operator":"Harbor Resources","sector":"oil_gas","sector_label":"Oil & Gas","region":"south_america","region_label":"South America","project_type":"debottleneck","project_type_label":"Debottleneck","size_band":"medium","sanction_year":2022,"capex_estimate":86.7,"capex_actual":99.8,"cost_growth":0.15109573241061122,"schedule_slip":-0.030612244897959252,"fel_score":59},{"id":1717,"name":"Circuit Debottleneck 1717","operator":"Meridian Industries","sector":"oil_gas","sector_label":"Oil & Gas","region":"europe","region_label":"Europe","project_type":"debottleneck","project_type_label":"Debottleneck","size_band":"mega","sanction_year":2024,"capex_estimate":513.3,"capex_actual":519.2,"cost_growth":0.011494252873563397,"schedule_slip":0.038647342995169115,"fel_score":66},{"id":1760,"name":"Circuit Debottleneck 1760","operator":"Pioneer Operations","sector":"oil_gas","sector_label":"Oil & Gas","region":"north_america","region_label":"North America","project_type":"debottleneck","project_type_label":"Debottleneck","size_band":"mega","sanction_year":2022,"capex_estimate":917.7,"capex_actual":948.1,"cost_growth":0.03312629399585919,"schedule_slip":-0.03765690376569032,"fel_score":81},{"id":1885,"name":"Circuit Debottleneck 1885","operator":"Cardinal Materials","sector":"oil_gas","sector_label":"Oil & Gas","region":"asia_pacific","region_label":"Asia Pacific","project_type":"debottleneck","project_type_label":"Debottleneck","size_band":"mega","sanction_year":2020,"capex_estimate":1210.4,"capex_actual":1343.8,"cost_growth":0.11021150033046914,"schedule_slip":0.06506849315068501,"fel_score":44},{"id":1904,"name":"Circuit Debottleneck 1904","operator":"Vanguard Materials","sector":"oil_gas","sector_label":"Oil & Gas","region":"middle_east","region_label":"Middle East & Africa","project_type":"debottleneck","project_type_label":"Debottleneck","size_band":"mega","sanction_year":2020,"capex_estimate":568.0,"capex_actual":559.2,"cost_growth":-0.015492957746478794,"schedule_slip":0.029411764705882425,"fel_score":69},{"id":86,"name":"Line Debottleneck 0086","operator":"Cascade Operations","sector":"oil_gas","sector_label":"Oil & Gas","region":"middle_east","region_label":"Middle East & Africa","project_type":"debottleneck","project_type_label":"Debottleneck","size_band":"large","sanction_year":2019,"capex_estimate":200.0,"capex_actual":204.8,"cost_growth":0.024000000000000056,"schedule_slip":0.09808612440191392,"fel_score":54},{"id":166,"name":"Line Debottleneck 0166","operator":"Pioneer Operations","sector":"oil_gas","sector_label":"Oil & Gas","region":"asia_pacific","region_label":"Asia Pacific","project_type":"debottleneck","project_type_label":"Debottleneck","size_band":"large","sanction_year":2023,"capex_estimate":395.5,"capex_actual":455.3,"cost_growth":0.15120101137800257,"schedule_slip":0.05698005698005698,"fel_score":34},{"id":182,"name":"Line Debottleneck 0182","operator":"Cardinal Materials","sector":"oil_gas","sector_label":"Oil & Gas","region":"europe","region_label":"Europe","project_type":"debottleneck","project_type_label":"Debottleneck","size_band":"mega","sanction_year":2014,"capex_estimate":696.9,"capex_actual":715.1,"cost_growth":0.026115655043765312,"schedule_slip":0.022831050228310504,"fel_score":66},{"id":276,"name":"Line Debottleneck 0276","operator":"Northgate Operations","sector":"oil_gas","sector_label":"Oil & Gas","region":"middle_east","region_label":"Middle East & Africa","project_type":"debottleneck","project_type_label":"Debottleneck","size_band":"mega","sanction_year":2017,"capex_estimate":678.1,"capex_actual":682.6,"cost_growth":0.006636189352602861,"schedule_slip":0.06190476190476194,"fel_score":85},{"id":380,"name":"Line Debottleneck 0380","operator":"Keystone Materials","sector":"oil_gas","sector_label":"Oil & Gas","region":"south_america","region_label":"South America","project_type":"debottleneck","project_type_label":"Debottleneck","size_band":"mega","sanction_year":2021,"capex_estimate":630.0,"capex_actual":620.0,"cost_growth":-0.015873015873015872,"schedule_slip":0.025974025974025997,"fel_score":56},{"id":415,"name":"Line Debottleneck 0415","operator":"Harbor Energy","sector":"oil_gas","sector_label":"Oil & Gas","region":"asia_pacific","region_label":"Asia Pacific","project_type":"debottleneck","project_type_label":"Debottleneck","size_band":"medium","sanction_year":2014,"capex_estimate":92.7,"capex_actual":104.7,"cost_growth":0.12944983818770225,"schedule_slip":0.1928571428571429,"fel_score":34},{"id":484,"name":"Line Debottleneck 0484","operator":"Granite Operations","sector":"oil_gas","sector_label":"Oil & Gas","region":"south_america","region_label":"South America","project_type":"debottleneck","project_type_label":"Debottleneck","size_band":"mega","sanction_year":2023,"capex_estimate":1180.3,"capex_actual":1278.9,"cost_growth":0.08353808353808366,"schedule_slip":0.05263157894736836,"fel_score":75}]}