{"count":46,"next":"http://testserver/api/projects/?ordering=name&page=2&project_type=debottleneck&sector=power","previous":null,"results":[{"id":35,"name":"Circuit Debottleneck 0035","operator":"Pioneer Operations","sector":"power","sector_label":"Power & Utilities","region":"south_america","region_label":"South America","project_type":"debottleneck","project_type_label":"Debottleneck","size_band":"large","sanction_year":2021,"capex_estimate":360.4,"capex_actual":381.3,"cost_growth":0.057991120976692664,"schedule_slip":0.012539184952978013,"fel_score":79},{"id":46,"name":"Circuit Debottleneck 0046","operator":"Cascade Materials","sector":"power","sector_label":"Power & Utilities","region":"north_america","region_label":"North America","project_type":"debottleneck","project_type_label":"Debottleneck","size_band":"mega","sanction_year":2023,"capex_estimate":1182.8,"capex_actual":1101.6,"cost_growth":-0.06865065945214749,"schedule_slip":0.008928571428571556,"fel_score":84},{"id":807,"name":"Circuit Debottleneck 0807","operator":"Cardinal Materials","sector":"power","sector_label":"Power & Utilities","region":"north_america","region_label":"North America","project_type":"debottleneck","project_type_label":"Debottleneck","size_band":"mega","sanction_year":2019,"capex_estimate":1170.2,"capex_actual":1002.3,"cost_growth":-0.1434797470517861,"schedule_slip":-0.08433734939759048,"fel_score":85},{"id":873,"name":"Circuit Debottleneck 0873","operator":"Vanguard Operations","sector":"power","sector_label":"Power & Utilities","region":"middle_east","region_label":"Middle East & Africa","project_type":"debottleneck","project_type_label":"Debottleneck","size_band":"mega","sanction_year":2015,"capex_estimate":829.3,"capex_actual":794.3,"cost_growth":-0.04220426866031593,"schedule_slip":-0.05759162303664928,"fel_score":66},{"id":941,"name":"Circuit Debottleneck 0941","operator":"Cascade Resources","sector":"power","sector_label":"Power & Utilities","region":"south_america","region_label":"South America","project_type":"debottleneck","project_type_label":"Debottleneck","size_band":"large","sanction_year":2016,"capex_estimate":354.5,"capex_actual":429.7,"cost_growth":0.21212976022566993,"schedule_slip":0.046948356807511735,"fel_score":66},{"id":1007,"name":"Circuit Debottleneck 1007","operator":"Harbor Industries","sector":"power","sector_label":"Power & Utilities","region":"south_america","region_label":"South America","project_type":"debottleneck","project_type_label":"Debottleneck","size_band":"large","sanction_year":2021,"capex_estimate":369.5,"capex_actual":401.1,"cost_growth":0.08552097428958058,"schedule_slip":0.0921787709497208,"fel_score":50},{"id":1076,"name":"Circuit Debottleneck 1076","operator":"Sterling Energy","sector":"power","sector_label":"Power & Utilities","region":"asia_pacific","region_label":"Asia Pacific","project_type":"debottleneck","project_type_label":"Debottleneck","size_band":"large","sanction_year":2024,"capex_estimate":200.0,"capex_actual":219.2,"cost_growth":0.09599999999999995,"schedule_slip":0.09593023255813966,"fel_score":50},{"id":1230,"name":"Circuit Debottleneck 1230","operator":"Pioneer Energy","sector":"power","sector_label":"Power & Utilities","region":"south_america","region_label":"South America","project_type":"debottleneck","project_type_label":"Debottleneck","size_band":"mega","sanction_year":2017,"capex_estimate":1168.5,"capex_actual":1304.4,"cost_growth":0.11630295250320932,"schedule_slip":0.09999999999999992,"fel_score":44},{"id":1543,"name":"Circuit Debottleneck 1543","operator":"Pioneer Resources","sector":"power","sector_label":"Power & Utilities","region":"europe","region_label":"Europe","project_type":"debottleneck","project_type_label":"Debottleneck","size_band":"mega","sanction_year":2020,"capex_estimate":507.2,"capex_actual":563.5,"cost_growth":0.11100157728706628,"schedule_slip":0.1266233766233767,"fel_score":52},{"id":1704,"name":"Circuit Debottleneck 1704","operator":"Cardinal Resources","sector":"power","sector_label":"Power & Utilities","region":"asia_pacific","region_label":"Asia Pacific","project_type":"debottleneck","project_type_label":"Debottleneck","size_band":"large","sanction_year":2022,"capex_estimate":132.2,"capex_actual":159.8,"cost_growth":0.20877458396369156,"schedule_slip":0.1596091205211727,"fel_score":44},{"id":248,"name":"Line Debottleneck 0248","operator":"Granite Materials","sector":"power","sector_label":"Power & Utilities","region":"europe","region_label":"Europe","project_type":"debottleneck","project_type_label":"Debottleneck","size_band":"mega","sanction_year":2023,"capex_estimate":964.5,"capex_actual":1095.5,"cost_growth":0.13582166925868325,"schedule_slip":0.16438356164383564,"fel_score":25},{"id":268,"name":"Line Debottleneck 0268","operator":"Northgate Industries","sector":"power","sector_label":"Power & Utilities","region":"europe","region_label":"Europe","project_type":"debottleneck","project_type_label":"Debottleneck","size_band":"large","sanction_year":2020,"capex_estimate":436.8,"capex_actual":453.8,"cost_growth":0.03891941391941392,"schedule_slip":-0.04545454545454549,"fel_score":69},{"id":575,"name":"Line Debottleneck 0575","operator":"Cascade Operations","sector":"power","sector_label":"Power & Utilities","region":"asia_pacific","region_label":"Asia Pacific","project_type":"debottleneck","project_type_label":"Debottleneck","size_band":"large","sanction_year":2015,"capex_estimate":251.4,"capex_actual":223.6,"cost_growth":-0.11058074781225144,"schedule_slip":-0.09811320754716986,"fel_score":94},{"id":622,"name":"Line Debottleneck 0622","operator":"Meridian Industries","sector":"power","sector_label":"Power & Utilities","region":"europe","region_label":"Europe","project_type":"debottleneck","project_type_label":"Debottleneck","size_band":"large","sanction_year":2022,"capex_estimate":424.0,"capex_actual":476.0,"cost_growth":0.12264150943396226,"schedule_slip":0.10465116279069772,"fel_score":35},{"id":738,"name":"Line Debottleneck 0738","operator":"Granite Energy","sector":"power","sector_label":"Power & Utilities","region":"middle_east","region_label":"Middle East & Africa","project_type":"debottleneck","project_type_label":"Debottleneck","size_band":"mega","sanction_year":2024,"capex_estimate":725.4,"capex_actual":793.6,"cost_growth":0.09401709401709409,"schedule_slip":0.0,"fel_score":56},{"id":1037,"name":"Line Debottleneck 1037","operator":"Cascade Energy","sector":"power","sector_label":"Power & Utilities","region":"middle_east","region_label":"Middle East & Africa","project_type":"debottleneck","project_type_label":"Debottleneck","size_band":"large","sanction_year":2021,"capex_estimate":192.9,"capex_actual":200.3,"cost_growth":0.03836184551581133,"schedule_slip":0.08749999999999991,"fel_score":68},{"id":1249,"name":"Line Debottleneck 1249","operator":"Cardinal Materials","sector":"power","sector_label":"Power & Utilities","region":"asia_pacific","region_label":"Asia Pacific","project_type":"debottleneck","project_type_label":"Debottleneck","size_band":"large","sanction_year":2022,"capex_estimate":199.1,"capex_actual":230.4,"cost_growth":0.15720743345052743,"schedule_slip":0.037433155080213866,"fel_score":50},{"id":1299,"name":"Line Debottleneck 1299","operator":"Atlas Industries","sector":"power","sector_label":"Power & Utilities","region":"middle_east","region_label":"Middle East & Africa","project_type":"debottleneck","project_type_label":"Debottleneck","size_band":"mega","sanction_year":2018,"capex_estimate":918.6,"capex_actual":1020.4,"cost_growth":0.11082081428260392,"schedule_slip":0.12128712871287126,"fel_score":44},{"id":1420,"name":"Line Debottleneck 1420","operator":"Keystone Operations","sector":"power","sector_label":"Power & Utilities","region":"south_america","region_label":"South America","project_type":"debottleneck","project_type_label":"Debottleneck","size_band":"mega","sanction_year":2023,"capex_estimate":1932.9,"capex_actual":2373.6,"cost_growth":0.22799937917119345,"schedule_slip":0.08403361344537814,"fel_score":48},{"id":1578,"name":"Line Debottleneck 1578","operator":"Meridian Energy","sector":"power","sector_label":"Power & Utilities","region":"europe","region_label":"Europe","project_type":"debottleneck","project_type_label":"Debottleneck","size_band":"mega","sanction_year":2022,"capex_estimate":560.9,"capex_actual":676.1,"cost_growth":0.20538420395792487,"schedule_slip":0.08372093023255817,"fel_score":35},{"id":1788,"name":"Line Debottleneck 1788","operator":"Cardinal Resources","sector":"power","sector_label":"Power & Utilities","region":"south_america","region_label":"South America","project_type":"debottleneck","project_type_label":"Debottleneck","size_band":"mega","sanction_year":2020,"capex_estimate":716.0,"capex_actual":777.8,"cost_growth":0.08631284916201111,"schedule_slip":0.013698630136986375,"fel_score":66},{"id":72,"name":"Throughput Debottleneck 0072","operator":"Granite Operations","sector":"power","sector_label":"Power & Utilities","region":"asia_pacific","region_label":"Asia Pacific","project_type":"debottleneck","project_type_label":"Debottleneck","size_band":"mega","sanction_year":2019,"capex_estimate":1481.4,"capex_actual":1387.8,"cost_growth":-0.0631834750911301,"schedule_slip":0.027874564459930338,"fel_score":84},{"id":228,"name":"Throughput Debottleneck 0228","operator":"Cascade Energy","sector":"power","sector_label":"Power & Utilities","region":"south_america","region_label":"South America","project_type":"debottleneck","project_type_label":"Debottleneck","size_band":"mega","sanction_year":2023,"capex_estimate":1185.9,"capex_actual":1293.3,"cost_growth":0.09056412850999229,"schedule_slip":0.05639097744360902,"fel_score":56},{"id":444,"name":"Throughput Debottleneck 0444","operator":"Sterling Operations","sector":"power","sector_label":"Power & Utilities","region":"europe","region_label":"Europe","project_type":"debottleneck","project_type_label":"Debottleneck","size_band":"large","sanction_year":2020,"capex_estimate":289.7,"capex_actual":280.2,"cost_growth":-0.032792544011045914,"schedule_slip":0.043771043771043794,"fel_score":75},{"id":466,"name":"Throughput Debottleneck 0466","operator":"Sterling Operations","sector":"power","sector_label":"Power & Utilities","region":"asia_pacific","region_label":"Asia Pacific","project_type":"debottleneck","project_type_label":"Debottleneck","size_band":"mega","sanction_year":2019,"capex_estimate":1119.3,"capex_actual":1127.9,"cost_growth":0.007683373537032196,"schedule_slip":-0.021367521367521368,"fel_score":75}]}