{"count":57,"next":"http://testserver/api/projects/?ordering=name&page=2&project_type=asset_replacement&sector=pulp_paper","previous":null,"results":[{"id":305,"name":"Boiler Asset 0305","operator":"Cardinal Materials","sector":"pulp_paper","sector_label":"Pulp & Paper","region":"north_america","region_label":"North America","project_type":"asset_replacement","project_type_label":"Asset Replacement","size_band":"mega","sanction_year":2017,"capex_estimate":619.5,"capex_actual":595.8,"cost_growth":-0.03825665859564172,"schedule_slip":0.03535353535353532,"fel_score":85},{"id":819,"name":"Boiler Asset 0819","operator":"Cascade Energy","sector":"pulp_paper","sector_label":"Pulp & Paper","region":"asia_pacific","region_label":"Asia Pacific","project_type":"asset_replacement","project_type_label":"Asset Replacement","size_band":"large","sanction_year":2015,"capex_estimate":111.3,"capex_actual":108.5,"cost_growth":-0.02515723270440249,"schedule_slip":0.03333333333333341,"fel_score":50},{"id":880,"name":"Boiler Asset 0880","operator":"Keystone Energy","sector":"pulp_paper","sector_label":"Pulp & Paper","region":"south_america","region_label":"South America","project_type":"asset_replacement","project_type_label":"Asset Replacement","size_band":"mega","sanction_year":2023,"capex_estimate":564.9,"capex_actual":574.3,"cost_growth":0.01664011329438835,"schedule_slip":0.10548523206751055,"fel_score":40},{"id":1004,"name":"Boiler Asset 1004","operator":"Northgate Materials","sector":"pulp_paper","sector_label":"Pulp & Paper","region":"europe","region_label":"Europe","project_type":"asset_replacement","project_type_label":"Asset Replacement","size_band":"mega","sanction_year":2020,"capex_estimate":672.0,"capex_actual":648.8,"cost_growth":-0.03452380952380959,"schedule_slip":0.0344827586206897,"fel_score":94},{"id":1202,"name":"Boiler Asset 1202","operator":"Keystone Energy","sector":"pulp_paper","sector_label":"Pulp & Paper","region":"middle_east","region_label":"Middle East & Africa","project_type":"asset_replacement","project_type_label":"Asset Replacement","size_band":"large","sanction_year":2015,"capex_estimate":164.4,"capex_actual":181.2,"cost_growth":0.1021897810218977,"schedule_slip":0.04545454545454557,"fel_score":50},{"id":1443,"name":"Boiler Asset 1443","operator":"Atlas Operations","sector":"pulp_paper","sector_label":"Pulp & Paper","region":"europe","region_label":"Europe","project_type":"asset_replacement","project_type_label":"Asset Replacement","size_band":"large","sanction_year":2022,"capex_estimate":276.9,"capex_actual":294.1,"cost_growth":0.06211628746840031,"schedule_slip":-0.03409090909090917,"fel_score":65},{"id":1806,"name":"Boiler Asset 1806","operator":"Harbor Resources","sector":"pulp_paper","sector_label":"Pulp & Paper","region":"middle_east","region_label":"Middle East & Africa","project_type":"asset_replacement","project_type_label":"Asset Replacement","size_band":"medium","sanction_year":2018,"capex_estimate":93.0,"capex_actual":106.7,"cost_growth":0.14731182795698927,"schedule_slip":0.03278688524590167,"fel_score":30},{"id":1994,"name":"Boiler Asset 1994","operator":"Atlas Materials","sector":"pulp_paper","sector_label":"Pulp & Paper","region":"north_america","region_label":"North America","project_type":"asset_replacement","project_type_label":"Asset Replacement","size_band":"large","sanction_year":2018,"capex_estimate":179.3,"capex_actual":205.8,"cost_growth":0.1477969882877858,"schedule_slip":0.16080402010050265,"fel_score":31},{"id":49,"name":"Compressor Asset 0049","operator":"Summit Operations","sector":"pulp_paper","sector_label":"Pulp & Paper","region":"europe","region_label":"Europe","project_type":"asset_replacement","project_type_label":"Asset Replacement","size_band":"mega","sanction_year":2024,"capex_estimate":516.8,"capex_actual":565.7,"cost_growth":0.09462074303405592,"schedule_slip":0.09290953545232285,"fel_score":66},{"id":115,"name":"Compressor Asset 0115","operator":"Meridian Resources","sector":"pulp_paper","sector_label":"Pulp & Paper","region":"north_america","region_label":"North America","project_type":"asset_replacement","project_type_label":"Asset Replacement","size_band":"mega","sanction_year":2023,"capex_estimate":570.6,"capex_actual":636.4,"cost_growth":0.11531720995443384,"schedule_slip":0.10133333333333326,"fel_score":50},{"id":219,"name":"Compressor Asset 0219","operator":"Summit Energy","sector":"pulp_paper","sector_label":"Pulp & Paper","region":"europe","region_label":"Europe","project_type":"asset_replacement","project_type_label":"Asset Replacement","size_band":"large","sanction_year":2024,"capex_estimate":386.5,"capex_actual":429.3,"cost_growth":0.11073738680465721,"schedule_slip":0.21298701298701306,"fel_score":25},{"id":318,"name":"Compressor Asset 0318","operator":"Sterling Materials","sector":"pulp_paper","sector_label":"Pulp & Paper","region":"europe","region_label":"Europe","project_type":"asset_replacement","project_type_label":"Asset Replacement","size_band":"medium","sanction_year":2020,"capex_estimate":72.3,"capex_actual":85.1,"cost_growth":0.1770401106500691,"schedule_slip":0.22950819672131154,"fel_score":0},{"id":467,"name":"Compressor Asset 0467","operator":"Granite Operations","sector":"pulp_paper","sector_label":"Pulp & Paper","region":"middle_east","region_label":"Middle East & Africa","project_type":"asset_replacement","project_type_label":"Asset Replacement","size_band":"large","sanction_year":2016,"capex_estimate":408.6,"capex_actual":430.4,"cost_growth":0.05335291238374927,"schedule_slip":0.06916426512968295,"fel_score":50},{"id":473,"name":"Compressor Asset 0473","operator":"Summit Materials","sector":"pulp_paper","sector_label":"Pulp & Paper","region":"south_america","region_label":"South America","project_type":"asset_replacement","project_type_label":"Asset Replacement","size_band":"mega","sanction_year":2015,"capex_estimate":711.6,"capex_actual":706.5,"cost_growth":-0.007166947723440167,"schedule_slip":0.07391304347826085,"fel_score":70},{"id":519,"name":"Compressor Asset 0519","operator":"Meridian Industries","sector":"pulp_paper","sector_label":"Pulp & Paper","region":"asia_pacific","region_label":"Asia Pacific","project_type":"asset_replacement","project_type_label":"Asset Replacement","size_band":"large","sanction_year":2022,"capex_estimate":239.0,"capex_actual":258.4,"cost_growth":0.08117154811715471,"schedule_slip":-0.073482428115016,"fel_score":41},{"id":728,"name":"Compressor Asset 0728","operator":"Pioneer Materials","sector":"pulp_paper","sector_label":"Pulp & Paper","region":"europe","region_label":"Europe","project_type":"asset_replacement","project_type_label":"Asset Replacement","size_band":"large","sanction_year":2014,"capex_estimate":242.5,"capex_actual":261.1,"cost_growth":0.07670103092783515,"schedule_slip":0.08333333333333344,"fel_score":38},{"id":831,"name":"Compressor Asset 0831","operator":"Sterling Resources","sector":"pulp_paper","sector_label":"Pulp & Paper","region":"asia_pacific","region_label":"Asia Pacific","project_type":"asset_replacement","project_type_label":"Asset Replacement","size_band":"medium","sanction_year":2017,"capex_estimate":73.3,"capex_actual":75.0,"cost_growth":0.023192360163710818,"schedule_slip":0.057057057057057235,"fel_score":76},{"id":911,"name":"Compressor Asset 0911","operator":"Pioneer Resources","sector":"pulp_paper","sector_label":"Pulp & Paper","region":"south_america","region_label":"South America","project_type":"asset_replacement","project_type_label":"Asset Replacement","size_band":"large","sanction_year":2020,"capex_estimate":132.3,"capex_actual":145.9,"cost_growth":0.1027966742252456,"schedule_slip":0.12367491166077738,"fel_score":41},{"id":962,"name":"Compressor Asset 0962","operator":"Pioneer Industries","sector":"pulp_paper","sector_label":"Pulp & Paper","region":"asia_pacific","region_label":"Asia Pacific","project_type":"asset_replacement","project_type_label":"Asset Replacement","size_band":"mega","sanction_year":2023,"capex_estimate":642.5,"capex_actual":682.5,"cost_growth":0.0622568093385214,"schedule_slip":0.07902735562310036,"fel_score":60},{"id":967,"name":"Compressor Asset 0967","operator":"Summit Energy","sector":"pulp_paper","sector_label":"Pulp & Paper","region":"north_america","region_label":"North America","project_type":"asset_replacement","project_type_label":"Asset Replacement","size_band":"medium","sanction_year":2014,"capex_estimate":83.4,"capex_actual":75.5,"cost_growth":-0.09472422062350126,"schedule_slip":0.052631578947368474,"fel_score":85},{"id":1067,"name":"Compressor Asset 1067","operator":"Northgate Industries","sector":"pulp_paper","sector_label":"Pulp & Paper","region":"south_america","region_label":"South America","project_type":"asset_replacement","project_type_label":"Asset Replacement","size_band":"medium","sanction_year":2018,"capex_estimate":81.0,"capex_actual":88.6,"cost_growth":0.0938271604938271,"schedule_slip":-0.03767123287671226,"fel_score":75},{"id":1421,"name":"Compressor Asset 1421","operator":"Northgate Industries","sector":"pulp_paper","sector_label":"Pulp & Paper","region":"middle_east","region_label":"Middle East & Africa","project_type":"asset_replacement","project_type_label":"Asset Replacement","size_band":"large","sanction_year":2015,"capex_estimate":124.0,"capex_actual":141.9,"cost_growth":0.14435483870967747,"schedule_slip":0.08737864077669888,"fel_score":75},{"id":1466,"name":"Compressor Asset 1466","operator":"Cardinal Materials","sector":"pulp_paper","sector_label":"Pulp & Paper","region":"europe","region_label":"Europe","project_type":"asset_replacement","project_type_label":"Asset Replacement","size_band":"large","sanction_year":2015,"capex_estimate":393.8,"capex_actual":468.2,"cost_growth":0.1889283900457084,"schedule_slip":0.0954907161803712,"fel_score":10},{"id":1478,"name":"Compressor Asset 1478","operator":"Keystone Energy","sector":"pulp_paper","sector_label":"Pulp & Paper","region":"middle_east","region_label":"Middle East & Africa","project_type":"asset_replacement","project_type_label":"Asset Replacement","size_band":"large","sanction_year":2018,"capex_estimate":192.8,"capex_actual":194.6,"cost_growth":0.009336099585062152,"schedule_slip":-0.05502392344497601,"fel_score":75},{"id":1537,"name":"Compressor Asset 1537","operator":"Cardinal Resources","sector":"pulp_paper","sector_label":"Pulp & Paper","region":"middle_east","region_label":"Middle East & Africa","project_type":"asset_replacement","project_type_label":"Asset Replacement","size_band":"mega","sanction_year":2017,"capex_estimate":770.1,"capex_actual":826.9,"cost_growth":0.07375665497987269,"schedule_slip":0.06034482758620694,"fel_score":50}]}