{"count":125,"next":"http://testserver/api/projects/?ordering=name&page=2&project_type=compliance&sector=mining","previous":null,"results":[{"id":70,"name":"Containment EH&S 0070","operator":"Granite Industries","sector":"mining","sector_label":"Mining & Metals","region":"north_america","region_label":"North America","project_type":"compliance","project_type_label":"EH&S / Compliance","size_band":"large","sanction_year":2019,"capex_estimate":347.3,"capex_actual":349.0,"cost_growth":0.0048949035416066475,"schedule_slip":0.07954545454545446,"fel_score":59},{"id":227,"name":"Containment EH&S 0227","operator":"Cascade Energy","sector":"mining","sector_label":"Mining & Metals","region":"middle_east","region_label":"Middle East & Africa","project_type":"compliance","project_type_label":"EH&S / Compliance","size_band":"mega","sanction_year":2019,"capex_estimate":522.3,"capex_actual":543.5,"cost_growth":0.04058969940647147,"schedule_slip":0.09316770186335403,"fel_score":74},{"id":270,"name":"Containment EH&S 0270","operator":"Cascade Materials","sector":"mining","sector_label":"Mining & Metals","region":"middle_east","region_label":"Middle East & Africa","project_type":"compliance","project_type_label":"EH&S / Compliance","size_band":"mega","sanction_year":2021,"capex_estimate":573.9,"capex_actual":579.6,"cost_growth":0.009932043910088945,"schedule_slip":0.09003215434083592,"fel_score":60},{"id":317,"name":"Containment EH&S 0317","operator":"Keystone Materials","sector":"mining","sector_label":"Mining & Metals","region":"middle_east","region_label":"Middle East & Africa","project_type":"compliance","project_type_label":"EH&S / Compliance","size_band":"large","sanction_year":2023,"capex_estimate":454.1,"capex_actual":477.4,"cost_growth":0.051310284078396724,"schedule_slip":0.16161616161616157,"fel_score":34},{"id":336,"name":"Containment EH&S 0336","operator":"Summit Resources","sector":"mining","sector_label":"Mining & Metals","region":"middle_east","region_label":"Middle East & Africa","project_type":"compliance","project_type_label":"EH&S / Compliance","size_band":"medium","sanction_year":2021,"capex_estimate":87.6,"capex_actual":99.7,"cost_growth":0.13812785388127866,"schedule_slip":-0.06278026905829606,"fel_score":60},{"id":367,"name":"Containment EH&S 0367","operator":"Granite Industries","sector":"mining","sector_label":"Mining & Metals","region":"south_america","region_label":"South America","project_type":"compliance","project_type_label":"EH&S / Compliance","size_band":"large","sanction_year":2018,"capex_estimate":262.0,"capex_actual":286.7,"cost_growth":0.0942748091603053,"schedule_slip":-0.0410958904109589,"fel_score":81},{"id":561,"name":"Containment EH&S 0561","operator":"Meridian Industries","sector":"mining","sector_label":"Mining & Metals","region":"middle_east","region_label":"Middle East & Africa","project_type":"compliance","project_type_label":"EH&S / Compliance","size_band":"medium","sanction_year":2017,"capex_estimate":31.8,"capex_actual":30.3,"cost_growth":-0.04716981132075471,"schedule_slip":0.1030534351145038,"fel_score":30},{"id":655,"name":"Containment EH&S 0655","operator":"Cascade Energy","sector":"mining","sector_label":"Mining & Metals","region":"asia_pacific","region_label":"Asia Pacific","project_type":"compliance","project_type_label":"EH&S / Compliance","size_band":"large","sanction_year":2023,"capex_estimate":124.7,"capex_actual":126.3,"cost_growth":0.01283079390537285,"schedule_slip":0.12582781456953646,"fel_score":65},{"id":714,"name":"Containment EH&S 0714","operator":"Sterling Resources","sector":"mining","sector_label":"Mining & Metals","region":"asia_pacific","region_label":"Asia Pacific","project_type":"compliance","project_type_label":"EH&S / Compliance","size_band":"large","sanction_year":2020,"capex_estimate":161.8,"capex_actual":185.7,"cost_growth":0.14771322620519145,"schedule_slip":0.21428571428571438,"fel_score":35},{"id":806,"name":"Containment EH&S 0806","operator":"Keystone Operations","sector":"mining","sector_label":"Mining & Metals","region":"europe","region_label":"Europe","project_type":"compliance","project_type_label":"EH&S / Compliance","size_band":"mega","sanction_year":2020,"capex_estimate":756.3,"capex_actual":803.9,"cost_growth":0.06293798757106972,"schedule_slip":-0.015936254980079764,"fel_score":56},{"id":866,"name":"Containment EH&S 0866","operator":"Meridian Materials","sector":"mining","sector_label":"Mining & Metals","region":"asia_pacific","region_label":"Asia Pacific","project_type":"compliance","project_type_label":"EH&S / Compliance","size_band":"large","sanction_year":2015,"capex_estimate":376.0,"capex_actual":454.2,"cost_growth":0.2079787234042553,"schedule_slip":0.08830548926014327,"fel_score":25},{"id":867,"name":"Containment EH&S 0867","operator":"Cardinal Energy","sector":"mining","sector_label":"Mining & Metals","region":"asia_pacific","region_label":"Asia Pacific","project_type":"compliance","project_type_label":"EH&S / Compliance","size_band":"mega","sanction_year":2023,"capex_estimate":1264.2,"capex_actual":1608.9,"cost_growth":0.2726625533934504,"schedule_slip":0.17500000000000004,"fel_score":16},{"id":928,"name":"Containment EH&S 0928","operator":"Sterling Operations","sector":"mining","sector_label":"Mining & Metals","region":"north_america","region_label":"North America","project_type":"compliance","project_type_label":"EH&S / Compliance","size_band":"large","sanction_year":2019,"capex_estimate":499.2,"capex_actual":574.6,"cost_growth":0.15104166666666674,"schedule_slip":0.1881188118811881,"fel_score":25},{"id":1016,"name":"Containment EH&S 1016","operator":"Keystone Industries","sector":"mining","sector_label":"Mining & Metals","region":"north_america","region_label":"North America","project_type":"compliance","project_type_label":"EH&S / Compliance","size_band":"mega","sanction_year":2014,"capex_estimate":538.9,"capex_actual":535.8,"cost_growth":-0.005752458712191544,"schedule_slip":0.019230769230769162,"fel_score":65},{"id":1044,"name":"Containment EH&S 1044","operator":"Sterling Resources","sector":"mining","sector_label":"Mining & Metals","region":"europe","region_label":"Europe","project_type":"compliance","project_type_label":"EH&S / Compliance","size_band":"large","sanction_year":2017,"capex_estimate":143.5,"capex_actual":132.0,"cost_growth":-0.08013937282229965,"schedule_slip":0.13953488372093018,"fel_score":66},{"id":1198,"name":"Containment EH&S 1198","operator":"Cardinal Materials","sector":"mining","sector_label":"Mining & Metals","region":"middle_east","region_label":"Middle East & Africa","project_type":"compliance","project_type_label":"EH&S / Compliance","size_band":"mega","sanction_year":2017,"capex_estimate":1424.7,"capex_actual":1553.7,"cost_growth":0.09054537797431038,"schedule_slip":0.128140703517588,"fel_score":50},{"id":1213,"name":"Containment EH&S 1213","operator":"Keystone Resources","sector":"mining","sector_label":"Mining & Metals","region":"north_america","region_label":"North America","project_type":"compliance","project_type_label":"EH&S / Compliance","size_band":"large","sanction_year":2023,"capex_estimate":273.4,"capex_actual":268.1,"cost_growth":-0.019385515727871085,"schedule_slip":-0.04494382022471914,"fel_score":91},{"id":1247,"name":"Containment EH&S 1247","operator":"Cardinal Resources","sector":"mining","sector_label":"Mining & Metals","region":"south_america","region_label":"South America","project_type":"compliance","project_type_label":"EH&S / Compliance","size_band":"large","sanction_year":2014,"capex_estimate":415.0,"capex_actual":445.1,"cost_growth":0.07253012048192777,"schedule_slip":0.20408163265306123,"fel_score":46},{"id":1329,"name":"Containment EH&S 1329","operator":"Pioneer Operations","sector":"mining","sector_label":"Mining & Metals","region":"south_america","region_label":"South America","project_type":"compliance","project_type_label":"EH&S / Compliance","size_band":"mega","sanction_year":2024,"capex_estimate":540.7,"capex_actual":547.6,"cost_growth":0.012761235435546471,"schedule_slip":-0.0718954248366014,"fel_score":81},{"id":1354,"name":"Containment EH&S 1354","operator":"Keystone Operations","sector":"mining","sector_label":"Mining & Metals","region":"middle_east","region_label":"Middle East & Africa","project_type":"compliance","project_type_label":"EH&S / Compliance","size_band":"mega","sanction_year":2019,"capex_estimate":856.5,"capex_actual":883.2,"cost_growth":0.031173380035026323,"schedule_slip":-0.034285714285714364,"fel_score":91},{"id":1373,"name":"Containment EH&S 1373","operator":"Vanguard Industries","sector":"mining","sector_label":"Mining & Metals","region":"south_america","region_label":"South America","project_type":"compliance","project_type_label":"EH&S / Compliance","size_band":"mega","sanction_year":2016,"capex_estimate":1003.3,"capex_actual":1061.3,"cost_growth":0.05780922954250972,"schedule_slip":0.1374045801526719,"fel_score":40},{"id":1380,"name":"Containment EH&S 1380","operator":"Cardinal Materials","sector":"mining","sector_label":"Mining & Metals","region":"middle_east","region_label":"Middle East & Africa","project_type":"compliance","project_type_label":"EH&S / Compliance","size_band":"large","sanction_year":2017,"capex_estimate":262.8,"capex_actual":299.5,"cost_growth":0.1396499238964992,"schedule_slip":0.11538461538461546,"fel_score":41},{"id":1548,"name":"Containment EH&S 1548","operator":"Granite Resources","sector":"mining","sector_label":"Mining & Metals","region":"south_america","region_label":"South America","project_type":"compliance","project_type_label":"EH&S / Compliance","size_band":"medium","sanction_year":2022,"capex_estimate":75.4,"capex_actual":74.2,"cost_growth":-0.015915119363395264,"schedule_slip":-0.04000000000000002,"fel_score":76},{"id":1589,"name":"Containment EH&S 1589","operator":"Granite Energy","sector":"mining","sector_label":"Mining & Metals","region":"middle_east","region_label":"Middle East & Africa","project_type":"compliance","project_type_label":"EH&S / Compliance","size_band":"mega","sanction_year":2023,"capex_estimate":810.9,"capex_actual":882.7,"cost_growth":0.08854359353804424,"schedule_slip":-0.017241379310344664,"fel_score":65},{"id":1590,"name":"Containment EH&S 1590","operator":"Meridian Resources","sector":"mining","sector_label":"Mining & Metals","region":"europe","region_label":"Europe","project_type":"compliance","project_type_label":"EH&S / Compliance","size_band":"large","sanction_year":2021,"capex_estimate":341.9,"capex_actual":381.1,"cost_growth":0.11465340742907297,"schedule_slip":0.18279569892473124,"fel_score":25}]}