{"count":40,"next":"http://testserver/api/projects/?ordering=name&page=2&project_type=infrastructure&sector=pulp_paper","previous":null,"results":[{"id":76,"name":"Access Road Infrastructure 0076","operator":"Cascade Energy","sector":"pulp_paper","sector_label":"Pulp & Paper","region":"europe","region_label":"Europe","project_type":"infrastructure","project_type_label":"Infrastructure","size_band":"large","sanction_year":2021,"capex_estimate":466.1,"capex_actual":452.7,"cost_growth":-0.028749195451619896,"schedule_slip":0.047120418848167464,"fel_score":75},{"id":175,"name":"Access Road Infrastructure 0175","operator":"Cardinal Resources","sector":"pulp_paper","sector_label":"Pulp & Paper","region":"middle_east","region_label":"Middle East & Africa","project_type":"infrastructure","project_type_label":"Infrastructure","size_band":"mega","sanction_year":2024,"capex_estimate":538.2,"capex_actual":619.8,"cost_growth":0.1516164994425862,"schedule_slip":0.07368421052631571,"fel_score":31},{"id":334,"name":"Access Road Infrastructure 0334","operator":"Northgate Operations","sector":"pulp_paper","sector_label":"Pulp & Paper","region":"europe","region_label":"Europe","project_type":"infrastructure","project_type_label":"Infrastructure","size_band":"medium","sanction_year":2014,"capex_estimate":63.8,"capex_actual":69.9,"cost_growth":0.09561128526645782,"schedule_slip":0.03076923076923077,"fel_score":100},{"id":468,"name":"Access Road Infrastructure 0468","operator":"Granite Energy","sector":"pulp_paper","sector_label":"Pulp & Paper","region":"middle_east","region_label":"Middle East & Africa","project_type":"infrastructure","project_type_label":"Infrastructure","size_band":"medium","sanction_year":2024,"capex_estimate":90.2,"capex_actual":102.5,"cost_growth":0.13636363636363633,"schedule_slip":0.15324675324675321,"fel_score":65},{"id":471,"name":"Access Road Infrastructure 0471","operator":"Cascade Operations","sector":"pulp_paper","sector_label":"Pulp & Paper","region":"south_america","region_label":"South America","project_type":"infrastructure","project_type_label":"Infrastructure","size_band":"large","sanction_year":2016,"capex_estimate":440.1,"capex_actual":508.6,"cost_growth":0.15564644399000227,"schedule_slip":0.17704918032786882,"fel_score":16},{"id":510,"name":"Access Road Infrastructure 0510","operator":"Cascade Energy","sector":"pulp_paper","sector_label":"Pulp & Paper","region":"europe","region_label":"Europe","project_type":"infrastructure","project_type_label":"Infrastructure","size_band":"large","sanction_year":2016,"capex_estimate":450.3,"capex_actual":433.8,"cost_growth":-0.03664223850766156,"schedule_slip":-0.04918032786885243,"fel_score":100},{"id":701,"name":"Access Road Infrastructure 0701","operator":"Harbor Operations","sector":"pulp_paper","sector_label":"Pulp & Paper","region":"north_america","region_label":"North America","project_type":"infrastructure","project_type_label":"Infrastructure","size_band":"large","sanction_year":2014,"capex_estimate":299.9,"capex_actual":326.0,"cost_growth":0.08702900966989005,"schedule_slip":0.023622047244094547,"fel_score":65},{"id":1229,"name":"Access Road Infrastructure 1229","operator":"Keystone Resources","sector":"pulp_paper","sector_label":"Pulp & Paper","region":"middle_east","region_label":"Middle East & Africa","project_type":"infrastructure","project_type_label":"Infrastructure","size_band":"medium","sanction_year":2024,"capex_estimate":69.0,"capex_actual":73.2,"cost_growth":0.06086956521739135,"schedule_slip":0.14159292035398227,"fel_score":56},{"id":1284,"name":"Access Road Infrastructure 1284","operator":"Atlas Industries","sector":"pulp_paper","sector_label":"Pulp & Paper","region":"south_america","region_label":"South America","project_type":"infrastructure","project_type_label":"Infrastructure","size_band":"large","sanction_year":2017,"capex_estimate":134.8,"capex_actual":147.4,"cost_growth":0.09347181008902072,"schedule_slip":0.06896551724137948,"fel_score":41},{"id":1302,"name":"Access Road Infrastructure 1302","operator":"Northgate Materials","sector":"pulp_paper","sector_label":"Pulp & Paper","region":"north_america","region_label":"North America","project_type":"infrastructure","project_type_label":"Infrastructure","size_band":"large","sanction_year":2023,"capex_estimate":129.4,"capex_actual":148.8,"cost_growth":0.14992272024729525,"schedule_slip":0.08599508599508598,"fel_score":59},{"id":1483,"name":"Access Road Infrastructure 1483","operator":"Harbor Materials","sector":"pulp_paper","sector_label":"Pulp & Paper","region":"europe","region_label":"Europe","project_type":"infrastructure","project_type_label":"Infrastructure","size_band":"large","sanction_year":2022,"capex_estimate":263.7,"capex_actual":249.6,"cost_growth":-0.05346985210466437,"schedule_slip":-0.06806282722513092,"fel_score":100},{"id":1646,"name":"Access Road Infrastructure 1646","operator":"Summit Resources","sector":"pulp_paper","sector_label":"Pulp & Paper","region":"europe","region_label":"Europe","project_type":"infrastructure","project_type_label":"Infrastructure","size_band":"large","sanction_year":2019,"capex_estimate":328.1,"capex_actual":313.5,"cost_growth":-0.04449862846693088,"schedule_slip":0.03396226415094334,"fel_score":91},{"id":1678,"name":"Access Road Infrastructure 1678","operator":"Vanguard Materials","sector":"pulp_paper","sector_label":"Pulp & Paper","region":"middle_east","region_label":"Middle East & Africa","project_type":"infrastructure","project_type_label":"Infrastructure","size_band":"medium","sanction_year":2018,"capex_estimate":95.1,"capex_actual":100.6,"cost_growth":0.05783385909568875,"schedule_slip":0.07317073170731725,"fel_score":35},{"id":1750,"name":"Access Road Infrastructure 1750","operator":"Pioneer Resources","sector":"pulp_paper","sector_label":"Pulp & Paper","region":"europe","region_label":"Europe","project_type":"infrastructure","project_type_label":"Infrastructure","size_band":"large","sanction_year":2019,"capex_estimate":360.1,"capex_actual":390.6,"cost_growth":0.08469869480699806,"schedule_slip":0.1483870967741936,"fel_score":50},{"id":1820,"name":"Access Road Infrastructure 1820","operator":"Meridian Materials","sector":"pulp_paper","sector_label":"Pulp & Paper","region":"south_america","region_label":"South America","project_type":"infrastructure","project_type_label":"Infrastructure","size_band":"large","sanction_year":2024,"capex_estimate":219.1,"capex_actual":243.1,"cost_growth":0.10953902327704244,"schedule_slip":0.15189873417721508,"fel_score":31},{"id":1879,"name":"Access Road Infrastructure 1879","operator":"Meridian Operations","sector":"pulp_paper","sector_label":"Pulp & Paper","region":"north_america","region_label":"North America","project_type":"infrastructure","project_type_label":"Infrastructure","size_band":"large","sanction_year":2019,"capex_estimate":135.4,"capex_actual":142.1,"cost_growth":0.049483013293943785,"schedule_slip":0.03448275862068969,"fel_score":56},{"id":103,"name":"Pipeline Infrastructure 0103","operator":"Pioneer Energy","sector":"pulp_paper","sector_label":"Pulp & Paper","region":"middle_east","region_label":"Middle East & Africa","project_type":"infrastructure","project_type_label":"Infrastructure","size_band":"large","sanction_year":2018,"capex_estimate":426.3,"capex_actual":424.9,"cost_growth":-0.003284072249589571,"schedule_slip":-0.06451612903225806,"fel_score":65},{"id":414,"name":"Pipeline Infrastructure 0414","operator":"Cascade Industries","sector":"pulp_paper","sector_label":"Pulp & Paper","region":"europe","region_label":"Europe","project_type":"infrastructure","project_type_label":"Infrastructure","size_band":"mega","sanction_year":2017,"capex_estimate":665.0,"capex_actual":768.7,"cost_growth":0.1559398496240602,"schedule_slip":0.09774436090225555,"fel_score":60},{"id":773,"name":"Pipeline Infrastructure 0773","operator":"Granite Industries","sector":"pulp_paper","sector_label":"Pulp & Paper","region":"asia_pacific","region_label":"Asia Pacific","project_type":"infrastructure","project_type_label":"Infrastructure","size_band":"large","sanction_year":2019,"capex_estimate":448.6,"capex_actual":499.7,"cost_growth":0.11390994204190807,"schedule_slip":0.08917197452229314,"fel_score":25},{"id":985,"name":"Pipeline Infrastructure 0985","operator":"Cascade Resources","sector":"pulp_paper","sector_label":"Pulp & Paper","region":"asia_pacific","region_label":"Asia Pacific","project_type":"infrastructure","project_type_label":"Infrastructure","size_band":"large","sanction_year":2021,"capex_estimate":161.8,"capex_actual":184.4,"cost_growth":0.13967861557478364,"schedule_slip":0.056291390728476796,"fel_score":50},{"id":1260,"name":"Pipeline Infrastructure 1260","operator":"Vanguard Operations","sector":"pulp_paper","sector_label":"Pulp & Paper","region":"asia_pacific","region_label":"Asia Pacific","project_type":"infrastructure","project_type_label":"Infrastructure","size_band":"large","sanction_year":2020,"capex_estimate":327.6,"capex_actual":323.6,"cost_growth":-0.01221001221001221,"schedule_slip":-0.0029325513196481355,"fel_score":78},{"id":1320,"name":"Pipeline Infrastructure 1320","operator":"Pioneer Operations","sector":"pulp_paper","sector_label":"Pulp & Paper","region":"south_america","region_label":"South America","project_type":"infrastructure","project_type_label":"Infrastructure","size_band":"large","sanction_year":2015,"capex_estimate":311.8,"capex_actual":348.5,"cost_growth":0.11770365618986525,"schedule_slip":0.07692307692307704,"fel_score":40},{"id":1659,"name":"Pipeline Infrastructure 1659","operator":"Cardinal Materials","sector":"pulp_paper","sector_label":"Pulp & Paper","region":"south_america","region_label":"South America","project_type":"infrastructure","project_type_label":"Infrastructure","size_band":"mega","sanction_year":2016,"capex_estimate":506.2,"capex_actual":523.7,"cost_growth":0.03457131568549991,"schedule_slip":0.032727272727272674,"fel_score":51},{"id":1812,"name":"Pipeline Infrastructure 1812","operator":"Harbor Resources","sector":"pulp_paper","sector_label":"Pulp & Paper","region":"middle_east","region_label":"Middle East & Africa","project_type":"infrastructure","project_type_label":"Infrastructure","size_band":"large","sanction_year":2022,"capex_estimate":102.1,"capex_actual":106.5,"cost_growth":0.04309500489715971,"schedule_slip":0.06756756756756756,"fel_score":75},{"id":135,"name":"Substation Infrastructure 0135","operator":"Cardinal Resources","sector":"pulp_paper","sector_label":"Pulp & Paper","region":"asia_pacific","region_label":"Asia Pacific","project_type":"infrastructure","project_type_label":"Infrastructure","size_band":"large","sanction_year":2015,"capex_estimate":463.2,"capex_actual":442.6,"cost_growth":-0.044473229706390255,"schedule_slip":0.0955882352941178,"fel_score":65}]}