{"count":48,"next":"http://testserver/api/projects/?ordering=name&page=2&project_type=compliance&sector=pulp_paper","previous":null,"results":[{"id":460,"name":"Containment EH&S 0460","operator":"Meridian Operations","sector":"pulp_paper","sector_label":"Pulp & Paper","region":"south_america","region_label":"South America","project_type":"compliance","project_type_label":"EH&S / Compliance","size_band":"large","sanction_year":2020,"capex_estimate":123.5,"capex_actual":129.4,"cost_growth":0.047773279352226763,"schedule_slip":0.16545012165450115,"fel_score":31},{"id":487,"name":"Containment EH&S 0487","operator":"Northgate Materials","sector":"pulp_paper","sector_label":"Pulp & Paper","region":"middle_east","region_label":"Middle East & Africa","project_type":"compliance","project_type_label":"EH&S / Compliance","size_band":"large","sanction_year":2021,"capex_estimate":324.6,"capex_actual":355.1,"cost_growth":0.09396179913739987,"schedule_slip":0.23931623931623927,"fel_score":34},{"id":720,"name":"Containment EH&S 0720","operator":"Keystone Energy","sector":"pulp_paper","sector_label":"Pulp & Paper","region":"south_america","region_label":"South America","project_type":"compliance","project_type_label":"EH&S / Compliance","size_band":"medium","sanction_year":2017,"capex_estimate":58.4,"capex_actual":59.3,"cost_growth":0.015410958904109566,"schedule_slip":0.12962962962962948,"fel_score":59},{"id":727,"name":"Containment EH&S 0727","operator":"Cascade Resources","sector":"pulp_paper","sector_label":"Pulp & Paper","region":"north_america","region_label":"North America","project_type":"compliance","project_type_label":"EH&S / Compliance","size_band":"large","sanction_year":2018,"capex_estimate":329.8,"capex_actual":321.7,"cost_growth":-0.024560339599757498,"schedule_slip":0.0847457627118644,"fel_score":35},{"id":884,"name":"Containment EH&S 0884","operator":"Cardinal Energy","sector":"pulp_paper","sector_label":"Pulp & Paper","region":"north_america","region_label":"North America","project_type":"compliance","project_type_label":"EH&S / Compliance","size_band":"medium","sanction_year":2020,"capex_estimate":99.9,"capex_actual":102.9,"cost_growth":0.03003003003003003,"schedule_slip":-0.030000000000000072,"fel_score":90},{"id":950,"name":"Containment EH&S 0950","operator":"Northgate Industries","sector":"pulp_paper","sector_label":"Pulp & Paper","region":"europe","region_label":"Europe","project_type":"compliance","project_type_label":"EH&S / Compliance","size_band":"large","sanction_year":2024,"capex_estimate":211.0,"capex_actual":230.5,"cost_growth":0.0924170616113744,"schedule_slip":0.14671814671814676,"fel_score":56},{"id":1043,"name":"Containment EH&S 1043","operator":"Granite Energy","sector":"pulp_paper","sector_label":"Pulp & Paper","region":"asia_pacific","region_label":"Asia Pacific","project_type":"compliance","project_type_label":"EH&S / Compliance","size_band":"large","sanction_year":2022,"capex_estimate":187.9,"capex_actual":199.4,"cost_growth":0.061202767429483766,"schedule_slip":0.05999999999999996,"fel_score":85},{"id":1157,"name":"Containment EH&S 1157","operator":"Vanguard Energy","sector":"pulp_paper","sector_label":"Pulp & Paper","region":"south_america","region_label":"South America","project_type":"compliance","project_type_label":"EH&S / Compliance","size_band":"large","sanction_year":2017,"capex_estimate":208.5,"capex_actual":235.7,"cost_growth":0.13045563549160666,"schedule_slip":0.04093567251461984,"fel_score":41},{"id":1179,"name":"Containment EH&S 1179","operator":"Cardinal Materials","sector":"pulp_paper","sector_label":"Pulp & Paper","region":"asia_pacific","region_label":"Asia Pacific","project_type":"compliance","project_type_label":"EH&S / Compliance","size_band":"large","sanction_year":2024,"capex_estimate":111.6,"capex_actual":131.6,"cost_growth":0.17921146953405018,"schedule_slip":-0.02631578947368412,"fel_score":50},{"id":1383,"name":"Containment EH&S 1383","operator":"Meridian Energy","sector":"pulp_paper","sector_label":"Pulp & Paper","region":"europe","region_label":"Europe","project_type":"compliance","project_type_label":"EH&S / Compliance","size_band":"medium","sanction_year":2018,"capex_estimate":30.1,"capex_actual":31.0,"cost_growth":0.029900332225913574,"schedule_slip":-0.02112676056338021,"fel_score":65},{"id":1494,"name":"Containment EH&S 1494","operator":"Vanguard Energy","sector":"pulp_paper","sector_label":"Pulp & Paper","region":"south_america","region_label":"South America","project_type":"compliance","project_type_label":"EH&S / Compliance","size_band":"large","sanction_year":2019,"capex_estimate":236.1,"capex_actual":234.3,"cost_growth":-0.007623888182973245,"schedule_slip":0.06249999999999992,"fel_score":75},{"id":1779,"name":"Containment EH&S 1779","operator":"Sterling Energy","sector":"pulp_paper","sector_label":"Pulp & Paper","region":"north_america","region_label":"North America","project_type":"compliance","project_type_label":"EH&S / Compliance","size_band":"large","sanction_year":2017,"capex_estimate":178.8,"capex_actual":207.4,"cost_growth":0.15995525727069346,"schedule_slip":0.13888888888888876,"fel_score":34},{"id":133,"name":"Flare EH&S 0133","operator":"Keystone Resources","sector":"pulp_paper","sector_label":"Pulp & Paper","region":"europe","region_label":"Europe","project_type":"compliance","project_type_label":"EH&S / Compliance","size_band":"large","sanction_year":2017,"capex_estimate":337.2,"capex_actual":386.0,"cost_growth":0.14472123368920525,"schedule_slip":0.24799999999999997,"fel_score":56},{"id":401,"name":"Flare EH&S 0401","operator":"Vanguard Operations","sector":"pulp_paper","sector_label":"Pulp & Paper","region":"asia_pacific","region_label":"Asia Pacific","project_type":"compliance","project_type_label":"EH&S / Compliance","size_band":"large","sanction_year":2019,"capex_estimate":136.7,"capex_actual":129.5,"cost_growth":-0.052670080468178414,"schedule_slip":0.06842105263157898,"fel_score":79},{"id":492,"name":"Flare EH&S 0492","operator":"Northgate Energy","sector":"pulp_paper","sector_label":"Pulp & Paper","region":"asia_pacific","region_label":"Asia Pacific","project_type":"compliance","project_type_label":"EH&S / Compliance","size_band":"medium","sanction_year":2020,"capex_estimate":50.4,"capex_actual":59.6,"cost_growth":0.1825396825396826,"schedule_slip":0.09374999999999994,"fel_score":25},{"id":585,"name":"Flare EH&S 0585","operator":"Meridian Operations","sector":"pulp_paper","sector_label":"Pulp & Paper","region":"europe","region_label":"Europe","project_type":"compliance","project_type_label":"EH&S / Compliance","size_band":"large","sanction_year":2024,"capex_estimate":358.4,"capex_actual":378.2,"cost_growth":0.05524553571428575,"schedule_slip":-0.04938271604938265,"fel_score":60},{"id":603,"name":"Flare EH&S 0603","operator":"Cardinal Resources","sector":"pulp_paper","sector_label":"Pulp & Paper","region":"south_america","region_label":"South America","project_type":"compliance","project_type_label":"EH&S / Compliance","size_band":"large","sanction_year":2022,"capex_estimate":176.2,"capex_actual":168.9,"cost_growth":-0.041430192962542474,"schedule_slip":0.04379562043795631,"fel_score":59},{"id":677,"name":"Flare EH&S 0677","operator":"Summit Resources","sector":"pulp_paper","sector_label":"Pulp & Paper","region":"south_america","region_label":"South America","project_type":"compliance","project_type_label":"EH&S / Compliance","size_band":"large","sanction_year":2014,"capex_estimate":232.9,"capex_actual":243.2,"cost_growth":0.04422498926577923,"schedule_slip":0.090643274853801,"fel_score":65},{"id":740,"name":"Flare EH&S 0740","operator":"Atlas Energy","sector":"pulp_paper","sector_label":"Pulp & Paper","region":"middle_east","region_label":"Middle East & Africa","project_type":"compliance","project_type_label":"EH&S / Compliance","size_band":"large","sanction_year":2023,"capex_estimate":219.9,"capex_actual":259.4,"cost_growth":0.1796271032287402,"schedule_slip":0.09523809523809516,"fel_score":31},{"id":918,"name":"Flare EH&S 0918","operator":"Northgate Industries","sector":"pulp_paper","sector_label":"Pulp & Paper","region":"middle_east","region_label":"Middle East & Africa","project_type":"compliance","project_type_label":"EH&S / Compliance","size_band":"large","sanction_year":2020,"capex_estimate":447.1,"capex_actual":553.8,"cost_growth":0.23864907179601863,"schedule_slip":0.20895522388059692,"fel_score":25},{"id":939,"name":"Flare EH&S 0939","operator":"Granite Industries","sector":"pulp_paper","sector_label":"Pulp & Paper","region":"middle_east","region_label":"Middle East & Africa","project_type":"compliance","project_type_label":"EH&S / Compliance","size_band":"large","sanction_year":2019,"capex_estimate":385.6,"capex_actual":420.0,"cost_growth":0.08921161825726134,"schedule_slip":0.08115942028985498,"fel_score":48},{"id":959,"name":"Flare EH&S 0959","operator":"Keystone Operations","sector":"pulp_paper","sector_label":"Pulp & Paper","region":"asia_pacific","region_label":"Asia Pacific","project_type":"compliance","project_type_label":"EH&S / Compliance","size_band":"large","sanction_year":2016,"capex_estimate":263.9,"capex_actual":288.8,"cost_growth":0.09435392194012897,"schedule_slip":0.10810810810810821,"fel_score":25},{"id":1025,"name":"Flare EH&S 1025","operator":"Cascade Materials","sector":"pulp_paper","sector_label":"Pulp & Paper","region":"asia_pacific","region_label":"Asia Pacific","project_type":"compliance","project_type_label":"EH&S / Compliance","size_band":"medium","sanction_year":2024,"capex_estimate":84.3,"capex_actual":94.2,"cost_growth":0.11743772241992889,"schedule_slip":0.11864406779661005,"fel_score":50},{"id":1261,"name":"Flare EH&S 1261","operator":"Summit Materials","sector":"pulp_paper","sector_label":"Pulp & Paper","region":"south_america","region_label":"South America","project_type":"compliance","project_type_label":"EH&S / Compliance","size_band":"large","sanction_year":2022,"capex_estimate":348.7,"capex_actual":367.1,"cost_growth":0.052767421852595454,"schedule_slip":0.09004739336492884,"fel_score":65},{"id":1342,"name":"Flare EH&S 1342","operator":"Harbor Resources","sector":"pulp_paper","sector_label":"Pulp & Paper","region":"asia_pacific","region_label":"Asia Pacific","project_type":"compliance","project_type_label":"EH&S / Compliance","size_band":"large","sanction_year":2023,"capex_estimate":141.1,"capex_actual":140.9,"cost_growth":-0.0014174344436569002,"schedule_slip":0.0,"fel_score":72}]}