{"count":43,"next":"http://testserver/api/projects/?ordering=name&page=2&project_type=reliability&sector=pulp_paper","previous":null,"results":[{"id":90,"name":"Heat Exchanger Reliability 0090","operator":"Meridian Operations","sector":"pulp_paper","sector_label":"Pulp & Paper","region":"middle_east","region_label":"Middle East & Africa","project_type":"reliability","project_type_label":"Reliability & Integrity","size_band":"large","sanction_year":2018,"capex_estimate":127.1,"capex_actual":132.8,"cost_growth":0.04484657749803318,"schedule_slip":-0.0378378378378378,"fel_score":81},{"id":156,"name":"Heat Exchanger Reliability 0156","operator":"Atlas Materials","sector":"pulp_paper","sector_label":"Pulp & Paper","region":"north_america","region_label":"North America","project_type":"reliability","project_type_label":"Reliability & Integrity","size_band":"large","sanction_year":2018,"capex_estimate":120.8,"capex_actual":131.3,"cost_growth":0.08692052980132463,"schedule_slip":0.0,"fel_score":41},{"id":896,"name":"Heat Exchanger Reliability 0896","operator":"Cascade Energy","sector":"pulp_paper","sector_label":"Pulp & Paper","region":"asia_pacific","region_label":"Asia Pacific","project_type":"reliability","project_type_label":"Reliability & Integrity","size_band":"large","sanction_year":2021,"capex_estimate":203.1,"capex_actual":199.0,"cost_growth":-0.020187099950763142,"schedule_slip":0.10702341137123755,"fel_score":56},{"id":1000,"name":"Heat Exchanger Reliability 1000","operator":"Cardinal Operations","sector":"pulp_paper","sector_label":"Pulp & Paper","region":"north_america","region_label":"North America","project_type":"reliability","project_type_label":"Reliability & Integrity","size_band":"medium","sanction_year":2021,"capex_estimate":82.8,"capex_actual":84.0,"cost_growth":0.01449275362318844,"schedule_slip":0.13823529411764715,"fel_score":72},{"id":1034,"name":"Heat Exchanger Reliability 1034","operator":"Meridian Materials","sector":"pulp_paper","sector_label":"Pulp & Paper","region":"europe","region_label":"Europe","project_type":"reliability","project_type_label":"Reliability & Integrity","size_band":"large","sanction_year":2017,"capex_estimate":156.4,"capex_actual":151.4,"cost_growth":-0.0319693094629156,"schedule_slip":-0.05526315789473688,"fel_score":84},{"id":1136,"name":"Heat Exchanger Reliability 1136","operator":"Harbor Operations","sector":"pulp_paper","sector_label":"Pulp & Paper","region":"europe","region_label":"Europe","project_type":"reliability","project_type_label":"Reliability & Integrity","size_band":"medium","sanction_year":2016,"capex_estimate":67.3,"capex_actual":77.9,"cost_growth":0.15750371471025273,"schedule_slip":0.13784461152882205,"fel_score":25},{"id":1409,"name":"Heat Exchanger Reliability 1409","operator":"Keystone Industries","sector":"pulp_paper","sector_label":"Pulp & Paper","region":"north_america","region_label":"North America","project_type":"reliability","project_type_label":"Reliability & Integrity","size_band":"large","sanction_year":2017,"capex_estimate":304.0,"capex_actual":317.2,"cost_growth":0.04342105263157891,"schedule_slip":0.1499999999999999,"fel_score":69},{"id":1442,"name":"Heat Exchanger Reliability 1442","operator":"Pioneer Materials","sector":"pulp_paper","sector_label":"Pulp & Paper","region":"south_america","region_label":"South America","project_type":"reliability","project_type_label":"Reliability & Integrity","size_band":"large","sanction_year":2015,"capex_estimate":348.1,"capex_actual":380.2,"cost_growth":0.09221488078138455,"schedule_slip":0.011627906976744146,"fel_score":49},{"id":1722,"name":"Heat Exchanger Reliability 1722","operator":"Cascade Resources","sector":"pulp_paper","sector_label":"Pulp & Paper","region":"europe","region_label":"Europe","project_type":"reliability","project_type_label":"Reliability & Integrity","size_band":"large","sanction_year":2014,"capex_estimate":414.5,"capex_actual":474.5,"cost_growth":0.14475271411338964,"schedule_slip":0.19277108433734935,"fel_score":15},{"id":241,"name":"Pump Station Reliability 0241","operator":"Meridian Resources","sector":"pulp_paper","sector_label":"Pulp & Paper","region":"europe","region_label":"Europe","project_type":"reliability","project_type_label":"Reliability & Integrity","size_band":"large","sanction_year":2024,"capex_estimate":419.3,"capex_actual":448.7,"cost_growth":0.07011686143572615,"schedule_slip":0.1379310344827586,"fel_score":60},{"id":275,"name":"Pump Station Reliability 0275","operator":"Sterling Resources","sector":"pulp_paper","sector_label":"Pulp & Paper","region":"middle_east","region_label":"Middle East & Africa","project_type":"reliability","project_type_label":"Reliability & Integrity","size_band":"large","sanction_year":2017,"capex_estimate":440.6,"capex_actual":479.2,"cost_growth":0.08760780753517922,"schedule_slip":0.16793893129771,"fel_score":75},{"id":341,"name":"Pump Station Reliability 0341","operator":"Pioneer Industries","sector":"pulp_paper","sector_label":"Pulp & Paper","region":"europe","region_label":"Europe","project_type":"reliability","project_type_label":"Reliability & Integrity","size_band":"medium","sanction_year":2021,"capex_estimate":27.3,"capex_actual":27.7,"cost_growth":0.0146520146520146,"schedule_slip":0.022813688212927674,"fel_score":65},{"id":1160,"name":"Pump Station Reliability 1160","operator":"Meridian Energy","sector":"pulp_paper","sector_label":"Pulp & Paper","region":"middle_east","region_label":"Middle East & Africa","project_type":"reliability","project_type_label":"Reliability & Integrity","size_band":"mega","sanction_year":2021,"capex_estimate":512.4,"capex_actual":553.6,"cost_growth":0.08040593286494935,"schedule_slip":0.054455445544554525,"fel_score":66},{"id":1300,"name":"Pump Station Reliability 1300","operator":"Pioneer Resources","sector":"pulp_paper","sector_label":"Pulp & Paper","region":"north_america","region_label":"North America","project_type":"reliability","project_type_label":"Reliability & Integrity","size_band":"medium","sanction_year":2021,"capex_estimate":71.4,"capex_actual":83.6,"cost_growth":0.1708683473389354,"schedule_slip":0.056179775280898875,"fel_score":44},{"id":1360,"name":"Pump Station Reliability 1360","operator":"Northgate Operations","sector":"pulp_paper","sector_label":"Pulp & Paper","region":"asia_pacific","region_label":"Asia Pacific","project_type":"reliability","project_type_label":"Reliability & Integrity","size_band":"large","sanction_year":2016,"capex_estimate":200.5,"capex_actual":215.1,"cost_growth":0.07281795511221942,"schedule_slip":0.10512820512820517,"fel_score":44},{"id":1789,"name":"Pump Station Reliability 1789","operator":"Meridian Operations","sector":"pulp_paper","sector_label":"Pulp & Paper","region":"europe","region_label":"Europe","project_type":"reliability","project_type_label":"Reliability & Integrity","size_band":"medium","sanction_year":2023,"capex_estimate":47.0,"capex_actual":50.5,"cost_growth":0.07446808510638298,"schedule_slip":0.013333333333333286,"fel_score":66},{"id":1851,"name":"Pump Station Reliability 1851","operator":"Cardinal Materials","sector":"pulp_paper","sector_label":"Pulp & Paper","region":"europe","region_label":"Europe","project_type":"reliability","project_type_label":"Reliability & Integrity","size_band":"large","sanction_year":2016,"capex_estimate":394.7,"capex_actual":450.2,"cost_growth":0.14061312389156322,"schedule_slip":0.06504065040650397,"fel_score":59},{"id":145,"name":"Reactor Reliability 0145","operator":"Harbor Resources","sector":"pulp_paper","sector_label":"Pulp & Paper","region":"south_america","region_label":"South America","project_type":"reliability","project_type_label":"Reliability & Integrity","size_band":"large","sanction_year":2022,"capex_estimate":288.6,"capex_actual":294.8,"cost_growth":0.02148302148302144,"schedule_slip":0.08071748878923769,"fel_score":75},{"id":340,"name":"Reactor Reliability 0340","operator":"Meridian Resources","sector":"pulp_paper","sector_label":"Pulp & Paper","region":"asia_pacific","region_label":"Asia Pacific","project_type":"reliability","project_type_label":"Reliability & Integrity","size_band":"large","sanction_year":2021,"capex_estimate":194.8,"capex_actual":165.6,"cost_growth":-0.14989733059548263,"schedule_slip":0.07142857142857145,"fel_score":78},{"id":355,"name":"Reactor Reliability 0355","operator":"Meridian Industries","sector":"pulp_paper","sector_label":"Pulp & Paper","region":"middle_east","region_label":"Middle East & Africa","project_type":"reliability","project_type_label":"Reliability & Integrity","size_band":"large","sanction_year":2015,"capex_estimate":193.9,"capex_actual":204.1,"cost_growth":0.05260443527591536,"schedule_slip":0.109375,"fel_score":50},{"id":390,"name":"Reactor Reliability 0390","operator":"Sterling Materials","sector":"pulp_paper","sector_label":"Pulp & Paper","region":"south_america","region_label":"South America","project_type":"reliability","project_type_label":"Reliability & Integrity","size_band":"large","sanction_year":2018,"capex_estimate":162.3,"capex_actual":178.8,"cost_growth":0.10166358595194085,"schedule_slip":0.07758620689655175,"fel_score":59},{"id":417,"name":"Reactor Reliability 0417","operator":"Sterling Materials","sector":"pulp_paper","sector_label":"Pulp & Paper","region":"europe","region_label":"Europe","project_type":"reliability","project_type_label":"Reliability & Integrity","size_band":"large","sanction_year":2022,"capex_estimate":236.6,"capex_actual":268.6,"cost_growth":0.1352493660185969,"schedule_slip":-0.014354066985645798,"fel_score":66},{"id":469,"name":"Reactor Reliability 0469","operator":"Sterling Materials","sector":"pulp_paper","sector_label":"Pulp & Paper","region":"north_america","region_label":"North America","project_type":"reliability","project_type_label":"Reliability & Integrity","size_band":"large","sanction_year":2017,"capex_estimate":479.8,"capex_actual":514.7,"cost_growth":0.07273864110045859,"schedule_slip":0.027173913043478264,"fel_score":66},{"id":562,"name":"Reactor Reliability 0562","operator":"Cascade Operations","sector":"pulp_paper","sector_label":"Pulp & Paper","region":"europe","region_label":"Europe","project_type":"reliability","project_type_label":"Reliability & Integrity","size_band":"medium","sanction_year":2024,"capex_estimate":70.3,"capex_actual":83.9,"cost_growth":0.19345661450924623,"schedule_slip":-0.029090909090909115,"fel_score":56},{"id":595,"name":"Reactor Reliability 0595","operator":"Cascade Operations","sector":"pulp_paper","sector_label":"Pulp & Paper","region":"south_america","region_label":"South America","project_type":"reliability","project_type_label":"Reliability & Integrity","size_band":"large","sanction_year":2020,"capex_estimate":284.2,"capex_actual":259.4,"cost_growth":-0.08726249120337795,"schedule_slip":0.04086538461538451,"fel_score":85}]}