{"count":78,"next":"http://testserver/api/projects/?ordering=name&page=2&project_type=asset_replacement&sector=oil_gas","previous":null,"results":[{"id":160,"name":"Boiler Asset 0160","operator":"Atlas Energy","sector":"oil_gas","sector_label":"Oil & Gas","region":"middle_east","region_label":"Middle East & Africa","project_type":"asset_replacement","project_type_label":"Asset Replacement","size_band":"mega","sanction_year":2015,"capex_estimate":531.3,"capex_actual":507.2,"cost_growth":-0.04536043666478443,"schedule_slip":0.041666666666666644,"fel_score":91},{"id":301,"name":"Boiler Asset 0301","operator":"Summit Energy","sector":"oil_gas","sector_label":"Oil & Gas","region":"middle_east","region_label":"Middle East & Africa","project_type":"asset_replacement","project_type_label":"Asset Replacement","size_band":"mega","sanction_year":2020,"capex_estimate":644.1,"capex_actual":572.9,"cost_growth":-0.11054184132898624,"schedule_slip":0.0050505050505049425,"fel_score":56},{"id":357,"name":"Boiler Asset 0357","operator":"Pioneer Industries","sector":"oil_gas","sector_label":"Oil & Gas","region":"asia_pacific","region_label":"Asia Pacific","project_type":"asset_replacement","project_type_label":"Asset Replacement","size_band":"mega","sanction_year":2023,"capex_estimate":1195.0,"capex_actual":1228.4,"cost_growth":0.027949790794979154,"schedule_slip":0.07981220657276991,"fel_score":56},{"id":394,"name":"Boiler Asset 0394","operator":"Harbor Industries","sector":"oil_gas","sector_label":"Oil & Gas","region":"middle_east","region_label":"Middle East & Africa","project_type":"asset_replacement","project_type_label":"Asset Replacement","size_band":"mega","sanction_year":2024,"capex_estimate":919.1,"capex_actual":975.8,"cost_growth":0.061690784463061615,"schedule_slip":0.1079136690647482,"fel_score":50},{"id":400,"name":"Boiler Asset 0400","operator":"Northgate Energy","sector":"oil_gas","sector_label":"Oil & Gas","region":"europe","region_label":"Europe","project_type":"asset_replacement","project_type_label":"Asset Replacement","size_band":"mega","sanction_year":2014,"capex_estimate":982.8,"capex_actual":1081.5,"cost_growth":0.10042735042735047,"schedule_slip":0.004950495049505021,"fel_score":50},{"id":656,"name":"Boiler Asset 0656","operator":"Summit Energy","sector":"oil_gas","sector_label":"Oil & Gas","region":"south_america","region_label":"South America","project_type":"asset_replacement","project_type_label":"Asset Replacement","size_band":"mega","sanction_year":2022,"capex_estimate":1089.1,"capex_actual":1166.2,"cost_growth":0.07079239739234243,"schedule_slip":0.11197916666666678,"fel_score":25},{"id":1085,"name":"Boiler Asset 1085","operator":"Summit Energy","sector":"oil_gas","sector_label":"Oil & Gas","region":"north_america","region_label":"North America","project_type":"asset_replacement","project_type_label":"Asset Replacement","size_band":"mega","sanction_year":2020,"capex_estimate":2089.8,"capex_actual":2198.5,"cost_growth":0.0520145468465881,"schedule_slip":0.025974025974025997,"fel_score":94},{"id":1259,"name":"Boiler Asset 1259","operator":"Summit Resources","sector":"oil_gas","sector_label":"Oil & Gas","region":"asia_pacific","region_label":"Asia Pacific","project_type":"asset_replacement","project_type_label":"Asset Replacement","size_band":"mega","sanction_year":2022,"capex_estimate":967.1,"capex_actual":1036.3,"cost_growth":0.0715541309068348,"schedule_slip":-0.041666666666666644,"fel_score":66},{"id":1381,"name":"Boiler Asset 1381","operator":"Cardinal Resources","sector":"oil_gas","sector_label":"Oil & Gas","region":"south_america","region_label":"South America","project_type":"asset_replacement","project_type_label":"Asset Replacement","size_band":"mega","sanction_year":2018,"capex_estimate":1118.8,"capex_actual":1030.0,"cost_growth":-0.07937075437969249,"schedule_slip":0.08943089430894305,"fel_score":69},{"id":1514,"name":"Boiler Asset 1514","operator":"Summit Industries","sector":"oil_gas","sector_label":"Oil & Gas","region":"north_america","region_label":"North America","project_type":"asset_replacement","project_type_label":"Asset Replacement","size_band":"large","sanction_year":2017,"capex_estimate":379.0,"capex_actual":403.9,"cost_growth":0.0656992084432717,"schedule_slip":0.03174603174603177,"fel_score":59},{"id":1835,"name":"Boiler Asset 1835","operator":"Meridian Materials","sector":"oil_gas","sector_label":"Oil & Gas","region":"middle_east","region_label":"Middle East & Africa","project_type":"asset_replacement","project_type_label":"Asset Replacement","size_band":"large","sanction_year":2023,"capex_estimate":402.9,"capex_actual":386.6,"cost_growth":-0.0404566890047157,"schedule_slip":-0.034482758620689655,"fel_score":84},{"id":1917,"name":"Boiler Asset 1917","operator":"Cardinal Industries","sector":"oil_gas","sector_label":"Oil & Gas","region":"north_america","region_label":"North America","project_type":"asset_replacement","project_type_label":"Asset Replacement","size_band":"medium","sanction_year":2020,"capex_estimate":79.8,"capex_actual":82.6,"cost_growth":0.03508771929824558,"schedule_slip":0.09497206703910631,"fel_score":40},{"id":73,"name":"Compressor Asset 0073","operator":"Summit Operations","sector":"oil_gas","sector_label":"Oil & Gas","region":"middle_east","region_label":"Middle East & Africa","project_type":"asset_replacement","project_type_label":"Asset Replacement","size_band":"large","sanction_year":2022,"capex_estimate":121.9,"capex_actual":113.2,"cost_growth":-0.07136997538966368,"schedule_slip":0.07118644067796615,"fel_score":65},{"id":325,"name":"Compressor Asset 0325","operator":"Keystone Materials","sector":"oil_gas","sector_label":"Oil & Gas","region":"north_america","region_label":"North America","project_type":"asset_replacement","project_type_label":"Asset Replacement","size_band":"large","sanction_year":2017,"capex_estimate":122.2,"capex_actual":118.9,"cost_growth":-0.027004909983633363,"schedule_slip":-0.05172413793103448,"fel_score":90},{"id":477,"name":"Compressor Asset 0477","operator":"Cascade Materials","sector":"oil_gas","sector_label":"Oil & Gas","region":"north_america","region_label":"North America","project_type":"asset_replacement","project_type_label":"Asset Replacement","size_band":"large","sanction_year":2024,"capex_estimate":133.2,"capex_actual":145.6,"cost_growth":0.09309309309309315,"schedule_slip":0.18497109826589592,"fel_score":40},{"id":830,"name":"Compressor Asset 0830","operator":"Granite Operations","sector":"oil_gas","sector_label":"Oil & Gas","region":"north_america","region_label":"North America","project_type":"asset_replacement","project_type_label":"Asset Replacement","size_band":"mega","sanction_year":2017,"capex_estimate":1384.1,"capex_actual":1555.2,"cost_growth":0.12361823567661306,"schedule_slip":0.23671497584541074,"fel_score":35},{"id":872,"name":"Compressor Asset 0872","operator":"Northgate Energy","sector":"oil_gas","sector_label":"Oil & Gas","region":"asia_pacific","region_label":"Asia Pacific","project_type":"asset_replacement","project_type_label":"Asset Replacement","size_band":"mega","sanction_year":2017,"capex_estimate":550.1,"capex_actual":649.4,"cost_growth":0.18051263406653326,"schedule_slip":0.06134969325153374,"fel_score":29},{"id":940,"name":"Compressor Asset 0940","operator":"Summit Industries","sector":"oil_gas","sector_label":"Oil & Gas","region":"asia_pacific","region_label":"Asia Pacific","project_type":"asset_replacement","project_type_label":"Asset Replacement","size_band":"mega","sanction_year":2020,"capex_estimate":898.0,"capex_actual":1011.6,"cost_growth":0.12650334075723832,"schedule_slip":0.0758807588075882,"fel_score":46},{"id":1022,"name":"Compressor Asset 1022","operator":"Summit Materials","sector":"oil_gas","sector_label":"Oil & Gas","region":"south_america","region_label":"South America","project_type":"asset_replacement","project_type_label":"Asset Replacement","size_band":"mega","sanction_year":2018,"capex_estimate":1856.6,"capex_actual":2059.4,"cost_growth":0.1092319293331898,"schedule_slip":0.08539944903581272,"fel_score":50},{"id":1102,"name":"Compressor Asset 1102","operator":"Northgate Resources","sector":"oil_gas","sector_label":"Oil & Gas","region":"south_america","region_label":"South America","project_type":"asset_replacement","project_type_label":"Asset Replacement","size_band":"mega","sanction_year":2017,"capex_estimate":739.1,"capex_actual":822.3,"cost_growth":0.11256934109051539,"schedule_slip":0.1412103746397694,"fel_score":41},{"id":1120,"name":"Compressor Asset 1120","operator":"Granite Industries","sector":"oil_gas","sector_label":"Oil & Gas","region":"south_america","region_label":"South America","project_type":"asset_replacement","project_type_label":"Asset Replacement","size_band":"mega","sanction_year":2014,"capex_estimate":591.0,"capex_actual":644.5,"cost_growth":0.09052453468697123,"schedule_slip":0.1627296587926508,"fel_score":56},{"id":1256,"name":"Compressor Asset 1256","operator":"Sterling Operations","sector":"oil_gas","sector_label":"Oil & Gas","region":"asia_pacific","region_label":"Asia Pacific","project_type":"asset_replacement","project_type_label":"Asset Replacement","size_band":"mega","sanction_year":2014,"capex_estimate":1587.3,"capex_actual":1676.2,"cost_growth":0.056007056007056064,"schedule_slip":-0.025210084033613602,"fel_score":66},{"id":1363,"name":"Compressor Asset 1363","operator":"Cardinal Energy","sector":"oil_gas","sector_label":"Oil & Gas","region":"europe","region_label":"Europe","project_type":"asset_replacement","project_type_label":"Asset Replacement","size_band":"mega","sanction_year":2022,"capex_estimate":797.7,"capex_actual":863.3,"cost_growth":0.08223642973548942,"schedule_slip":0.03950617283950621,"fel_score":31},{"id":1390,"name":"Compressor Asset 1390","operator":"Granite Materials","sector":"oil_gas","sector_label":"Oil & Gas","region":"europe","region_label":"Europe","project_type":"asset_replacement","project_type_label":"Asset Replacement","size_band":"large","sanction_year":2024,"capex_estimate":197.4,"capex_actual":235.3,"cost_growth":0.19199594731509628,"schedule_slip":0.05813953488372093,"fel_score":59},{"id":1397,"name":"Compressor Asset 1397","operator":"Atlas Industries","sector":"oil_gas","sector_label":"Oil & Gas","region":"south_america","region_label":"South America","project_type":"asset_replacement","project_type_label":"Asset Replacement","size_band":"large","sanction_year":2015,"capex_estimate":468.9,"capex_actual":515.6,"cost_growth":0.09959479633184058,"schedule_slip":0.052631578947368515,"fel_score":50}]}