{"count":395,"next":"http://testserver/api/projects/?ordering=name&page=2&sector=oil_gas","previous":null,"results":[{"id":39,"name":"Access Road Infrastructure 0039","operator":"Pioneer Materials","sector":"oil_gas","sector_label":"Oil & Gas","region":"north_america","region_label":"North America","project_type":"infrastructure","project_type_label":"Infrastructure","size_band":"mega","sanction_year":2023,"capex_estimate":772.4,"capex_actual":774.5,"cost_growth":0.0027187985499741362,"schedule_slip":-0.05645161290322589,"fel_score":90},{"id":131,"name":"Access Road Infrastructure 0131","operator":"Meridian Industries","sector":"oil_gas","sector_label":"Oil & Gas","region":"north_america","region_label":"North America","project_type":"infrastructure","project_type_label":"Infrastructure","size_band":"mega","sanction_year":2017,"capex_estimate":751.7,"capex_actual":814.0,"cost_growth":0.08287880803512032,"schedule_slip":0.1452991452991454,"fel_score":25},{"id":246,"name":"Access Road Infrastructure 0246","operator":"Keystone Industries","sector":"oil_gas","sector_label":"Oil & Gas","region":"asia_pacific","region_label":"Asia Pacific","project_type":"infrastructure","project_type_label":"Infrastructure","size_band":"medium","sanction_year":2014,"capex_estimate":67.9,"capex_actual":76.6,"cost_growth":0.1281296023564063,"schedule_slip":0.05789473684210534,"fel_score":34},{"id":313,"name":"Access Road Infrastructure 0313","operator":"Harbor Industries","sector":"oil_gas","sector_label":"Oil & Gas","region":"south_america","region_label":"South America","project_type":"infrastructure","project_type_label":"Infrastructure","size_band":"mega","sanction_year":2018,"capex_estimate":906.2,"capex_actual":794.0,"cost_growth":-0.12381372765393957,"schedule_slip":-0.1209302325581396,"fel_score":91},{"id":343,"name":"Access Road Infrastructure 0343","operator":"Northgate Industries","sector":"oil_gas","sector_label":"Oil & Gas","region":"north_america","region_label":"North America","project_type":"infrastructure","project_type_label":"Infrastructure","size_band":"large","sanction_year":2019,"capex_estimate":465.9,"capex_actual":491.2,"cost_growth":0.054303498604850856,"schedule_slip":-0.010050251256281372,"fel_score":59},{"id":360,"name":"Access Road Infrastructure 0360","operator":"Cardinal Energy","sector":"oil_gas","sector_label":"Oil & Gas","region":"asia_pacific","region_label":"Asia Pacific","project_type":"infrastructure","project_type_label":"Infrastructure","size_band":"medium","sanction_year":2020,"capex_estimate":46.9,"capex_actual":52.4,"cost_growth":0.11727078891257996,"schedule_slip":-0.05042016806722686,"fel_score":46},{"id":461,"name":"Access Road Infrastructure 0461","operator":"Summit Energy","sector":"oil_gas","sector_label":"Oil & Gas","region":"europe","region_label":"Europe","project_type":"infrastructure","project_type_label":"Infrastructure","size_band":"mega","sanction_year":2017,"capex_estimate":1288.5,"capex_actual":1487.5,"cost_growth":0.1544431509507179,"schedule_slip":0.09999999999999996,"fel_score":59},{"id":704,"name":"Access Road Infrastructure 0704","operator":"Vanguard Operations","sector":"oil_gas","sector_label":"Oil & Gas","region":"north_america","region_label":"North America","project_type":"infrastructure","project_type_label":"Infrastructure","size_band":"large","sanction_year":2015,"capex_estimate":358.9,"capex_actual":409.9,"cost_growth":0.1421008637503483,"schedule_slip":0.18103448275862083,"fel_score":18},{"id":716,"name":"Access Road Infrastructure 0716","operator":"Cascade Operations","sector":"oil_gas","sector_label":"Oil & Gas","region":"europe","region_label":"Europe","project_type":"infrastructure","project_type_label":"Infrastructure","size_band":"medium","sanction_year":2014,"capex_estimate":85.5,"capex_actual":90.0,"cost_growth":0.05263157894736842,"schedule_slip":0.11153846153846149,"fel_score":69},{"id":748,"name":"Access Road Infrastructure 0748","operator":"Northgate Operations","sector":"oil_gas","sector_label":"Oil & Gas","region":"middle_east","region_label":"Middle East & Africa","project_type":"infrastructure","project_type_label":"Infrastructure","size_band":"medium","sanction_year":2018,"capex_estimate":82.0,"capex_actual":92.1,"cost_growth":0.123170731707317,"schedule_slip":0.017391304347826025,"fel_score":49},{"id":854,"name":"Access Road Infrastructure 0854","operator":"Granite Resources","sector":"oil_gas","sector_label":"Oil & Gas","region":"north_america","region_label":"North America","project_type":"infrastructure","project_type_label":"Infrastructure","size_band":"large","sanction_year":2016,"capex_estimate":239.7,"capex_actual":268.5,"cost_growth":0.12015018773466839,"schedule_slip":0.15909090909090892,"fel_score":35},{"id":955,"name":"Access Road Infrastructure 0955","operator":"Sterling Energy","sector":"oil_gas","sector_label":"Oil & Gas","region":"asia_pacific","region_label":"Asia Pacific","project_type":"infrastructure","project_type_label":"Infrastructure","size_band":"mega","sanction_year":2019,"capex_estimate":1525.3,"capex_actual":1688.5,"cost_growth":0.1069953451779978,"schedule_slip":0.12195121951219513,"fel_score":34},{"id":960,"name":"Access Road Infrastructure 0960","operator":"Summit Resources","sector":"oil_gas","sector_label":"Oil & Gas","region":"north_america","region_label":"North America","project_type":"infrastructure","project_type_label":"Infrastructure","size_band":"large","sanction_year":2023,"capex_estimate":270.5,"capex_actual":261.6,"cost_growth":-0.03290203327171896,"schedule_slip":-0.05338078291814946,"fel_score":81},{"id":1125,"name":"Access Road Infrastructure 1125","operator":"Harbor Industries","sector":"oil_gas","sector_label":"Oil & Gas","region":"middle_east","region_label":"Middle East & Africa","project_type":"infrastructure","project_type_label":"Infrastructure","size_band":"large","sanction_year":2024,"capex_estimate":280.1,"capex_actual":294.6,"cost_growth":0.0517672259907176,"schedule_slip":0.05378973105134482,"fel_score":50},{"id":1171,"name":"Access Road Infrastructure 1171","operator":"Cascade Materials","sector":"oil_gas","sector_label":"Oil & Gas","region":"north_america","region_label":"North America","project_type":"infrastructure","project_type_label":"Infrastructure","size_band":"large","sanction_year":2017,"capex_estimate":194.5,"capex_actual":206.5,"cost_growth":0.061696658097686374,"schedule_slip":0.019464720194647133,"fel_score":65},{"id":1209,"name":"Access Road Infrastructure 1209","operator":"Granite Materials","sector":"oil_gas","sector_label":"Oil & Gas","region":"asia_pacific","region_label":"Asia Pacific","project_type":"infrastructure","project_type_label":"Infrastructure","size_band":"mega","sanction_year":2022,"capex_estimate":505.1,"capex_actual":572.6,"cost_growth":0.13363690358344882,"schedule_slip":0.1336515513126492,"fel_score":41},{"id":1376,"name":"Access Road Infrastructure 1376","operator":"Summit Resources","sector":"oil_gas","sector_label":"Oil & Gas","region":"south_america","region_label":"South America","project_type":"infrastructure","project_type_label":"Infrastructure","size_band":"mega","sanction_year":2014,"capex_estimate":1088.7,"capex_actual":1221.6,"cost_growth":0.1220721961972994,"schedule_slip":0.04972375690607726,"fel_score":66},{"id":1427,"name":"Access Road Infrastructure 1427","operator":"Atlas Operations","sector":"oil_gas","sector_label":"Oil & Gas","region":"south_america","region_label":"South America","project_type":"infrastructure","project_type_label":"Infrastructure","size_band":"mega","sanction_year":2023,"capex_estimate":503.0,"capex_actual":541.7,"cost_growth":0.07693836978131222,"schedule_slip":0.03365384615384612,"fel_score":69},{"id":1641,"name":"Access Road Infrastructure 1641","operator":"Vanguard Resources","sector":"oil_gas","sector_label":"Oil & Gas","region":"asia_pacific","region_label":"Asia Pacific","project_type":"infrastructure","project_type_label":"Infrastructure","size_band":"mega","sanction_year":2018,"capex_estimate":786.3,"capex_actual":929.1,"cost_growth":0.1816100724914156,"schedule_slip":-0.09239130434782605,"fel_score":60},{"id":1691,"name":"Access Road Infrastructure 1691","operator":"Harbor Materials","sector":"oil_gas","sector_label":"Oil & Gas","region":"asia_pacific","region_label":"Asia Pacific","project_type":"infrastructure","project_type_label":"Infrastructure","size_band":"mega","sanction_year":2019,"capex_estimate":1054.2,"capex_actual":1014.8,"cost_growth":-0.03737431227471077,"schedule_slip":-0.06020942408376974,"fel_score":85},{"id":1896,"name":"Access Road Infrastructure 1896","operator":"Pioneer Materials","sector":"oil_gas","sector_label":"Oil & Gas","region":"asia_pacific","region_label":"Asia Pacific","project_type":"infrastructure","project_type_label":"Infrastructure","size_band":"mega","sanction_year":2021,"capex_estimate":1472.3,"capex_actual":1387.1,"cost_growth":-0.057868640901990114,"schedule_slip":0.13239436619718317,"fel_score":60},{"id":160,"name":"Boiler Asset 0160","operator":"Atlas Energy","sector":"oil_gas","sector_label":"Oil & Gas","region":"middle_east","region_label":"Middle East & Africa","project_type":"asset_replacement","project_type_label":"Asset Replacement","size_band":"mega","sanction_year":2015,"capex_estimate":531.3,"capex_actual":507.2,"cost_growth":-0.04536043666478443,"schedule_slip":0.041666666666666644,"fel_score":91},{"id":301,"name":"Boiler Asset 0301","operator":"Summit Energy","sector":"oil_gas","sector_label":"Oil & Gas","region":"middle_east","region_label":"Middle East & Africa","project_type":"asset_replacement","project_type_label":"Asset Replacement","size_band":"mega","sanction_year":2020,"capex_estimate":644.1,"capex_actual":572.9,"cost_growth":-0.11054184132898624,"schedule_slip":0.0050505050505049425,"fel_score":56},{"id":357,"name":"Boiler Asset 0357","operator":"Pioneer Industries","sector":"oil_gas","sector_label":"Oil & Gas","region":"asia_pacific","region_label":"Asia Pacific","project_type":"asset_replacement","project_type_label":"Asset Replacement","size_band":"mega","sanction_year":2023,"capex_estimate":1195.0,"capex_actual":1228.4,"cost_growth":0.027949790794979154,"schedule_slip":0.07981220657276991,"fel_score":56},{"id":394,"name":"Boiler Asset 0394","operator":"Harbor Industries","sector":"oil_gas","sector_label":"Oil & Gas","region":"middle_east","region_label":"Middle East & Africa","project_type":"asset_replacement","project_type_label":"Asset Replacement","size_band":"mega","sanction_year":2024,"capex_estimate":919.1,"capex_actual":975.8,"cost_growth":0.061690784463061615,"schedule_slip":0.1079136690647482,"fel_score":50}]}