{"count":555,"next":"http://testserver/api/projects/?ordering=name&page=2&sector=mining","previous":null,"results":[{"id":44,"name":"Access Road Infrastructure 0044","operator":"Northgate Energy","sector":"mining","sector_label":"Mining & Metals","region":"middle_east","region_label":"Middle East & Africa","project_type":"infrastructure","project_type_label":"Infrastructure","size_band":"large","sanction_year":2023,"capex_estimate":104.2,"capex_actual":128.3,"cost_growth":0.23128598848368528,"schedule_slip":0.07079646017699105,"fel_score":50},{"id":183,"name":"Access Road Infrastructure 0183","operator":"Summit Energy","sector":"mining","sector_label":"Mining & Metals","region":"europe","region_label":"Europe","project_type":"infrastructure","project_type_label":"Infrastructure","size_band":"mega","sanction_year":2019,"capex_estimate":1055.5,"capex_actual":1147.3,"cost_growth":0.08697299857887253,"schedule_slip":0.06410256410256422,"fel_score":59},{"id":309,"name":"Access Road Infrastructure 0309","operator":"Vanguard Industries","sector":"mining","sector_label":"Mining & Metals","region":"europe","region_label":"Europe","project_type":"infrastructure","project_type_label":"Infrastructure","size_band":"mega","sanction_year":2014,"capex_estimate":1299.4,"capex_actual":1386.8,"cost_growth":0.06726181314452813,"schedule_slip":-0.013698630136986254,"fel_score":66},{"id":421,"name":"Access Road Infrastructure 0421","operator":"Cardinal Resources","sector":"mining","sector_label":"Mining & Metals","region":"europe","region_label":"Europe","project_type":"infrastructure","project_type_label":"Infrastructure","size_band":"mega","sanction_year":2020,"capex_estimate":606.1,"capex_actual":647.8,"cost_growth":0.06880052796568212,"schedule_slip":-0.01639344262295076,"fel_score":35},{"id":547,"name":"Access Road Infrastructure 0547","operator":"Sterling Resources","sector":"mining","sector_label":"Mining & Metals","region":"europe","region_label":"Europe","project_type":"infrastructure","project_type_label":"Infrastructure","size_band":"mega","sanction_year":2014,"capex_estimate":554.4,"capex_actual":634.8,"cost_growth":0.145021645021645,"schedule_slip":0.016129032258064457,"fel_score":40},{"id":554,"name":"Access Road Infrastructure 0554","operator":"Sterling Operations","sector":"mining","sector_label":"Mining & Metals","region":"south_america","region_label":"South America","project_type":"infrastructure","project_type_label":"Infrastructure","size_band":"mega","sanction_year":2014,"capex_estimate":1111.8,"capex_actual":1236.9,"cost_growth":0.1125202374527794,"schedule_slip":0.10726643598615923,"fel_score":50},{"id":576,"name":"Access Road Infrastructure 0576","operator":"Vanguard Operations","sector":"mining","sector_label":"Mining & Metals","region":"asia_pacific","region_label":"Asia Pacific","project_type":"infrastructure","project_type_label":"Infrastructure","size_band":"mega","sanction_year":2020,"capex_estimate":874.2,"capex_actual":971.8,"cost_growth":0.11164493250972307,"schedule_slip":0.0544959128065395,"fel_score":71},{"id":592,"name":"Access Road Infrastructure 0592","operator":"Pioneer Industries","sector":"mining","sector_label":"Mining & Metals","region":"south_america","region_label":"South America","project_type":"infrastructure","project_type_label":"Infrastructure","size_band":"mega","sanction_year":2017,"capex_estimate":997.4,"capex_actual":1122.1,"cost_growth":0.12502506516944048,"schedule_slip":0.05622489959839366,"fel_score":69},{"id":652,"name":"Access Road Infrastructure 0652","operator":"Sterling Resources","sector":"mining","sector_label":"Mining & Metals","region":"middle_east","region_label":"Middle East & Africa","project_type":"infrastructure","project_type_label":"Infrastructure","size_band":"mega","sanction_year":2020,"capex_estimate":1591.9,"capex_actual":1647.6,"cost_growth":0.03498963502732572,"schedule_slip":0.03433476394849788,"fel_score":65},{"id":672,"name":"Access Road Infrastructure 0672","operator":"Cascade Energy","sector":"mining","sector_label":"Mining & Metals","region":"south_america","region_label":"South America","project_type":"infrastructure","project_type_label":"Infrastructure","size_band":"mega","sanction_year":2016,"capex_estimate":974.9,"capex_actual":1123.8,"cost_growth":0.15273361370396962,"schedule_slip":-0.043478260869565216,"fel_score":69},{"id":683,"name":"Access Road Infrastructure 0683","operator":"Cascade Industries","sector":"mining","sector_label":"Mining & Metals","region":"europe","region_label":"Europe","project_type":"infrastructure","project_type_label":"Infrastructure","size_band":"mega","sanction_year":2021,"capex_estimate":688.5,"capex_actual":803.5,"cost_growth":0.16702977487291212,"schedule_slip":0.09463722397476353,"fel_score":22},{"id":702,"name":"Access Road Infrastructure 0702","operator":"Pioneer Resources","sector":"mining","sector_label":"Mining & Metals","region":"europe","region_label":"Europe","project_type":"infrastructure","project_type_label":"Infrastructure","size_band":"large","sanction_year":2015,"capex_estimate":299.1,"capex_actual":319.7,"cost_growth":0.06887328652624529,"schedule_slip":0.07142857142857148,"fel_score":65},{"id":752,"name":"Access Road Infrastructure 0752","operator":"Northgate Resources","sector":"mining","sector_label":"Mining & Metals","region":"north_america","region_label":"North America","project_type":"infrastructure","project_type_label":"Infrastructure","size_band":"large","sanction_year":2016,"capex_estimate":113.7,"capex_actual":117.2,"cost_growth":0.030782761653474055,"schedule_slip":0.11976047904191617,"fel_score":69},{"id":963,"name":"Access Road Infrastructure 0963","operator":"Sterling Industries","sector":"mining","sector_label":"Mining & Metals","region":"asia_pacific","region_label":"Asia Pacific","project_type":"infrastructure","project_type_label":"Infrastructure","size_band":"large","sanction_year":2018,"capex_estimate":299.5,"capex_actual":324.2,"cost_growth":0.08247078464106841,"schedule_slip":0.08860759493670876,"fel_score":40},{"id":976,"name":"Access Road Infrastructure 0976","operator":"Harbor Operations","sector":"mining","sector_label":"Mining & Metals","region":"europe","region_label":"Europe","project_type":"infrastructure","project_type_label":"Infrastructure","size_band":"mega","sanction_year":2021,"capex_estimate":755.6,"capex_actual":834.0,"cost_growth":0.10375860243515084,"schedule_slip":0.005763688760806793,"fel_score":65},{"id":1124,"name":"Access Road Infrastructure 1124","operator":"Granite Energy","sector":"mining","sector_label":"Mining & Metals","region":"south_america","region_label":"South America","project_type":"infrastructure","project_type_label":"Infrastructure","size_band":"medium","sanction_year":2014,"capex_estimate":84.1,"capex_actual":87.9,"cost_growth":0.04518430439952451,"schedule_slip":0.0,"fel_score":81},{"id":1159,"name":"Access Road Infrastructure 1159","operator":"Granite Operations","sector":"mining","sector_label":"Mining & Metals","region":"europe","region_label":"Europe","project_type":"infrastructure","project_type_label":"Infrastructure","size_band":"mega","sanction_year":2018,"capex_estimate":1359.3,"capex_actual":1391.2,"cost_growth":0.023467961450746776,"schedule_slip":0.055793991416309044,"fel_score":60},{"id":1162,"name":"Access Road Infrastructure 1162","operator":"Atlas Industries","sector":"mining","sector_label":"Mining & Metals","region":"north_america","region_label":"North America","project_type":"infrastructure","project_type_label":"Infrastructure","size_band":"mega","sanction_year":2014,"capex_estimate":2324.1,"capex_actual":2479.0,"cost_growth":0.06664945570328304,"schedule_slip":0.05882352941176478,"fel_score":69},{"id":1178,"name":"Access Road Infrastructure 1178","operator":"Sterling Resources","sector":"mining","sector_label":"Mining & Metals","region":"asia_pacific","region_label":"Asia Pacific","project_type":"infrastructure","project_type_label":"Infrastructure","size_band":"large","sanction_year":2017,"capex_estimate":171.0,"capex_actual":182.0,"cost_growth":0.06432748538011696,"schedule_slip":0.1972318339100347,"fel_score":41},{"id":1322,"name":"Access Road Infrastructure 1322","operator":"Cascade Operations","sector":"mining","sector_label":"Mining & Metals","region":"north_america","region_label":"North America","project_type":"infrastructure","project_type_label":"Infrastructure","size_band":"large","sanction_year":2020,"capex_estimate":187.3,"capex_actual":203.5,"cost_growth":0.0864922584089695,"schedule_slip":0.06825938566552901,"fel_score":50},{"id":1408,"name":"Access Road Infrastructure 1408","operator":"Keystone Resources","sector":"mining","sector_label":"Mining & Metals","region":"south_america","region_label":"South America","project_type":"infrastructure","project_type_label":"Infrastructure","size_band":"mega","sanction_year":2021,"capex_estimate":812.6,"capex_actual":881.3,"cost_growth":0.08454344080728517,"schedule_slip":-0.0634920634920634,"fel_score":75},{"id":1616,"name":"Access Road Infrastructure 1616","operator":"Granite Resources","sector":"mining","sector_label":"Mining & Metals","region":"north_america","region_label":"North America","project_type":"infrastructure","project_type_label":"Infrastructure","size_band":"mega","sanction_year":2017,"capex_estimate":1678.0,"capex_actual":1990.1,"cost_growth":0.18599523241954702,"schedule_slip":0.12608695652173907,"fel_score":66},{"id":1626,"name":"Access Road Infrastructure 1626","operator":"Harbor Industries","sector":"mining","sector_label":"Mining & Metals","region":"south_america","region_label":"South America","project_type":"infrastructure","project_type_label":"Infrastructure","size_band":"mega","sanction_year":2021,"capex_estimate":1447.8,"capex_actual":1648.4,"cost_growth":0.13855504903992275,"schedule_slip":0.06211180124223602,"fel_score":79},{"id":1737,"name":"Access Road Infrastructure 1737","operator":"Cascade Materials","sector":"mining","sector_label":"Mining & Metals","region":"south_america","region_label":"South America","project_type":"infrastructure","project_type_label":"Infrastructure","size_band":"mega","sanction_year":2017,"capex_estimate":573.3,"capex_actual":508.6,"cost_growth":-0.11285539856968417,"schedule_slip":0.014925373134328358,"fel_score":84},{"id":1829,"name":"Access Road Infrastructure 1829","operator":"Cascade Operations","sector":"mining","sector_label":"Mining & Metals","region":"north_america","region_label":"North America","project_type":"infrastructure","project_type_label":"Infrastructure","size_band":"mega","sanction_year":2014,"capex_estimate":782.5,"capex_actual":896.8,"cost_growth":0.14607028753993603,"schedule_slip":-0.02068965517241384,"fel_score":31}]}