{"count":111,"next":"http://testserver/api/projects/?ordering=name&page=2&project_type=asset_replacement&sector=mining","previous":null,"results":[{"id":56,"name":"Boiler Asset 0056","operator":"Keystone Industries","sector":"mining","sector_label":"Mining & Metals","region":"asia_pacific","region_label":"Asia Pacific","project_type":"asset_replacement","project_type_label":"Asset Replacement","size_band":"mega","sanction_year":2017,"capex_estimate":1191.0,"capex_actual":1252.5,"cost_growth":0.05163727959697733,"schedule_slip":0.05026455026455042,"fel_score":69},{"id":102,"name":"Boiler Asset 0102","operator":"Sterling Energy","sector":"mining","sector_label":"Mining & Metals","region":"asia_pacific","region_label":"Asia Pacific","project_type":"asset_replacement","project_type_label":"Asset Replacement","size_band":"large","sanction_year":2017,"capex_estimate":391.7,"capex_actual":374.5,"cost_growth":-0.04391115649731935,"schedule_slip":0.09006211180124218,"fel_score":50},{"id":194,"name":"Boiler Asset 0194","operator":"Granite Operations","sector":"mining","sector_label":"Mining & Metals","region":"middle_east","region_label":"Middle East & Africa","project_type":"asset_replacement","project_type_label":"Asset Replacement","size_band":"mega","sanction_year":2014,"capex_estimate":562.3,"capex_actual":584.1,"cost_growth":0.03876934020985252,"schedule_slip":0.02393617021276592,"fel_score":66},{"id":235,"name":"Boiler Asset 0235","operator":"Cascade Materials","sector":"mining","sector_label":"Mining & Metals","region":"south_america","region_label":"South America","project_type":"asset_replacement","project_type_label":"Asset Replacement","size_band":"large","sanction_year":2020,"capex_estimate":417.3,"capex_actual":441.1,"cost_growth":0.05703330936975799,"schedule_slip":0.03225806451612891,"fel_score":69},{"id":338,"name":"Boiler Asset 0338","operator":"Pioneer Industries","sector":"mining","sector_label":"Mining & Metals","region":"south_america","region_label":"South America","project_type":"asset_replacement","project_type_label":"Asset Replacement","size_band":"large","sanction_year":2016,"capex_estimate":129.9,"capex_actual":130.8,"cost_growth":0.006928406466512746,"schedule_slip":-0.027237354085603085,"fel_score":69},{"id":348,"name":"Boiler Asset 0348","operator":"Harbor Resources","sector":"mining","sector_label":"Mining & Metals","region":"asia_pacific","region_label":"Asia Pacific","project_type":"asset_replacement","project_type_label":"Asset Replacement","size_band":"large","sanction_year":2017,"capex_estimate":314.9,"capex_actual":356.2,"cost_growth":0.131152746903779,"schedule_slip":0.07878787878787884,"fel_score":40},{"id":389,"name":"Boiler Asset 0389","operator":"Harbor Materials","sector":"mining","sector_label":"Mining & Metals","region":"asia_pacific","region_label":"Asia Pacific","project_type":"asset_replacement","project_type_label":"Asset Replacement","size_band":"large","sanction_year":2018,"capex_estimate":320.6,"capex_actual":353.5,"cost_growth":0.10262008733624446,"schedule_slip":0.17857142857142858,"fel_score":31},{"id":475,"name":"Boiler Asset 0475","operator":"Harbor Industries","sector":"mining","sector_label":"Mining & Metals","region":"asia_pacific","region_label":"Asia Pacific","project_type":"asset_replacement","project_type_label":"Asset Replacement","size_band":"mega","sanction_year":2020,"capex_estimate":2004.0,"capex_actual":2043.7,"cost_growth":0.01981037924151699,"schedule_slip":0.02179176755447956,"fel_score":82},{"id":478,"name":"Boiler Asset 0478","operator":"Meridian Operations","sector":"mining","sector_label":"Mining & Metals","region":"south_america","region_label":"South America","project_type":"asset_replacement","project_type_label":"Asset Replacement","size_band":"mega","sanction_year":2022,"capex_estimate":1640.2,"capex_actual":1837.6,"cost_growth":0.12035117668576994,"schedule_slip":-0.043824701195219175,"fel_score":59},{"id":610,"name":"Boiler Asset 0610","operator":"Cardinal Energy","sector":"mining","sector_label":"Mining & Metals","region":"europe","region_label":"Europe","project_type":"asset_replacement","project_type_label":"Asset Replacement","size_band":"large","sanction_year":2018,"capex_estimate":222.9,"capex_actual":240.2,"cost_growth":0.07761327949753245,"schedule_slip":0.022058823529411818,"fel_score":65},{"id":678,"name":"Boiler Asset 0678","operator":"Pioneer Materials","sector":"mining","sector_label":"Mining & Metals","region":"middle_east","region_label":"Middle East & Africa","project_type":"asset_replacement","project_type_label":"Asset Replacement","size_band":"mega","sanction_year":2021,"capex_estimate":1786.8,"capex_actual":2014.2,"cost_growth":0.12726662189388857,"schedule_slip":0.1295843520782397,"fel_score":25},{"id":706,"name":"Boiler Asset 0706","operator":"Summit Materials","sector":"mining","sector_label":"Mining & Metals","region":"asia_pacific","region_label":"Asia Pacific","project_type":"asset_replacement","project_type_label":"Asset Replacement","size_band":"mega","sanction_year":2020,"capex_estimate":1253.4,"capex_actual":1246.9,"cost_growth":-0.005185894367320887,"schedule_slip":0.07159904534606205,"fel_score":46},{"id":968,"name":"Boiler Asset 0968","operator":"Vanguard Industries","sector":"mining","sector_label":"Mining & Metals","region":"north_america","region_label":"North America","project_type":"asset_replacement","project_type_label":"Asset Replacement","size_band":"mega","sanction_year":2019,"capex_estimate":1391.6,"capex_actual":1529.5,"cost_growth":0.09909456740442663,"schedule_slip":-0.03989361702127659,"fel_score":65},{"id":1045,"name":"Boiler Asset 1045","operator":"Harbor Materials","sector":"mining","sector_label":"Mining & Metals","region":"middle_east","region_label":"Middle East & Africa","project_type":"asset_replacement","project_type_label":"Asset Replacement","size_band":"mega","sanction_year":2024,"capex_estimate":919.3,"capex_actual":986.8,"cost_growth":0.073425432394213,"schedule_slip":0.04615384615384608,"fel_score":60},{"id":1090,"name":"Boiler Asset 1090","operator":"Northgate Energy","sector":"mining","sector_label":"Mining & Metals","region":"south_america","region_label":"South America","project_type":"asset_replacement","project_type_label":"Asset Replacement","size_band":"mega","sanction_year":2017,"capex_estimate":886.3,"capex_actual":986.0,"cost_growth":0.11249012749633312,"schedule_slip":0.16118421052631576,"fel_score":34},{"id":1219,"name":"Boiler Asset 1219","operator":"Atlas Industries","sector":"mining","sector_label":"Mining & Metals","region":"middle_east","region_label":"Middle East & Africa","project_type":"asset_replacement","project_type_label":"Asset Replacement","size_band":"mega","sanction_year":2020,"capex_estimate":1757.4,"capex_actual":1910.8,"cost_growth":0.08728803914874238,"schedule_slip":0.03381642512077292,"fel_score":65},{"id":1222,"name":"Boiler Asset 1222","operator":"Atlas Resources","sector":"mining","sector_label":"Mining & Metals","region":"south_america","region_label":"South America","project_type":"asset_replacement","project_type_label":"Asset Replacement","size_band":"large","sanction_year":2024,"capex_estimate":191.4,"capex_actual":198.3,"cost_growth":0.03605015673981194,"schedule_slip":0.12000000000000002,"fel_score":50},{"id":1362,"name":"Boiler Asset 1362","operator":"Cascade Materials","sector":"mining","sector_label":"Mining & Metals","region":"south_america","region_label":"South America","project_type":"asset_replacement","project_type_label":"Asset Replacement","size_band":"mega","sanction_year":2017,"capex_estimate":878.7,"capex_actual":770.1,"cost_growth":-0.12359166951177879,"schedule_slip":-0.009118541033434565,"fel_score":60},{"id":1367,"name":"Boiler Asset 1367","operator":"Summit Resources","sector":"mining","sector_label":"Mining & Metals","region":"europe","region_label":"Europe","project_type":"asset_replacement","project_type_label":"Asset Replacement","size_band":"mega","sanction_year":2022,"capex_estimate":1239.3,"capex_actual":1468.0,"cost_growth":0.1845396594851933,"schedule_slip":0.0053763440860213904,"fel_score":69},{"id":1556,"name":"Boiler Asset 1556","operator":"Atlas Materials","sector":"mining","sector_label":"Mining & Metals","region":"europe","region_label":"Europe","project_type":"asset_replacement","project_type_label":"Asset Replacement","size_band":"large","sanction_year":2018,"capex_estimate":325.3,"capex_actual":357.6,"cost_growth":0.0992929603442976,"schedule_slip":0.020408163265306048,"fel_score":69},{"id":1630,"name":"Boiler Asset 1630","operator":"Summit Materials","sector":"mining","sector_label":"Mining & Metals","region":"asia_pacific","region_label":"Asia Pacific","project_type":"asset_replacement","project_type_label":"Asset Replacement","size_band":"large","sanction_year":2020,"capex_estimate":302.6,"capex_actual":277.9,"cost_growth":-0.08162590879048263,"schedule_slip":0.10588235294117651,"fel_score":65},{"id":1846,"name":"Boiler Asset 1846","operator":"Sterling Materials","sector":"mining","sector_label":"Mining & Metals","region":"europe","region_label":"Europe","project_type":"asset_replacement","project_type_label":"Asset Replacement","size_band":"mega","sanction_year":2018,"capex_estimate":2046.5,"capex_actual":2406.0,"cost_growth":0.17566577082824333,"schedule_slip":0.1388888888888889,"fel_score":34},{"id":1939,"name":"Boiler Asset 1939","operator":"Atlas Resources","sector":"mining","sector_label":"Mining & Metals","region":"south_america","region_label":"South America","project_type":"asset_replacement","project_type_label":"Asset Replacement","size_band":"mega","sanction_year":2022,"capex_estimate":903.4,"capex_actual":893.0,"cost_growth":-0.011512065530219147,"schedule_slip":0.08947368421052627,"fel_score":82},{"id":1959,"name":"Boiler Asset 1959","operator":"Cascade Resources","sector":"mining","sector_label":"Mining & Metals","region":"south_america","region_label":"South America","project_type":"asset_replacement","project_type_label":"Asset Replacement","size_band":"mega","sanction_year":2020,"capex_estimate":779.4,"capex_actual":748.2,"cost_growth":-0.04003079291762886,"schedule_slip":0.0,"fel_score":81},{"id":1998,"name":"Boiler Asset 1998","operator":"Summit Energy","sector":"mining","sector_label":"Mining & Metals","region":"north_america","region_label":"North America","project_type":"asset_replacement","project_type_label":"Asset Replacement","size_band":"mega","sanction_year":2016,"capex_estimate":506.1,"capex_actual":611.8,"cost_growth":0.20885200553250333,"schedule_slip":0.13242009132420102,"fel_score":50}]}