{"count":61,"next":"http://testserver/api/projects/?ordering=name&page=2&project_type=infrastructure&sector=power","previous":null,"results":[{"id":109,"name":"Access Road Infrastructure 0109","operator":"Granite Industries","sector":"power","sector_label":"Power & Utilities","region":"south_america","region_label":"South America","project_type":"infrastructure","project_type_label":"Infrastructure","size_band":"mega","sanction_year":2023,"capex_estimate":1092.1,"capex_actual":1191.1,"cost_growth":0.09065103928211703,"schedule_slip":0.11724137931034478,"fel_score":50},{"id":143,"name":"Access Road Infrastructure 0143","operator":"Atlas Energy","sector":"power","sector_label":"Power & Utilities","region":"europe","region_label":"Europe","project_type":"infrastructure","project_type_label":"Infrastructure","size_band":"mega","sanction_year":2023,"capex_estimate":1290.3,"capex_actual":1096.8,"cost_growth":-0.14996512438967682,"schedule_slip":0.041297935103244796,"fel_score":100},{"id":319,"name":"Access Road Infrastructure 0319","operator":"Harbor Resources","sector":"power","sector_label":"Power & Utilities","region":"north_america","region_label":"North America","project_type":"infrastructure","project_type_label":"Infrastructure","size_band":"large","sanction_year":2022,"capex_estimate":258.9,"capex_actual":259.0,"cost_growth":0.0003862495171881914,"schedule_slip":0.0625,"fel_score":71},{"id":597,"name":"Access Road Infrastructure 0597","operator":"Meridian Energy","sector":"power","sector_label":"Power & Utilities","region":"asia_pacific","region_label":"Asia Pacific","project_type":"infrastructure","project_type_label":"Infrastructure","size_band":"large","sanction_year":2021,"capex_estimate":274.5,"capex_actual":273.7,"cost_growth":-0.002914389799635743,"schedule_slip":0.06500000000000003,"fel_score":50},{"id":743,"name":"Access Road Infrastructure 0743","operator":"Cardinal Resources","sector":"power","sector_label":"Power & Utilities","region":"south_america","region_label":"South America","project_type":"infrastructure","project_type_label":"Infrastructure","size_band":"mega","sanction_year":2021,"capex_estimate":542.3,"capex_actual":596.4,"cost_growth":0.0997602802876637,"schedule_slip":0.08135593220338978,"fel_score":51},{"id":822,"name":"Access Road Infrastructure 0822","operator":"Cascade Energy","sector":"power","sector_label":"Power & Utilities","region":"south_america","region_label":"South America","project_type":"infrastructure","project_type_label":"Infrastructure","size_band":"large","sanction_year":2015,"capex_estimate":301.4,"capex_actual":315.4,"cost_growth":0.04644990046449901,"schedule_slip":-0.06209150326797392,"fel_score":62},{"id":863,"name":"Access Road Infrastructure 0863","operator":"Granite Resources","sector":"power","sector_label":"Power & Utilities","region":"asia_pacific","region_label":"Asia Pacific","project_type":"infrastructure","project_type_label":"Infrastructure","size_band":"large","sanction_year":2020,"capex_estimate":410.1,"capex_actual":485.5,"cost_growth":0.18385759570836374,"schedule_slip":0.008310249307479145,"fel_score":52},{"id":903,"name":"Access Road Infrastructure 0903","operator":"Sterling Industries","sector":"power","sector_label":"Power & Utilities","region":"north_america","region_label":"North America","project_type":"infrastructure","project_type_label":"Infrastructure","size_band":"large","sanction_year":2016,"capex_estimate":378.7,"capex_actual":408.7,"cost_growth":0.07921837866385001,"schedule_slip":-0.029411764705882422,"fel_score":75},{"id":1003,"name":"Access Road Infrastructure 1003","operator":"Vanguard Resources","sector":"power","sector_label":"Power & Utilities","region":"europe","region_label":"Europe","project_type":"infrastructure","project_type_label":"Infrastructure","size_band":"large","sanction_year":2016,"capex_estimate":411.8,"capex_actual":461.8,"cost_growth":0.12141816415735794,"schedule_slip":0.14705882352941177,"fel_score":32},{"id":1031,"name":"Access Road Infrastructure 1031","operator":"Atlas Resources","sector":"power","sector_label":"Power & Utilities","region":"asia_pacific","region_label":"Asia Pacific","project_type":"infrastructure","project_type_label":"Infrastructure","size_band":"large","sanction_year":2019,"capex_estimate":448.5,"capex_actual":483.4,"cost_growth":0.07781493868450386,"schedule_slip":0.03370786516853941,"fel_score":66},{"id":1244,"name":"Access Road Infrastructure 1244","operator":"Cardinal Industries","sector":"power","sector_label":"Power & Utilities","region":"north_america","region_label":"North America","project_type":"infrastructure","project_type_label":"Infrastructure","size_band":"large","sanction_year":2021,"capex_estimate":182.9,"capex_actual":223.6,"cost_growth":0.2225259704756697,"schedule_slip":0.04575163398692805,"fel_score":31},{"id":1265,"name":"Access Road Infrastructure 1265","operator":"Summit Materials","sector":"power","sector_label":"Power & Utilities","region":"asia_pacific","region_label":"Asia Pacific","project_type":"infrastructure","project_type_label":"Infrastructure","size_band":"large","sanction_year":2018,"capex_estimate":214.5,"capex_actual":260.6,"cost_growth":0.214918414918415,"schedule_slip":0.05244755244755245,"fel_score":49},{"id":1301,"name":"Access Road Infrastructure 1301","operator":"Pioneer Industries","sector":"power","sector_label":"Power & Utilities","region":"north_america","region_label":"North America","project_type":"infrastructure","project_type_label":"Infrastructure","size_band":"mega","sanction_year":2016,"capex_estimate":740.3,"capex_actual":800.5,"cost_growth":0.08131838443874112,"schedule_slip":0.09917355371900831,"fel_score":50},{"id":1564,"name":"Access Road Infrastructure 1564","operator":"Meridian Energy","sector":"power","sector_label":"Power & Utilities","region":"europe","region_label":"Europe","project_type":"infrastructure","project_type_label":"Infrastructure","size_band":"large","sanction_year":2023,"capex_estimate":372.7,"capex_actual":347.5,"cost_growth":-0.06761470351489131,"schedule_slip":-0.0064935064935064705,"fel_score":71},{"id":1856,"name":"Access Road Infrastructure 1856","operator":"Atlas Energy","sector":"power","sector_label":"Power & Utilities","region":"north_america","region_label":"North America","project_type":"infrastructure","project_type_label":"Infrastructure","size_band":"mega","sanction_year":2020,"capex_estimate":756.9,"capex_actual":845.2,"cost_growth":0.11666006077421069,"schedule_slip":0.21428571428571427,"fel_score":25},{"id":1858,"name":"Access Road Infrastructure 1858","operator":"Keystone Materials","sector":"power","sector_label":"Power & Utilities","region":"asia_pacific","region_label":"Asia Pacific","project_type":"infrastructure","project_type_label":"Infrastructure","size_band":"large","sanction_year":2017,"capex_estimate":195.4,"capex_actual":235.5,"cost_growth":0.20522006141248716,"schedule_slip":0.04938271604938276,"fel_score":42},{"id":1952,"name":"Access Road Infrastructure 1952","operator":"Granite Energy","sector":"power","sector_label":"Power & Utilities","region":"asia_pacific","region_label":"Asia Pacific","project_type":"infrastructure","project_type_label":"Infrastructure","size_band":"mega","sanction_year":2018,"capex_estimate":742.6,"capex_actual":791.7,"cost_growth":0.06611904120657154,"schedule_slip":-0.026455026455026457,"fel_score":50},{"id":168,"name":"Pipeline Infrastructure 0168","operator":"Atlas Operations","sector":"power","sector_label":"Power & Utilities","region":"europe","region_label":"Europe","project_type":"infrastructure","project_type_label":"Infrastructure","size_band":"medium","sanction_year":2014,"capex_estimate":94.0,"capex_actual":99.7,"cost_growth":0.06063829787234046,"schedule_slip":0.1304347826086958,"fel_score":50},{"id":218,"name":"Pipeline Infrastructure 0218","operator":"Keystone Industries","sector":"power","sector_label":"Power & Utilities","region":"europe","region_label":"Europe","project_type":"infrastructure","project_type_label":"Infrastructure","size_band":"large","sanction_year":2018,"capex_estimate":207.4,"capex_actual":235.5,"cost_growth":0.13548698167791703,"schedule_slip":0.11527377521613832,"fel_score":50},{"id":230,"name":"Pipeline Infrastructure 0230","operator":"Keystone Materials","sector":"power","sector_label":"Power & Utilities","region":"south_america","region_label":"South America","project_type":"infrastructure","project_type_label":"Infrastructure","size_band":"mega","sanction_year":2023,"capex_estimate":506.1,"capex_actual":538.9,"cost_growth":0.06480932622011451,"schedule_slip":0.09022556390977438,"fel_score":50},{"id":472,"name":"Pipeline Infrastructure 0472","operator":"Northgate Industries","sector":"power","sector_label":"Power & Utilities","region":"north_america","region_label":"North America","project_type":"infrastructure","project_type_label":"Infrastructure","size_band":"large","sanction_year":2017,"capex_estimate":439.0,"capex_actual":484.0,"cost_growth":0.10250569476082004,"schedule_slip":0.11764705882352952,"fel_score":50},{"id":498,"name":"Pipeline Infrastructure 0498","operator":"Harbor Energy","sector":"power","sector_label":"Power & Utilities","region":"asia_pacific","region_label":"Asia Pacific","project_type":"infrastructure","project_type_label":"Infrastructure","size_band":"mega","sanction_year":2021,"capex_estimate":627.0,"capex_actual":660.7,"cost_growth":0.0537480063795854,"schedule_slip":0.04400977995110035,"fel_score":56},{"id":848,"name":"Pipeline Infrastructure 0848","operator":"Granite Industries","sector":"power","sector_label":"Power & Utilities","region":"asia_pacific","region_label":"Asia Pacific","project_type":"infrastructure","project_type_label":"Infrastructure","size_band":"mega","sanction_year":2021,"capex_estimate":1499.2,"capex_actual":1772.8,"cost_growth":0.1824973319103521,"schedule_slip":0.10027855153203347,"fel_score":0},{"id":856,"name":"Pipeline Infrastructure 0856","operator":"Atlas Resources","sector":"power","sector_label":"Power & Utilities","region":"north_america","region_label":"North America","project_type":"infrastructure","project_type_label":"Infrastructure","size_band":"mega","sanction_year":2017,"capex_estimate":971.7,"capex_actual":1009.8,"cost_growth":0.039209632602655045,"schedule_slip":0.015037593984962442,"fel_score":69},{"id":909,"name":"Pipeline Infrastructure 0909","operator":"Meridian Resources","sector":"power","sector_label":"Power & Utilities","region":"middle_east","region_label":"Middle East & Africa","project_type":"infrastructure","project_type_label":"Infrastructure","size_band":"large","sanction_year":2024,"capex_estimate":164.8,"capex_actual":159.4,"cost_growth":-0.03276699029126217,"schedule_slip":0.1875,"fel_score":50}]}