{"count":73,"next":"http://testserver/api/projects/?ordering=name&page=2&project_type=infrastructure&sector=chemicals","previous":null,"results":[{"id":14,"name":"Access Road Infrastructure 0014","operator":"Cardinal Operations","sector":"chemicals","sector_label":"Chemicals","region":"asia_pacific","region_label":"Asia Pacific","project_type":"infrastructure","project_type_label":"Infrastructure","size_band":"large","sanction_year":2018,"capex_estimate":170.9,"capex_actual":183.2,"cost_growth":0.07197191339964881,"schedule_slip":0.13427561837455831,"fel_score":56},{"id":214,"name":"Access Road Infrastructure 0214","operator":"Meridian Materials","sector":"chemicals","sector_label":"Chemicals","region":"middle_east","region_label":"Middle East & Africa","project_type":"infrastructure","project_type_label":"Infrastructure","size_band":"mega","sanction_year":2022,"capex_estimate":1421.5,"capex_actual":1399.7,"cost_growth":-0.015335912768202571,"schedule_slip":-0.043589743589743664,"fel_score":81},{"id":238,"name":"Access Road Infrastructure 0238","operator":"Meridian Operations","sector":"chemicals","sector_label":"Chemicals","region":"asia_pacific","region_label":"Asia Pacific","project_type":"infrastructure","project_type_label":"Infrastructure","size_band":"mega","sanction_year":2019,"capex_estimate":783.2,"capex_actual":818.5,"cost_growth":0.04507150153217563,"schedule_slip":0.1020408163265306,"fel_score":65},{"id":271,"name":"Access Road Infrastructure 0271","operator":"Atlas Industries","sector":"chemicals","sector_label":"Chemicals","region":"asia_pacific","region_label":"Asia Pacific","project_type":"infrastructure","project_type_label":"Infrastructure","size_band":"mega","sanction_year":2023,"capex_estimate":1448.6,"capex_actual":1658.6,"cost_growth":0.14496755488057436,"schedule_slip":0.10994764397905747,"fel_score":50},{"id":298,"name":"Access Road Infrastructure 0298","operator":"Sterling Materials","sector":"chemicals","sector_label":"Chemicals","region":"europe","region_label":"Europe","project_type":"infrastructure","project_type_label":"Infrastructure","size_band":"large","sanction_year":2018,"capex_estimate":436.4,"capex_actual":484.7,"cost_growth":0.11067827681026585,"schedule_slip":0.12454212454212449,"fel_score":56},{"id":307,"name":"Access Road Infrastructure 0307","operator":"Keystone Operations","sector":"chemicals","sector_label":"Chemicals","region":"middle_east","region_label":"Middle East & Africa","project_type":"infrastructure","project_type_label":"Infrastructure","size_band":"mega","sanction_year":2014,"capex_estimate":870.8,"capex_actual":955.1,"cost_growth":0.09680753330271023,"schedule_slip":-0.0063694267515923345,"fel_score":41},{"id":326,"name":"Access Road Infrastructure 0326","operator":"Meridian Operations","sector":"chemicals","sector_label":"Chemicals","region":"north_america","region_label":"North America","project_type":"infrastructure","project_type_label":"Infrastructure","size_band":"large","sanction_year":2022,"capex_estimate":302.8,"capex_actual":325.0,"cost_growth":0.0733157199471598,"schedule_slip":0.08366533864541824,"fel_score":60},{"id":583,"name":"Access Road Infrastructure 0583","operator":"Northgate Industries","sector":"chemicals","sector_label":"Chemicals","region":"europe","region_label":"Europe","project_type":"infrastructure","project_type_label":"Infrastructure","size_band":"large","sanction_year":2023,"capex_estimate":227.5,"capex_actual":240.5,"cost_growth":0.05714285714285714,"schedule_slip":0.07916666666666661,"fel_score":50},{"id":598,"name":"Access Road Infrastructure 0598","operator":"Cardinal Operations","sector":"chemicals","sector_label":"Chemicals","region":"asia_pacific","region_label":"Asia Pacific","project_type":"infrastructure","project_type_label":"Infrastructure","size_band":"mega","sanction_year":2023,"capex_estimate":1077.7,"capex_actual":1300.0,"cost_growth":0.20627261761158017,"schedule_slip":0.012383900928792747,"fel_score":62},{"id":647,"name":"Access Road Infrastructure 0647","operator":"Keystone Materials","sector":"chemicals","sector_label":"Chemicals","region":"middle_east","region_label":"Middle East & Africa","project_type":"infrastructure","project_type_label":"Infrastructure","size_band":"mega","sanction_year":2017,"capex_estimate":932.1,"capex_actual":1073.2,"cost_growth":0.15137860744555307,"schedule_slip":-0.06796116504854378,"fel_score":31},{"id":762,"name":"Access Road Infrastructure 0762","operator":"Meridian Materials","sector":"chemicals","sector_label":"Chemicals","region":"middle_east","region_label":"Middle East & Africa","project_type":"infrastructure","project_type_label":"Infrastructure","size_band":"mega","sanction_year":2022,"capex_estimate":992.0,"capex_actual":843.2,"cost_growth":-0.14999999999999997,"schedule_slip":0.07507507507507508,"fel_score":100},{"id":900,"name":"Access Road Infrastructure 0900","operator":"Cascade Materials","sector":"chemicals","sector_label":"Chemicals","region":"south_america","region_label":"South America","project_type":"infrastructure","project_type_label":"Infrastructure","size_band":"mega","sanction_year":2017,"capex_estimate":1271.9,"capex_actual":1141.7,"cost_growth":-0.10236653824986244,"schedule_slip":0.025210084033613356,"fel_score":81},{"id":1081,"name":"Access Road Infrastructure 1081","operator":"Vanguard Materials","sector":"chemicals","sector_label":"Chemicals","region":"middle_east","region_label":"Middle East & Africa","project_type":"infrastructure","project_type_label":"Infrastructure","size_band":"large","sanction_year":2021,"capex_estimate":315.4,"capex_actual":299.2,"cost_growth":-0.05136334812935951,"schedule_slip":-0.04419889502762434,"fel_score":60},{"id":1156,"name":"Access Road Infrastructure 1156","operator":"Harbor Industries","sector":"chemicals","sector_label":"Chemicals","region":"north_america","region_label":"North America","project_type":"infrastructure","project_type_label":"Infrastructure","size_band":"mega","sanction_year":2014,"capex_estimate":527.1,"capex_actual":599.5,"cost_growth":0.1373553405425915,"schedule_slip":0.13390313390313377,"fel_score":25},{"id":1253,"name":"Access Road Infrastructure 1253","operator":"Cardinal Resources","sector":"chemicals","sector_label":"Chemicals","region":"south_america","region_label":"South America","project_type":"infrastructure","project_type_label":"Infrastructure","size_band":"mega","sanction_year":2022,"capex_estimate":969.4,"capex_actual":1070.7,"cost_growth":0.10449762739839083,"schedule_slip":0.1079136690647482,"fel_score":66},{"id":1349,"name":"Access Road Infrastructure 1349","operator":"Atlas Industries","sector":"chemicals","sector_label":"Chemicals","region":"middle_east","region_label":"Middle East & Africa","project_type":"infrastructure","project_type_label":"Infrastructure","size_band":"mega","sanction_year":2021,"capex_estimate":578.0,"capex_actual":717.8,"cost_growth":0.24186851211072657,"schedule_slip":0.06875000000000009,"fel_score":10},{"id":1361,"name":"Access Road Infrastructure 1361","operator":"Meridian Resources","sector":"chemicals","sector_label":"Chemicals","region":"middle_east","region_label":"Middle East & Africa","project_type":"infrastructure","project_type_label":"Infrastructure","size_band":"large","sanction_year":2024,"capex_estimate":180.6,"capex_actual":194.5,"cost_growth":0.07696566998892583,"schedule_slip":-0.12230215827338137,"fel_score":100},{"id":1374,"name":"Access Road Infrastructure 1374","operator":"Sterling Industries","sector":"chemicals","sector_label":"Chemicals","region":"asia_pacific","region_label":"Asia Pacific","project_type":"infrastructure","project_type_label":"Infrastructure","size_band":"large","sanction_year":2014,"capex_estimate":463.4,"capex_actual":474.9,"cost_growth":0.024816573154941735,"schedule_slip":0.11702127659574464,"fel_score":60},{"id":1419,"name":"Access Road Infrastructure 1419","operator":"Cardinal Industries","sector":"chemicals","sector_label":"Chemicals","region":"asia_pacific","region_label":"Asia Pacific","project_type":"infrastructure","project_type_label":"Infrastructure","size_band":"large","sanction_year":2016,"capex_estimate":304.8,"capex_actual":339.5,"cost_growth":0.11384514435695534,"schedule_slip":0.02739726027397263,"fel_score":60},{"id":1545,"name":"Access Road Infrastructure 1545","operator":"Northgate Energy","sector":"chemicals","sector_label":"Chemicals","region":"asia_pacific","region_label":"Asia Pacific","project_type":"infrastructure","project_type_label":"Infrastructure","size_band":"mega","sanction_year":2017,"capex_estimate":2115.5,"capex_actual":2358.9,"cost_growth":0.11505554242495868,"schedule_slip":0.09950248756218905,"fel_score":60},{"id":1778,"name":"Access Road Infrastructure 1778","operator":"Vanguard Operations","sector":"chemicals","sector_label":"Chemicals","region":"middle_east","region_label":"Middle East & Africa","project_type":"infrastructure","project_type_label":"Infrastructure","size_band":"large","sanction_year":2024,"capex_estimate":336.0,"capex_actual":411.9,"cost_growth":0.22589285714285706,"schedule_slip":0.13698630136986314,"fel_score":35},{"id":1969,"name":"Access Road Infrastructure 1969","operator":"Meridian Energy","sector":"chemicals","sector_label":"Chemicals","region":"asia_pacific","region_label":"Asia Pacific","project_type":"infrastructure","project_type_label":"Infrastructure","size_band":"medium","sanction_year":2016,"capex_estimate":91.9,"capex_actual":100.0,"cost_growth":0.08813928182807393,"schedule_slip":0.09433962264150944,"fel_score":50},{"id":33,"name":"Pipeline Infrastructure 0033","operator":"Harbor Materials","sector":"chemicals","sector_label":"Chemicals","region":"north_america","region_label":"North America","project_type":"infrastructure","project_type_label":"Infrastructure","size_band":"mega","sanction_year":2020,"capex_estimate":960.4,"capex_actual":1041.6,"cost_growth":0.08454810495626815,"schedule_slip":0.027093596059113333,"fel_score":56},{"id":92,"name":"Pipeline Infrastructure 0092","operator":"Keystone Operations","sector":"chemicals","sector_label":"Chemicals","region":"middle_east","region_label":"Middle East & Africa","project_type":"infrastructure","project_type_label":"Infrastructure","size_band":"mega","sanction_year":2016,"capex_estimate":544.6,"capex_actual":606.4,"cost_growth":0.11347778185824449,"schedule_slip":0.11731843575419003,"fel_score":25},{"id":410,"name":"Pipeline Infrastructure 0410","operator":"Northgate Resources","sector":"chemicals","sector_label":"Chemicals","region":"europe","region_label":"Europe","project_type":"infrastructure","project_type_label":"Infrastructure","size_band":"mega","sanction_year":2014,"capex_estimate":1032.7,"capex_actual":882.4,"cost_growth":-0.1455408153384333,"schedule_slip":-0.04564315352697101,"fel_score":100}]}