{"count":106,"next":"http://testserver/api/projects/?ordering=name&page=2&project_type=debottleneck&sector=mining","previous":null,"results":[{"id":11,"name":"Circuit Debottleneck 0011","operator":"Summit Resources","sector":"mining","sector_label":"Mining & Metals","region":"middle_east","region_label":"Middle East & Africa","project_type":"debottleneck","project_type_label":"Debottleneck","size_band":"large","sanction_year":2017,"capex_estimate":230.9,"capex_actual":254.4,"cost_growth":0.10177566045907319,"schedule_slip":0.04878048780487805,"fel_score":59},{"id":124,"name":"Circuit Debottleneck 0124","operator":"Meridian Operations","sector":"mining","sector_label":"Mining & Metals","region":"asia_pacific","region_label":"Asia Pacific","project_type":"debottleneck","project_type_label":"Debottleneck","size_band":"medium","sanction_year":2017,"capex_estimate":96.0,"capex_actual":100.1,"cost_growth":0.04270833333333327,"schedule_slip":-0.12121212121212131,"fel_score":90},{"id":138,"name":"Circuit Debottleneck 0138","operator":"Cardinal Resources","sector":"mining","sector_label":"Mining & Metals","region":"asia_pacific","region_label":"Asia Pacific","project_type":"debottleneck","project_type_label":"Debottleneck","size_band":"mega","sanction_year":2017,"capex_estimate":1121.2,"capex_actual":1227.7,"cost_growth":0.09498751337852301,"schedule_slip":0.07692307692307684,"fel_score":35},{"id":294,"name":"Circuit Debottleneck 0294","operator":"Keystone Industries","sector":"mining","sector_label":"Mining & Metals","region":"asia_pacific","region_label":"Asia Pacific","project_type":"debottleneck","project_type_label":"Debottleneck","size_band":"large","sanction_year":2015,"capex_estimate":155.2,"capex_actual":151.9,"cost_growth":-0.021262886597938038,"schedule_slip":0.13609467455621307,"fel_score":56},{"id":485,"name":"Circuit Debottleneck 0485","operator":"Sterling Energy","sector":"mining","sector_label":"Mining & Metals","region":"europe","region_label":"Europe","project_type":"debottleneck","project_type_label":"Debottleneck","size_band":"mega","sanction_year":2016,"capex_estimate":599.9,"capex_actual":578.7,"cost_growth":-0.0353392232038672,"schedule_slip":-0.02280130293159607,"fel_score":84},{"id":538,"name":"Circuit Debottleneck 0538","operator":"Granite Resources","sector":"mining","sector_label":"Mining & Metals","region":"north_america","region_label":"North America","project_type":"debottleneck","project_type_label":"Debottleneck","size_band":"mega","sanction_year":2024,"capex_estimate":1114.4,"capex_actual":1135.3,"cost_growth":0.018754486719310716,"schedule_slip":0.00847457627118641,"fel_score":56},{"id":732,"name":"Circuit Debottleneck 0732","operator":"Cascade Operations","sector":"mining","sector_label":"Mining & Metals","region":"south_america","region_label":"South America","project_type":"debottleneck","project_type_label":"Debottleneck","size_band":"mega","sanction_year":2015,"capex_estimate":734.0,"capex_actual":817.3,"cost_growth":0.11348773841961847,"schedule_slip":0.053435114503816876,"fel_score":60},{"id":781,"name":"Circuit Debottleneck 0781","operator":"Sterling Materials","sector":"mining","sector_label":"Mining & Metals","region":"middle_east","region_label":"Middle East & Africa","project_type":"debottleneck","project_type_label":"Debottleneck","size_band":"mega","sanction_year":2020,"capex_estimate":1250.4,"capex_actual":1192.7,"cost_growth":-0.046145233525271945,"schedule_slip":0.08695652173913038,"fel_score":75},{"id":850,"name":"Circuit Debottleneck 0850","operator":"Cardinal Industries","sector":"mining","sector_label":"Mining & Metals","region":"asia_pacific","region_label":"Asia Pacific","project_type":"debottleneck","project_type_label":"Debottleneck","size_band":"mega","sanction_year":2014,"capex_estimate":1571.5,"capex_actual":1600.3,"cost_growth":0.018326439707286004,"schedule_slip":0.007246376811594177,"fel_score":66},{"id":1199,"name":"Circuit Debottleneck 1199","operator":"Harbor Energy","sector":"mining","sector_label":"Mining & Metals","region":"north_america","region_label":"North America","project_type":"debottleneck","project_type_label":"Debottleneck","size_band":"mega","sanction_year":2014,"capex_estimate":601.1,"capex_actual":559.7,"cost_growth":-0.06887373149226414,"schedule_slip":-0.03418803418803407,"fel_score":84},{"id":1276,"name":"Circuit Debottleneck 1276","operator":"Summit Resources","sector":"mining","sector_label":"Mining & Metals","region":"south_america","region_label":"South America","project_type":"debottleneck","project_type_label":"Debottleneck","size_band":"mega","sanction_year":2019,"capex_estimate":573.3,"capex_actual":658.2,"cost_growth":0.14809000523286256,"schedule_slip":-0.028328611898017,"fel_score":60},{"id":1401,"name":"Circuit Debottleneck 1401","operator":"Cascade Operations","sector":"mining","sector_label":"Mining & Metals","region":"north_america","region_label":"North America","project_type":"debottleneck","project_type_label":"Debottleneck","size_band":"large","sanction_year":2018,"capex_estimate":465.4,"capex_actual":458.2,"cost_growth":-0.015470562956596453,"schedule_slip":-0.00896860986547082,"fel_score":80},{"id":1412,"name":"Circuit Debottleneck 1412","operator":"Cascade Energy","sector":"mining","sector_label":"Mining & Metals","region":"asia_pacific","region_label":"Asia Pacific","project_type":"debottleneck","project_type_label":"Debottleneck","size_band":"large","sanction_year":2018,"capex_estimate":340.4,"capex_actual":394.2,"cost_growth":0.15804935370152765,"schedule_slip":0.024000000000000056,"fel_score":65},{"id":1681,"name":"Circuit Debottleneck 1681","operator":"Harbor Operations","sector":"mining","sector_label":"Mining & Metals","region":"middle_east","region_label":"Middle East & Africa","project_type":"debottleneck","project_type_label":"Debottleneck","size_band":"mega","sanction_year":2015,"capex_estimate":501.3,"capex_actual":528.2,"cost_growth":0.05366048274486342,"schedule_slip":0.07017543859649118,"fel_score":60},{"id":1688,"name":"Circuit Debottleneck 1688","operator":"Atlas Materials","sector":"mining","sector_label":"Mining & Metals","region":"south_america","region_label":"South America","project_type":"debottleneck","project_type_label":"Debottleneck","size_band":"mega","sanction_year":2016,"capex_estimate":563.2,"capex_actual":670.2,"cost_growth":0.18998579545454544,"schedule_slip":0.06140350877192976,"fel_score":44},{"id":1698,"name":"Circuit Debottleneck 1698","operator":"Cascade Energy","sector":"mining","sector_label":"Mining & Metals","region":"south_america","region_label":"South America","project_type":"debottleneck","project_type_label":"Debottleneck","size_band":"mega","sanction_year":2018,"capex_estimate":1285.7,"capex_actual":1366.9,"cost_growth":0.06315625729174772,"schedule_slip":-0.0031847133757961104,"fel_score":70},{"id":1719,"name":"Circuit Debottleneck 1719","operator":"Vanguard Resources","sector":"mining","sector_label":"Mining & Metals","region":"north_america","region_label":"North America","project_type":"debottleneck","project_type_label":"Debottleneck","size_band":"mega","sanction_year":2024,"capex_estimate":2510.8,"capex_actual":2556.4,"cost_growth":0.01816154213796396,"schedule_slip":-0.016194331983805613,"fel_score":66},{"id":1729,"name":"Circuit Debottleneck 1729","operator":"Pioneer Resources","sector":"mining","sector_label":"Mining & Metals","region":"europe","region_label":"Europe","project_type":"debottleneck","project_type_label":"Debottleneck","size_band":"large","sanction_year":2014,"capex_estimate":412.9,"capex_actual":403.2,"cost_growth":-0.02349237103414868,"schedule_slip":0.0921787709497208,"fel_score":81},{"id":1830,"name":"Circuit Debottleneck 1830","operator":"Granite Energy","sector":"mining","sector_label":"Mining & Metals","region":"europe","region_label":"Europe","project_type":"debottleneck","project_type_label":"Debottleneck","size_band":"large","sanction_year":2022,"capex_estimate":224.1,"capex_actual":221.0,"cost_growth":-0.013833110218652363,"schedule_slip":0.1666666666666668,"fel_score":66},{"id":212,"name":"Line Debottleneck 0212","operator":"Harbor Operations","sector":"mining","sector_label":"Mining & Metals","region":"north_america","region_label":"North America","project_type":"debottleneck","project_type_label":"Debottleneck","size_band":"large","sanction_year":2021,"capex_estimate":407.3,"capex_actual":483.0,"cost_growth":0.18585808986005398,"schedule_slip":0.05454545454545454,"fel_score":71},{"id":217,"name":"Line Debottleneck 0217","operator":"Sterling Resources","sector":"mining","sector_label":"Mining & Metals","region":"europe","region_label":"Europe","project_type":"debottleneck","project_type_label":"Debottleneck","size_band":"mega","sanction_year":2022,"capex_estimate":735.2,"capex_actual":781.9,"cost_growth":0.06352013057671373,"schedule_slip":0.051660516605166,"fel_score":25},{"id":253,"name":"Line Debottleneck 0253","operator":"Sterling Industries","sector":"mining","sector_label":"Mining & Metals","region":"asia_pacific","region_label":"Asia Pacific","project_type":"debottleneck","project_type_label":"Debottleneck","size_band":"large","sanction_year":2024,"capex_estimate":301.4,"capex_actual":330.9,"cost_growth":0.09787657597876577,"schedule_slip":0.1726804123711341,"fel_score":50},{"id":291,"name":"Line Debottleneck 0291","operator":"Keystone Operations","sector":"mining","sector_label":"Mining & Metals","region":"north_america","region_label":"North America","project_type":"debottleneck","project_type_label":"Debottleneck","size_band":"mega","sanction_year":2014,"capex_estimate":912.2,"capex_actual":953.8,"cost_growth":0.04560403420302555,"schedule_slip":0.1578947368421052,"fel_score":60},{"id":303,"name":"Line Debottleneck 0303","operator":"Pioneer Operations","sector":"mining","sector_label":"Mining & Metals","region":"asia_pacific","region_label":"Asia Pacific","project_type":"debottleneck","project_type_label":"Debottleneck","size_band":"mega","sanction_year":2020,"capex_estimate":606.1,"capex_actual":699.0,"cost_growth":0.153275037122587,"schedule_slip":-0.00671140939597313,"fel_score":40},{"id":396,"name":"Line Debottleneck 0396","operator":"Atlas Materials","sector":"mining","sector_label":"Mining & Metals","region":"middle_east","region_label":"Middle East & Africa","project_type":"debottleneck","project_type_label":"Debottleneck","size_band":"large","sanction_year":2019,"capex_estimate":467.6,"capex_actual":449.8,"cost_growth":-0.03806672369546623,"schedule_slip":0.06796116504854362,"fel_score":70}]}