{"count":56,"next":"http://testserver/api/projects/?ordering=name&page=2&project_type=asset_replacement&sector=power","previous":null,"results":[{"id":66,"name":"Boiler Asset 0066","operator":"Northgate Resources","sector":"power","sector_label":"Power & Utilities","region":"europe","region_label":"Europe","project_type":"asset_replacement","project_type_label":"Asset Replacement","size_band":"large","sanction_year":2017,"capex_estimate":337.8,"capex_actual":357.6,"cost_growth":0.05861456483126113,"schedule_slip":0.0902777777777777,"fel_score":49},{"id":216,"name":"Boiler Asset 0216","operator":"Cascade Industries","sector":"power","sector_label":"Power & Utilities","region":"middle_east","region_label":"Middle East & Africa","project_type":"asset_replacement","project_type_label":"Asset Replacement","size_band":"large","sanction_year":2015,"capex_estimate":407.2,"capex_actual":434.1,"cost_growth":0.06606090373280951,"schedule_slip":0.03488372093023264,"fel_score":59},{"id":568,"name":"Boiler Asset 0568","operator":"Harbor Resources","sector":"power","sector_label":"Power & Utilities","region":"asia_pacific","region_label":"Asia Pacific","project_type":"asset_replacement","project_type_label":"Asset Replacement","size_band":"mega","sanction_year":2021,"capex_estimate":665.4,"capex_actual":648.0,"cost_growth":-0.02614968440036065,"schedule_slip":0.018292682926829312,"fel_score":66},{"id":579,"name":"Boiler Asset 0579","operator":"Sterling Materials","sector":"power","sector_label":"Power & Utilities","region":"south_america","region_label":"South America","project_type":"asset_replacement","project_type_label":"Asset Replacement","size_band":"mega","sanction_year":2016,"capex_estimate":774.1,"capex_actual":819.2,"cost_growth":0.05826120656245966,"schedule_slip":0.12380952380952388,"fel_score":41},{"id":584,"name":"Boiler Asset 0584","operator":"Granite Resources","sector":"power","sector_label":"Power & Utilities","region":"north_america","region_label":"North America","project_type":"asset_replacement","project_type_label":"Asset Replacement","size_band":"large","sanction_year":2019,"capex_estimate":465.0,"capex_actual":502.1,"cost_growth":0.07978494623655918,"schedule_slip":0.10126582278480999,"fel_score":66},{"id":644,"name":"Boiler Asset 0644","operator":"Cardinal Materials","sector":"power","sector_label":"Power & Utilities","region":"europe","region_label":"Europe","project_type":"asset_replacement","project_type_label":"Asset Replacement","size_band":"large","sanction_year":2014,"capex_estimate":218.2,"capex_actual":223.7,"cost_growth":0.025206232813932174,"schedule_slip":0.03932584269662917,"fel_score":40},{"id":730,"name":"Boiler Asset 0730","operator":"Northgate Industries","sector":"power","sector_label":"Power & Utilities","region":"north_america","region_label":"North America","project_type":"asset_replacement","project_type_label":"Asset Replacement","size_band":"mega","sanction_year":2015,"capex_estimate":1327.7,"capex_actual":1533.8,"cost_growth":0.15523085034269782,"schedule_slip":-0.015873015873015817,"fel_score":31},{"id":785,"name":"Boiler Asset 0785","operator":"Granite Energy","sector":"power","sector_label":"Power & Utilities","region":"asia_pacific","region_label":"Asia Pacific","project_type":"asset_replacement","project_type_label":"Asset Replacement","size_band":"mega","sanction_year":2015,"capex_estimate":613.1,"capex_actual":654.5,"cost_growth":0.06752568912086115,"schedule_slip":0.056213017751479466,"fel_score":48},{"id":1055,"name":"Boiler Asset 1055","operator":"Keystone Energy","sector":"power","sector_label":"Power & Utilities","region":"north_america","region_label":"North America","project_type":"asset_replacement","project_type_label":"Asset Replacement","size_band":"medium","sanction_year":2014,"capex_estimate":63.7,"capex_actual":68.1,"cost_growth":0.06907378335949751,"schedule_slip":0.10135135135135134,"fel_score":51},{"id":1546,"name":"Boiler Asset 1546","operator":"Pioneer Operations","sector":"power","sector_label":"Power & Utilities","region":"north_america","region_label":"North America","project_type":"asset_replacement","project_type_label":"Asset Replacement","size_band":"medium","sanction_year":2024,"capex_estimate":67.1,"capex_actual":61.8,"cost_growth":-0.07898658718330846,"schedule_slip":0.09375,"fel_score":40},{"id":1621,"name":"Boiler Asset 1621","operator":"Cardinal Resources","sector":"power","sector_label":"Power & Utilities","region":"europe","region_label":"Europe","project_type":"asset_replacement","project_type_label":"Asset Replacement","size_band":"mega","sanction_year":2019,"capex_estimate":2801.4,"capex_actual":2927.1,"cost_growth":0.044870421931891134,"schedule_slip":0.07260726072607258,"fel_score":59},{"id":1654,"name":"Boiler Asset 1654","operator":"Atlas Resources","sector":"power","sector_label":"Power & Utilities","region":"asia_pacific","region_label":"Asia Pacific","project_type":"asset_replacement","project_type_label":"Asset Replacement","size_band":"large","sanction_year":2015,"capex_estimate":271.2,"capex_actual":272.2,"cost_growth":0.003687315634218289,"schedule_slip":-0.02631578947368421,"fel_score":75},{"id":1748,"name":"Boiler Asset 1748","operator":"Keystone Industries","sector":"power","sector_label":"Power & Utilities","region":"middle_east","region_label":"Middle East & Africa","project_type":"asset_replacement","project_type_label":"Asset Replacement","size_band":"mega","sanction_year":2021,"capex_estimate":1209.5,"capex_actual":1183.5,"cost_growth":-0.02149648615130219,"schedule_slip":0.04109589041095888,"fel_score":50},{"id":75,"name":"Compressor Asset 0075","operator":"Summit Industries","sector":"power","sector_label":"Power & Utilities","region":"europe","region_label":"Europe","project_type":"asset_replacement","project_type_label":"Asset Replacement","size_band":"large","sanction_year":2016,"capex_estimate":499.6,"capex_actual":543.0,"cost_growth":0.08686949559647714,"schedule_slip":0.07357859531772586,"fel_score":59},{"id":159,"name":"Compressor Asset 0159","operator":"Cardinal Industries","sector":"power","sector_label":"Power & Utilities","region":"europe","region_label":"Europe","project_type":"asset_replacement","project_type_label":"Asset Replacement","size_band":"mega","sanction_year":2015,"capex_estimate":518.7,"capex_actual":549.2,"cost_growth":0.05880084827453248,"schedule_slip":0.016483516483516522,"fel_score":85},{"id":1050,"name":"Compressor Asset 1050","operator":"Keystone Materials","sector":"power","sector_label":"Power & Utilities","region":"south_america","region_label":"South America","project_type":"asset_replacement","project_type_label":"Asset Replacement","size_band":"mega","sanction_year":2018,"capex_estimate":1428.8,"capex_actual":1332.7,"cost_growth":-0.06725923852183645,"schedule_slip":0.023437499999999917,"fel_score":59},{"id":1183,"name":"Compressor Asset 1183","operator":"Atlas Operations","sector":"power","sector_label":"Power & Utilities","region":"asia_pacific","region_label":"Asia Pacific","project_type":"asset_replacement","project_type_label":"Asset Replacement","size_band":"mega","sanction_year":2017,"capex_estimate":949.9,"capex_actual":1004.8,"cost_growth":0.05779555742709757,"schedule_slip":0.017467248908297036,"fel_score":65},{"id":1487,"name":"Compressor Asset 1487","operator":"Vanguard Energy","sector":"power","sector_label":"Power & Utilities","region":"europe","region_label":"Europe","project_type":"asset_replacement","project_type_label":"Asset Replacement","size_band":"large","sanction_year":2020,"capex_estimate":444.4,"capex_actual":469.3,"cost_growth":0.05603060306030611,"schedule_slip":-0.0729166666666666,"fel_score":85},{"id":1503,"name":"Compressor Asset 1503","operator":"Cardinal Operations","sector":"power","sector_label":"Power & Utilities","region":"middle_east","region_label":"Middle East & Africa","project_type":"asset_replacement","project_type_label":"Asset Replacement","size_band":"mega","sanction_year":2014,"capex_estimate":939.0,"capex_actual":928.6,"cost_growth":-0.0110756123535676,"schedule_slip":0.046296296296296294,"fel_score":75},{"id":1931,"name":"Compressor Asset 1931","operator":"Atlas Energy","sector":"power","sector_label":"Power & Utilities","region":"south_america","region_label":"South America","project_type":"asset_replacement","project_type_label":"Asset Replacement","size_band":"large","sanction_year":2024,"capex_estimate":108.0,"capex_actual":123.4,"cost_growth":0.14259259259259263,"schedule_slip":0.10465116279069772,"fel_score":40},{"id":1933,"name":"Compressor Asset 1933","operator":"Sterling Resources","sector":"power","sector_label":"Power & Utilities","region":"south_america","region_label":"South America","project_type":"asset_replacement","project_type_label":"Asset Replacement","size_band":"mega","sanction_year":2020,"capex_estimate":831.9,"capex_actual":950.8,"cost_growth":0.14292583243178264,"schedule_slip":0.08921933085501867,"fel_score":44},{"id":155,"name":"Conveyor Asset 0155","operator":"Cascade Industries","sector":"power","sector_label":"Power & Utilities","region":"north_america","region_label":"North America","project_type":"asset_replacement","project_type_label":"Asset Replacement","size_band":"large","sanction_year":2018,"capex_estimate":438.0,"capex_actual":458.3,"cost_growth":0.04634703196347035,"schedule_slip":0.05149051490514901,"fel_score":60},{"id":520,"name":"Conveyor Asset 0520","operator":"Atlas Energy","sector":"power","sector_label":"Power & Utilities","region":"south_america","region_label":"South America","project_type":"asset_replacement","project_type_label":"Asset Replacement","size_band":"mega","sanction_year":2022,"capex_estimate":672.3,"capex_actual":721.6,"cost_growth":0.07333035847092083,"schedule_slip":0.01880877742946713,"fel_score":66},{"id":1096,"name":"Conveyor Asset 1096","operator":"Keystone Energy","sector":"power","sector_label":"Power & Utilities","region":"europe","region_label":"Europe","project_type":"asset_replacement","project_type_label":"Asset Replacement","size_band":"mega","sanction_year":2017,"capex_estimate":601.1,"capex_actual":559.1,"cost_growth":-0.0698719015138912,"schedule_slip":0.03703703703703719,"fel_score":79},{"id":1097,"name":"Conveyor Asset 1097","operator":"Cascade Materials","sector":"power","sector_label":"Power & Utilities","region":"middle_east","region_label":"Middle East & Africa","project_type":"asset_replacement","project_type_label":"Asset Replacement","size_band":"mega","sanction_year":2019,"capex_estimate":1305.1,"capex_actual":1617.4,"cost_growth":0.23929200827522812,"schedule_slip":-0.023622047244094405,"fel_score":41}]}